<?xml version="1.0" encoding="utf-8"?>
<!DOCTYPE eagle SYSTEM "eagle.dtd">
<eagle version="6.4">
<drawing>
<settings>
<setting alwaysvectorfont="no"/>
<setting verticaltext="up"/>
</settings>
<grid distance="0.05" unitdist="inch" unit="inch" style="lines" multiple="1" display="no" altdistance="0.025" altunitdist="inch" altunit="inch"/>
<layers>
<layer number="1" name="Top" color="4" fill="1" visible="no" active="no"/>
<layer number="2" name="Route2" color="1" fill="3" visible="no" active="no"/>
<layer number="3" name="Route3" color="4" fill="3" visible="no" active="no"/>
<layer number="4" name="Route4" color="1" fill="4" visible="no" active="no"/>
<layer number="5" name="Route5" color="4" fill="4" visible="no" active="no"/>
<layer number="6" name="Route6" color="1" fill="8" visible="no" active="no"/>
<layer number="7" name="Route7" color="4" fill="8" visible="no" active="no"/>
<layer number="8" name="Route8" color="1" fill="2" visible="no" active="no"/>
<layer number="9" name="Route9" color="4" fill="2" visible="no" active="no"/>
<layer number="10" name="Route10" color="1" fill="7" visible="no" active="no"/>
<layer number="11" name="Route11" color="4" fill="7" visible="no" active="no"/>
<layer number="12" name="Route12" color="1" fill="5" visible="no" active="no"/>
<layer number="13" name="Route13" color="4" fill="5" visible="no" active="no"/>
<layer number="14" name="Route14" color="1" fill="6" visible="no" active="no"/>
<layer number="15" name="Route15" color="4" fill="6" visible="no" active="no"/>
<layer number="16" name="Bottom" color="1" fill="1" visible="no" active="no"/>
<layer number="17" name="Pads" color="2" fill="1" visible="no" active="no"/>
<layer number="18" name="Vias" color="2" fill="1" visible="no" active="no"/>
<layer number="19" name="Unrouted" color="6" fill="1" visible="no" active="no"/>
<layer number="20" name="Dimension" color="15" fill="1" visible="no" active="no"/>
<layer number="21" name="tPlace" color="7" fill="1" visible="no" active="no"/>
<layer number="22" name="bPlace" color="7" fill="1" visible="no" active="no"/>
<layer number="23" name="tOrigins" color="15" fill="1" visible="no" active="no"/>
<layer number="24" name="bOrigins" color="15" fill="1" visible="no" active="no"/>
<layer number="25" name="tNames" color="7" fill="1" visible="no" active="no"/>
<layer number="26" name="bNames" color="7" fill="1" visible="no" active="no"/>
<layer number="27" name="tValues" color="7" fill="1" visible="no" active="no"/>
<layer number="28" name="bValues" color="7" fill="1" visible="no" active="no"/>
<layer number="29" name="tStop" color="7" fill="3" visible="no" active="no"/>
<layer number="30" name="bStop" color="7" fill="6" visible="no" active="no"/>
<layer number="31" name="tCream" color="7" fill="4" visible="no" active="no"/>
<layer number="32" name="bCream" color="7" fill="5" visible="no" active="no"/>
<layer number="33" name="tFinish" color="6" fill="3" visible="no" active="no"/>
<layer number="34" name="bFinish" color="6" fill="6" visible="no" active="no"/>
<layer number="35" name="tGlue" color="7" fill="4" visible="no" active="no"/>
<layer number="36" name="bGlue" color="7" fill="5" visible="no" active="no"/>
<layer number="37" name="tTest" color="7" fill="1" visible="no" active="no"/>
<layer number="38" name="bTest" color="7" fill="1" visible="no" active="no"/>
<layer number="39" name="tKeepout" color="4" fill="11" visible="no" active="no"/>
<layer number="40" name="bKeepout" color="1" fill="11" visible="no" active="no"/>
<layer number="41" name="tRestrict" color="4" fill="10" visible="no" active="no"/>
<layer number="42" name="bRestrict" color="1" fill="10" visible="no" active="no"/>
<layer number="43" name="vRestrict" color="2" fill="10" visible="no" active="no"/>
<layer number="44" name="Drills" color="7" fill="1" visible="no" active="no"/>
<layer number="45" name="Holes" color="7" fill="1" visible="no" active="no"/>
<layer number="46" name="Milling" color="3" fill="1" visible="no" active="no"/>
<layer number="47" name="Measures" color="7" fill="1" visible="no" active="no"/>
<layer number="48" name="Document" color="7" fill="1" visible="no" active="no"/>
<layer number="49" name="Reference" color="7" fill="1" visible="no" active="no"/>
<layer number="51" name="tDocu" color="7" fill="1" visible="no" active="no"/>
<layer number="52" name="bDocu" color="7" fill="1" visible="no" active="no"/>
<layer number="91" name="Nets" color="2" fill="1" visible="yes" active="yes"/>
<layer number="92" name="Busses" color="1" fill="1" visible="yes" active="yes"/>
<layer number="93" name="Pins" color="2" fill="1" visible="no" active="yes"/>
<layer number="94" name="Symbols" color="4" fill="1" visible="yes" active="yes"/>
<layer number="95" name="Names" color="7" fill="1" visible="yes" active="yes"/>
<layer number="96" name="Values" color="7" fill="1" visible="yes" active="yes"/>
<layer number="97" name="Info" color="7" fill="1" visible="yes" active="yes"/>
<layer number="98" name="Guide" color="6" fill="1" visible="yes" active="yes"/>
</layers>
<schematic xreflabel="%F%N/%S.%C%R" xrefpart="/%S.%C%R">
<libraries>
<library name="mosfet">
<packages>
<package name="SOIC-8">
<wire x1="2.4" y1="1.9" x2="2.4" y2="-1.4" width="0.2032" layer="51"/>
<wire x1="2.4" y1="-1.4" x2="2.4" y2="-1.9" width="0.2032" layer="51"/>
<wire x1="2.4" y1="-1.9" x2="-2.4" y2="-1.9" width="0.2032" layer="51"/>
<wire x1="-2.4" y1="-1.9" x2="-2.4" y2="-1.4" width="0.2032" layer="51"/>
<wire x1="-2.4" y1="-1.4" x2="-2.4" y2="1.9" width="0.2032" layer="51"/>
<wire x1="-2.4" y1="1.9" x2="2.4" y2="1.9" width="0.2032" layer="51"/>
<wire x1="2.4" y1="-1.4" x2="-2.4" y2="-1.4" width="0.2032" layer="51"/>
<smd name="G2" x="-0.635" y="-2.35" dx="0.72" dy="1.78" layer="1"/>
<smd name="D2@2" x="-0.635" y="2.35" dx="0.72" dy="1.78" layer="1"/>
<smd name="S2" x="-1.905" y="-2.35" dx="0.72" dy="1.78" layer="1"/>
<smd name="S1" x="0.635" y="-2.35" dx="0.72" dy="1.78" layer="1"/>
<smd name="G1" x="1.905" y="-2.35" dx="0.72" dy="1.78" layer="1"/>
<smd name="D2@1" x="-1.905" y="2.35" dx="0.72" dy="1.78" layer="1"/>
<smd name="D1@1" x="0.635" y="2.35" dx="0.72" dy="1.78" layer="1"/>
<smd name="D1@2" x="1.905" y="2.35" dx="0.72" dy="1.78" layer="1"/>
<text x="-2.667" y="-1.905" size="1.27" layer="25" rot="R90">&gt;NAME</text>
<text x="3.937" y="-1.905" size="1.27" layer="27" rot="R90">&gt;VALUE</text>
<rectangle x1="-2.15" y1="-3.1" x2="-1.66" y2="-2" layer="51"/>
<rectangle x1="-0.88" y1="-3.1" x2="-0.39" y2="-2" layer="51"/>
<rectangle x1="0.39" y1="-3.1" x2="0.88" y2="-2" layer="51"/>
<rectangle x1="1.66" y1="-3.1" x2="2.15" y2="-2" layer="51"/>
<rectangle x1="1.66" y1="2" x2="2.15" y2="3.1" layer="51"/>
<rectangle x1="0.39" y1="2" x2="0.88" y2="3.1" layer="51"/>
<rectangle x1="-0.88" y1="2" x2="-0.39" y2="3.1" layer="51"/>
<rectangle x1="-2.15" y1="2" x2="-1.66" y2="3.1" layer="51"/>
<circle x="-2.032" y="-0.635" radius="0.359209375" width="0.127" layer="51"/>
</package>
</packages>
<symbols>
<symbol name="DUAL-TRANSISTOR">
<wire x1="-1.778" y1="-9.398" x2="-1.778" y2="-10.16" width="0.254" layer="94"/>
<wire x1="-1.778" y1="-10.16" x2="-1.778" y2="-10.922" width="0.254" layer="94"/>
<wire x1="-1.778" y1="-6.985" x2="-1.778" y2="-7.62" width="0.254" layer="94"/>
<wire x1="-1.778" y1="-7.62" x2="-1.778" y2="-8.255" width="0.254" layer="94"/>
<wire x1="-1.778" y1="-10.16" x2="0" y2="-10.16" width="0.1524" layer="94"/>
<wire x1="0" y1="-10.16" x2="0" y2="-12.7" width="0.1524" layer="94"/>
<wire x1="-1.778" y1="-12.065" x2="-1.778" y2="-12.7" width="0.254" layer="94"/>
<wire x1="-1.778" y1="-12.7" x2="-1.778" y2="-13.335" width="0.254" layer="94"/>
<wire x1="-2.54" y1="-7.62" x2="-2.54" y2="-12.7" width="0.254" layer="94"/>
<wire x1="0" y1="-12.7" x2="-1.778" y2="-12.7" width="0.1524" layer="94"/>
<wire x1="1.27" y1="-7.62" x2="1.27" y2="-9.652" width="0.1524" layer="94"/>
<wire x1="1.27" y1="-9.652" x2="1.27" y2="-12.7" width="0.1524" layer="94"/>
<wire x1="0" y1="-12.7" x2="1.27" y2="-12.7" width="0.1524" layer="94"/>
<wire x1="-1.778" y1="-7.62" x2="1.27" y2="-7.62" width="0.1524" layer="94"/>
<wire x1="2.032" y1="-9.398" x2="1.778" y2="-9.652" width="0.1524" layer="94"/>
<wire x1="1.778" y1="-9.652" x2="1.27" y2="-9.652" width="0.1524" layer="94"/>
<wire x1="1.27" y1="-9.652" x2="0.762" y2="-9.652" width="0.1524" layer="94"/>
<wire x1="0.762" y1="-9.652" x2="0.508" y2="-9.906" width="0.1524" layer="94"/>
<circle x="0" y="-12.7" radius="0.3592" width="0" layer="94"/>
<circle x="0" y="-7.62" radius="0.3592" width="0" layer="94"/>
<pin name="S2" x="0" y="-15.24" visible="off" length="short" direction="pas" rot="R90"/>
<pin name="G2" x="-5.08" y="-12.7" visible="off" length="short" direction="pas"/>
<pin name="D2" x="0" y="-5.08" visible="off" length="short" direction="pas" rot="R270"/>
<polygon width="0.1524" layer="94">
<vertex x="1.27" y="-9.652"/>
<vertex x="0.762" y="-10.414"/>
<vertex x="1.778" y="-10.414"/>
</polygon>
<polygon width="0.1524" layer="94">
<vertex x="-1.524" y="-10.16"/>
<vertex x="-0.508" y="-9.398"/>
<vertex x="-0.508" y="-10.922"/>
</polygon>
<wire x1="-1.778" y1="9.398" x2="-1.778" y2="10.16" width="0.254" layer="94"/>
<wire x1="-1.778" y1="10.16" x2="-1.778" y2="10.922" width="0.254" layer="94"/>
<wire x1="-1.778" y1="6.985" x2="-1.778" y2="7.62" width="0.254" layer="94"/>
<wire x1="-1.778" y1="7.62" x2="-1.778" y2="8.255" width="0.254" layer="94"/>
<wire x1="-1.778" y1="10.16" x2="0" y2="10.16" width="0.1524" layer="94"/>
<wire x1="0" y1="10.16" x2="0" y2="12.7" width="0.1524" layer="94"/>
<wire x1="-1.778" y1="12.065" x2="-1.778" y2="12.7" width="0.254" layer="94"/>
<wire x1="-1.778" y1="12.7" x2="-1.778" y2="13.335" width="0.254" layer="94"/>
<wire x1="-2.54" y1="7.62" x2="-2.54" y2="12.7" width="0.254" layer="94"/>
<wire x1="0" y1="12.7" x2="-1.778" y2="12.7" width="0.1524" layer="94"/>
<wire x1="1.27" y1="7.62" x2="1.27" y2="10.668" width="0.1524" layer="94"/>
<wire x1="1.27" y1="10.668" x2="1.27" y2="12.7" width="0.1524" layer="94"/>
<wire x1="0" y1="12.7" x2="1.27" y2="12.7" width="0.1524" layer="94"/>
<wire x1="-1.778" y1="7.62" x2="1.27" y2="7.62" width="0.1524" layer="94"/>
<wire x1="0.508" y1="10.922" x2="0.762" y2="10.668" width="0.1524" layer="94"/>
<wire x1="0.762" y1="10.668" x2="1.27" y2="10.668" width="0.1524" layer="94"/>
<wire x1="1.27" y1="10.668" x2="1.778" y2="10.668" width="0.1524" layer="94"/>
<wire x1="1.778" y1="10.668" x2="2.032" y2="10.414" width="0.1524" layer="94"/>
<circle x="0" y="12.7" radius="0.3592" width="0" layer="94"/>
<circle x="0" y="7.62" radius="0.3592" width="0" layer="94"/>
<text x="-3.81" y="11.43" size="1.778" layer="96" rot="R180">&gt;VALUE</text>
<text x="-6.35" y="-8.89" size="1.778" layer="95" rot="R90">&gt;NAME</text>
<pin name="S1" x="0" y="15.24" visible="off" length="short" direction="pas" rot="R270"/>
<pin name="G1" x="-5.08" y="12.7" visible="off" length="short" direction="pas"/>
<pin name="D1" x="0" y="5.08" visible="off" length="short" direction="pas" rot="R90"/>
<polygon width="0.1524" layer="94">
<vertex x="1.27" y="10.668"/>
<vertex x="1.778" y="9.906"/>
<vertex x="0.762" y="9.906"/>
</polygon>
<polygon width="0.1524" layer="94">
<vertex x="0" y="10.16"/>
<vertex x="-1.016" y="10.922"/>
<vertex x="-1.016" y="9.398"/>
</polygon>
</symbol>
</symbols>
<devicesets>
<deviceset name="AO4606">
<gates>
<gate name="G$1" symbol="DUAL-TRANSISTOR" x="0" y="2.54"/>
</gates>
<devices>
<device name="" package="SOIC-8">
<connects>
<connect gate="G$1" pin="D1" pad="D1@1 D1@2"/>
<connect gate="G$1" pin="D2" pad="D2@1 D2@2"/>
<connect gate="G$1" pin="G1" pad="G1"/>
<connect gate="G$1" pin="G2" pad="G2"/>
<connect gate="G$1" pin="S1" pad="S1"/>
<connect gate="G$1" pin="S2" pad="S2"/>
</connects>
<technologies>
<technology name=""/>
</technologies>
</device>
</devices>
</deviceset>
</devicesets>
</library>
<library name="supply1">
<description>&lt;b&gt;Supply Symbols&lt;/b&gt;&lt;p&gt;
 GND, VCC, 0V, +5V, -5V, etc.&lt;p&gt;
 Please keep in mind, that these devices are necessary for the
 automatic wiring of the supply signals.&lt;p&gt;
 The pin name defined in the symbol is identical to the net which is to be wired automatically.&lt;p&gt;
 In this library the device names are the same as the pin names of the symbols, therefore the correct signal names appear next to the supply symbols in the schematic.&lt;p&gt;
 &lt;author&gt;Created by librarian@cadsoft.de&lt;/author&gt;</description>
<packages>
</packages>
<symbols>
<symbol name="VCC">
<wire x1="1.27" y1="-1.905" x2="0" y2="0" width="0.254" layer="94"/>
<wire x1="0" y1="0" x2="-1.27" y2="-1.905" width="0.254" layer="94"/>
<text x="-2.54" y="-2.54" size="1.778" layer="96" rot="R90">&gt;VALUE</text>
<pin name="VCC" x="0" y="-2.54" visible="off" length="short" direction="sup" rot="R90"/>
</symbol>
<symbol name="GND">
<wire x1="-1.905" y1="0" x2="1.905" y2="0" width="0.254" layer="94"/>
<text x="-2.54" y="-2.54" size="1.778" layer="96">&gt;VALUE</text>
<pin name="GND" x="0" y="2.54" visible="off" length="short" direction="sup" rot="R270"/>
</symbol>
</symbols>
<devicesets>
<deviceset name="VCC" prefix="P+">
<description>&lt;b&gt;SUPPLY SYMBOL&lt;/b&gt;</description>
<gates>
<gate name="VCC" symbol="VCC" x="0" y="0"/>
</gates>
<devices>
<device name="">
<technologies>
<technology name=""/>
</technologies>
</device>
</devices>
</deviceset>
<deviceset name="GND" prefix="GND">
<description>&lt;b&gt;SUPPLY SYMBOL&lt;/b&gt;</description>
<gates>
<gate name="1" symbol="GND" x="0" y="0"/>
</gates>
<devices>
<device name="">
<technologies>
<technology name=""/>
</technologies>
</device>
</devices>
</deviceset>
</devicesets>
</library>
<library name="pinhead">
<description>&lt;b&gt;Pin Header Connectors&lt;/b&gt;&lt;p&gt;
&lt;author&gt;Created by librarian@cadsoft.de&lt;/author&gt;</description>
<packages>
<package name="1X04">
<description>&lt;b&gt;PIN HEADER&lt;/b&gt;</description>
<wire x1="0" y1="0.635" x2="0.635" y2="1.27" width="0.1524" layer="21"/>
<wire x1="0.635" y1="1.27" x2="1.905" y2="1.27" width="0.1524" layer="21"/>
<wire x1="1.905" y1="1.27" x2="2.54" y2="0.635" width="0.1524" layer="21"/>
<wire x1="2.54" y1="0.635" x2="2.54" y2="-0.635" width="0.1524" layer="21"/>
<wire x1="2.54" y1="-0.635" x2="1.905" y2="-1.27" width="0.1524" layer="21"/>
<wire x1="1.905" y1="-1.27" x2="0.635" y2="-1.27" width="0.1524" layer="21"/>
<wire x1="0.635" y1="-1.27" x2="0" y2="-0.635" width="0.1524" layer="21"/>
<wire x1="-4.445" y1="1.27" x2="-3.175" y2="1.27" width="0.1524" layer="21"/>
<wire x1="-3.175" y1="1.27" x2="-2.54" y2="0.635" width="0.1524" layer="21"/>
<wire x1="-2.54" y1="0.635" x2="-2.54" y2="-0.635" width="0.1524" layer="21"/>
<wire x1="-2.54" y1="-0.635" x2="-3.175" y2="-1.27" width="0.1524" layer="21"/>
<wire x1="-2.54" y1="0.635" x2="-1.905" y2="1.27" width="0.1524" layer="21"/>
<wire x1="-1.905" y1="1.27" x2="-0.635" y2="1.27" width="0.1524" layer="21"/>
<wire x1="-0.635" y1="1.27" x2="0" y2="0.635" width="0.1524" layer="21"/>
<wire x1="0" y1="0.635" x2="0" y2="-0.635" width="0.1524" layer="21"/>
<wire x1="0" y1="-0.635" x2="-0.635" y2="-1.27" width="0.1524" layer="21"/>
<wire x1="-0.635" y1="-1.27" x2="-1.905" y2="-1.27" width="0.1524" layer="21"/>
<wire x1="-1.905" y1="-1.27" x2="-2.54" y2="-0.635" width="0.1524" layer="21"/>
<wire x1="-5.08" y1="0.635" x2="-5.08" y2="-0.635" width="0.1524" layer="21"/>
<wire x1="-4.445" y1="1.27" x2="-5.08" y2="0.635" width="0.1524" layer="21"/>
<wire x1="-5.08" y1="-0.635" x2="-4.445" y2="-1.27" width="0.1524" layer="21"/>
<wire x1="-3.175" y1="-1.27" x2="-4.445" y2="-1.27" width="0.1524" layer="21"/>
<wire x1="3.175" y1="1.27" x2="4.445" y2="1.27" width="0.1524" layer="21"/>
<wire x1="4.445" y1="1.27" x2="5.08" y2="0.635" width="0.1524" layer="21"/>
<wire x1="5.08" y1="0.635" x2="5.08" y2="-0.635" width="0.1524" layer="21"/>
<wire x1="5.08" y1="-0.635" x2="4.445" y2="-1.27" width="0.1524" layer="21"/>
<wire x1="3.175" y1="1.27" x2="2.54" y2="0.635" width="0.1524" layer="21"/>
<wire x1="2.54" y1="-0.635" x2="3.175" y2="-1.27" width="0.1524" layer="21"/>
<wire x1="4.445" y1="-1.27" x2="3.175" y2="-1.27" width="0.1524" layer="21"/>
<pad name="1" x="-3.81" y="0" drill="1.016" shape="long" rot="R90"/>
<pad name="2" x="-1.27" y="0" drill="1.016" shape="long" rot="R90"/>
<pad name="3" x="1.27" y="0" drill="1.016" shape="long" rot="R90"/>
<pad name="4" x="3.81" y="0" drill="1.016" shape="long" rot="R90"/>
<text x="-5.1562" y="1.8288" size="1.27" layer="25" ratio="10">&gt;NAME</text>
<text x="-5.08" y="-3.175" size="1.27" layer="27">&gt;VALUE</text>
<rectangle x1="1.016" y1="-0.254" x2="1.524" y2="0.254" layer="51"/>
<rectangle x1="-1.524" y1="-0.254" x2="-1.016" y2="0.254" layer="51"/>
<rectangle x1="-4.064" y1="-0.254" x2="-3.556" y2="0.254" layer="51"/>
<rectangle x1="3.556" y1="-0.254" x2="4.064" y2="0.254" layer="51"/>
</package>
<package name="1X04/90">
<description>&lt;b&gt;PIN HEADER&lt;/b&gt;</description>
<wire x1="-5.08" y1="-1.905" x2="-2.54" y2="-1.905" width="0.1524" layer="21"/>
<wire x1="-2.54" y1="-1.905" x2="-2.54" y2="0.635" width="0.1524" layer="21"/>
<wire x1="-2.54" y1="0.635" x2="-5.08" y2="0.635" width="0.1524" layer="21"/>
<wire x1="-5.08" y1="0.635" x2="-5.08" y2="-1.905" width="0.1524" layer="21"/>
<wire x1="-3.81" y1="6.985" x2="-3.81" y2="1.27" width="0.762" layer="21"/>
<wire x1="-2.54" y1="-1.905" x2="0" y2="-1.905" width="0.1524" layer="21"/>
<wire x1="0" y1="-1.905" x2="0" y2="0.635" width="0.1524" layer="21"/>
<wire x1="0" y1="0.635" x2="-2.54" y2="0.635" width="0.1524" layer="21"/>
<wire x1="-1.27" y1="6.985" x2="-1.27" y2="1.27" width="0.762" layer="21"/>
<wire x1="0" y1="-1.905" x2="2.54" y2="-1.905" width="0.1524" layer="21"/>
<wire x1="2.54" y1="-1.905" x2="2.54" y2="0.635" width="0.1524" layer="21"/>
<wire x1="2.54" y1="0.635" x2="0" y2="0.635" width="0.1524" layer="21"/>
<wire x1="1.27" y1="6.985" x2="1.27" y2="1.27" width="0.762" layer="21"/>
<wire x1="2.54" y1="-1.905" x2="5.08" y2="-1.905" width="0.1524" layer="21"/>
<wire x1="5.08" y1="-1.905" x2="5.08" y2="0.635" width="0.1524" layer="21"/>
<wire x1="5.08" y1="0.635" x2="2.54" y2="0.635" width="0.1524" layer="21"/>
<wire x1="3.81" y1="6.985" x2="3.81" y2="1.27" width="0.762" layer="21"/>
<pad name="1" x="-3.81" y="-3.81" drill="1.016" shape="long" rot="R90"/>
<pad name="2" x="-1.27" y="-3.81" drill="1.016" shape="long" rot="R90"/>
<pad name="3" x="1.27" y="-3.81" drill="1.016" shape="long" rot="R90"/>
<pad name="4" x="3.81" y="-3.81" drill="1.016" shape="long" rot="R90"/>
<text x="-5.715" y="-3.81" size="1.27" layer="25" ratio="10" rot="R90">&gt;NAME</text>
<text x="6.985" y="-4.445" size="1.27" layer="27" rot="R90">&gt;VALUE</text>
<rectangle x1="-4.191" y1="0.635" x2="-3.429" y2="1.143" layer="21"/>
<rectangle x1="-1.651" y1="0.635" x2="-0.889" y2="1.143" layer="21"/>
<rectangle x1="0.889" y1="0.635" x2="1.651" y2="1.143" layer="21"/>
<rectangle x1="3.429" y1="0.635" x2="4.191" y2="1.143" layer="21"/>
<rectangle x1="-4.191" y1="-2.921" x2="-3.429" y2="-1.905" layer="21"/>
<rectangle x1="-1.651" y1="-2.921" x2="-0.889" y2="-1.905" layer="21"/>
<rectangle x1="0.889" y1="-2.921" x2="1.651" y2="-1.905" layer="21"/>
<rectangle x1="3.429" y1="-2.921" x2="4.191" y2="-1.905" layer="21"/>
</package>
</packages>
<symbols>
<symbol name="PINHD4">
<wire x1="-6.35" y1="-5.08" x2="1.27" y2="-5.08" width="0.4064" layer="94"/>
<wire x1="1.27" y1="-5.08" x2="1.27" y2="7.62" width="0.4064" layer="94"/>
<wire x1="1.27" y1="7.62" x2="-6.35" y2="7.62" width="0.4064" layer="94"/>
<wire x1="-6.35" y1="7.62" x2="-6.35" y2="-5.08" width="0.4064" layer="94"/>
<text x="-6.35" y="8.255" size="1.778" layer="95">&gt;NAME</text>
<text x="-6.35" y="-7.62" size="1.778" layer="96">&gt;VALUE</text>
<pin name="1" x="-2.54" y="5.08" visible="pad" length="short" direction="pas" function="dot"/>
<pin name="2" x="-2.54" y="2.54" visible="pad" length="short" direction="pas" function="dot"/>
<pin name="3" x="-2.54" y="0" visible="pad" length="short" direction="pas" function="dot"/>
<pin name="4" x="-2.54" y="-2.54" visible="pad" length="short" direction="pas" function="dot"/>
</symbol>
</symbols>
<devicesets>
<deviceset name="PINHD-1X4" prefix="JP" uservalue="yes">
<description>&lt;b&gt;PIN HEADER&lt;/b&gt;</description>
<gates>
<gate name="A" symbol="PINHD4" x="0" y="0"/>
</gates>
<devices>
<device name="" package="1X04">
<connects>
<connect gate="A" pin="1" pad="1"/>
<connect gate="A" pin="2" pad="2"/>
<connect gate="A" pin="3" pad="3"/>
<connect gate="A" pin="4" pad="4"/>
</connects>
<technologies>
<technology name=""/>
</technologies>
</device>
<device name="/90" package="1X04/90">
<connects>
<connect gate="A" pin="1" pad="1"/>
<connect gate="A" pin="2" pad="2"/>
<connect gate="A" pin="3" pad="3"/>
<connect gate="A" pin="4" pad="4"/>
</connects>
<technologies>
<technology name=""/>
</technologies>
</device>
</devices>
</deviceset>
</devicesets>
</library>
<library name="con-ptr500">
<description>&lt;b&gt;PTR Connectors&lt;/b&gt;&lt;p&gt;
Aug. 2004 / PTR Meßtechnik:&lt;br&gt;
Die Bezeichnung der Serie AK505 wurde geändert.&lt;br&gt;
Es handelt sich hierbei um AK500 in horizontaler Ausführung.&lt;p&gt;
&lt;TABLE BORDER=0 CELLSPACING=1 CELLPADDING=2&gt;
  &lt;TR&gt;
    &lt;TD ALIGN=LEFT&gt;
      &lt;FONT SIZE=4 FACE=ARIAL&gt;&lt;B&gt;Alte Bezeichnung&lt;/B&gt;&lt;/FONT&gt;
    &lt;/TD&gt;
    &lt;TD ALIGN=LEFT&gt;
      &lt;FONT SIZE=4 FACE=ARIAL&gt;&lt;B&gt;Neue Bezeichnung&lt;/B&gt;&lt;/FONT&gt;
    &lt;/TD&gt;
  &lt;/TR&gt;
  &lt;TR&gt;
    &lt;TD ALIGN=LEFT&gt;
      &lt;B&gt;
      &lt;FONT SIZE=3 FACE=ARIAL color="#FF0000"&gt;AK505/2,grau&lt;/FONT&gt;
      &lt;/B&gt;
    &lt;/TD&gt;
    &lt;TD ALIGN=LEFT&gt;
      &lt;B&gt;
      &lt;FONT SIZE=3 FACE=ARIAL color="#0000FF"&gt;AK500/2-5.0-H-GRAU&lt;/FONT&gt;
      &lt;/B&gt;
    &lt;/TD&gt;
  &lt;/TR&gt;
  &lt;TR&gt;
    &lt;TD ALIGN=LEFT&gt;
      &lt;B&gt;
      &lt;FONT SIZE=3 FACE=ARIAL color="#FF0000"&gt;AK505/2DS,grau&lt;/FONT&gt;
      &lt;/B&gt;
    &lt;/TD&gt;
    &lt;TD ALIGN=LEFT&gt;
      &lt;B&gt;
      &lt;FONT SIZE=3 FACE=ARIAL color="#0000FF"&gt;AK500/2DS-5.0-H-GRAU&lt;/FONT&gt;
      &lt;/B&gt;
    &lt;/TD&gt;
  &lt;/TR&gt;
  &lt;TR&gt;
    &lt;TD ALIGN=LEFT&gt;
      &lt;B&gt;
      &lt;FONT SIZE=3 FACE=ARIAL color="#FF0000"&gt;AKZ505/2,grau&lt;/FONT&gt;
      &lt;/B&gt;
    &lt;/TD&gt;
    &lt;TD ALIGN=LEFT&gt;
      &lt;B&gt;
      &lt;FONT SIZE=3 FACE=ARIAL color="#0000FF"&gt;AKZ500/2-5.08-H-GRAU&lt;/FONT&gt;
      &lt;/B&gt;
    &lt;/TD&gt;
  &lt;/TABLE&gt;

&lt;author&gt;Created by librarian@cadsoft.de&lt;/author&gt;</description>
<packages>
<package name="AK500/2-H">
<description>&lt;b&gt;CONNECTOR&lt;/b&gt;&lt;p&gt;
Aug. 2004 / PTR Meßtechnik:&lt;br&gt;
Die Bezeichnung der Serie AK505 wurde geändert.&lt;br&gt;
Es handelt sich hierbei um AK500 in horizontaler Ausführung.</description>
<wire x1="-5.08" y1="-7.239" x2="-5.08" y2="-3.81" width="0.1524" layer="21"/>
<wire x1="5.08" y1="2.794" x2="-5.08" y2="2.794" width="0.1524" layer="21"/>
<wire x1="-5.08" y1="-7.239" x2="-4.318" y2="-7.239" width="0.1524" layer="21"/>
<wire x1="5.08" y1="2.794" x2="5.08" y2="-3.429" width="0.1524" layer="21"/>
<wire x1="-5.08" y1="-3.429" x2="5.08" y2="-3.429" width="0.1524" layer="21"/>
<wire x1="-5.08" y1="-3.429" x2="-5.08" y2="2.794" width="0.1524" layer="21"/>
<wire x1="5.08" y1="-3.429" x2="5.08" y2="-3.81" width="0.1524" layer="21"/>
<wire x1="5.461" y1="2.794" x2="5.461" y2="-3.429" width="0.1524" layer="21"/>
<wire x1="5.461" y1="-3.429" x2="5.08" y2="-3.429" width="0.1524" layer="21"/>
<wire x1="5.461" y1="2.794" x2="5.08" y2="2.794" width="0.1524" layer="21"/>
<wire x1="-0.4826" y1="2.159" x2="-0.4826" y2="-2.794" width="0.1524" layer="21"/>
<wire x1="-4.5466" y1="-2.794" x2="-0.4826" y2="-2.794" width="0.1524" layer="21"/>
<wire x1="-4.5466" y1="-2.794" x2="-4.5466" y2="2.159" width="0.1524" layer="21"/>
<wire x1="-0.4826" y1="2.159" x2="-4.5466" y2="2.159" width="0.1524" layer="21"/>
<wire x1="0.4826" y1="2.159" x2="0.4826" y2="-2.794" width="0.1524" layer="21"/>
<wire x1="0.4826" y1="-2.794" x2="4.5466" y2="-2.794" width="0.1524" layer="21"/>
<wire x1="4.5466" y1="-2.794" x2="4.5466" y2="2.159" width="0.1524" layer="21"/>
<wire x1="4.5466" y1="2.159" x2="0.4826" y2="2.159" width="0.1524" layer="21"/>
<wire x1="4.8006" y1="-3.048" x2="0.2286" y2="-3.048" width="0.0508" layer="21"/>
<wire x1="4.8006" y1="-3.048" x2="4.8006" y2="2.413" width="0.0508" layer="21"/>
<wire x1="0.2286" y1="2.413" x2="4.8006" y2="2.413" width="0.0508" layer="21"/>
<wire x1="0.2286" y1="2.413" x2="0.2286" y2="-3.048" width="0.0508" layer="21"/>
<wire x1="-0.2286" y1="2.413" x2="-0.2286" y2="-3.048" width="0.0508" layer="21"/>
<wire x1="-4.8006" y1="2.413" x2="-0.2286" y2="2.413" width="0.0508" layer="21"/>
<wire x1="-4.8006" y1="2.413" x2="-4.8006" y2="-3.048" width="0.0508" layer="21"/>
<wire x1="-0.2286" y1="-3.048" x2="-4.8006" y2="-3.048" width="0.0508" layer="21"/>
<wire x1="-4.5466" y1="0" x2="-0.4826" y2="0" width="0.1524" layer="21" curve="-180"/>
<wire x1="-4.5466" y1="-2.413" x2="-4.2926" y2="-2.667" width="0.1524" layer="21" curve="90"/>
<wire x1="-0.7366" y1="-2.667" x2="-0.4826" y2="-2.413" width="0.1524" layer="21" curve="90"/>
<wire x1="-0.7366" y1="-2.667" x2="-4.2926" y2="-2.667" width="0.1524" layer="21"/>
<wire x1="-1.3716" y1="-2.413" x2="-1.1176" y2="-2.667" width="0.1524" layer="21" curve="90"/>
<wire x1="-3.9116" y1="-2.667" x2="-3.6576" y2="-2.413" width="0.1524" layer="21" curve="90"/>
<wire x1="-3.6576" y1="-0.127" x2="-3.6576" y2="-0.762" width="0.1524" layer="51"/>
<wire x1="-3.6576" y1="-0.127" x2="-1.3716" y2="-0.127" width="0.1524" layer="51"/>
<wire x1="-1.3716" y1="-0.127" x2="-1.3716" y2="-0.762" width="0.1524" layer="51"/>
<wire x1="-3.6576" y1="-0.762" x2="-1.3716" y2="-0.762" width="0.1524" layer="51"/>
<wire x1="-3.6576" y1="-0.762" x2="-3.6576" y2="-2.413" width="0.1524" layer="21"/>
<wire x1="-1.3716" y1="-0.762" x2="-1.3716" y2="-2.413" width="0.1524" layer="21"/>
<wire x1="5.08" y1="-3.81" x2="-5.08" y2="-3.81" width="0.0508" layer="21"/>
<wire x1="-5.08" y1="-3.81" x2="-5.08" y2="-3.429" width="0.1524" layer="21"/>
<wire x1="5.08" y1="-3.81" x2="5.08" y2="-7.239" width="0.1524" layer="21"/>
<wire x1="0.4826" y1="0" x2="4.5466" y2="0" width="0.1524" layer="21" curve="-180"/>
<wire x1="1.3716" y1="-0.127" x2="3.6576" y2="-0.127" width="0.1524" layer="51"/>
<wire x1="1.3716" y1="-0.127" x2="1.3716" y2="-0.762" width="0.1524" layer="51"/>
<wire x1="1.3716" y1="-0.762" x2="3.6576" y2="-0.762" width="0.1524" layer="51"/>
<wire x1="1.3716" y1="-0.762" x2="1.3716" y2="-2.413" width="0.1524" layer="21"/>
<wire x1="3.6576" y1="-0.762" x2="3.6576" y2="-2.413" width="0.1524" layer="21"/>
<wire x1="3.6576" y1="-0.127" x2="3.6576" y2="-0.762" width="0.1524" layer="51"/>
<wire x1="1.1176" y1="-2.667" x2="1.3716" y2="-2.413" width="0.1524" layer="21" curve="90"/>
<wire x1="3.6576" y1="-2.413" x2="3.9116" y2="-2.667" width="0.1524" layer="21" curve="90"/>
<wire x1="4.2926" y1="-2.667" x2="0.7366" y2="-2.667" width="0.1524" layer="21"/>
<wire x1="4.2926" y1="-2.667" x2="4.5466" y2="-2.413" width="0.1524" layer="21" curve="90"/>
<wire x1="0.4826" y1="-2.413" x2="0.7366" y2="-2.667" width="0.1524" layer="21" curve="90"/>
<wire x1="-0.762" y1="-7.366" x2="-0.762" y2="-7.239" width="0.1524" layer="21"/>
<wire x1="-0.762" y1="-7.239" x2="0.762" y2="-7.239" width="0.1524" layer="21"/>
<wire x1="-4.318" y1="-7.366" x2="-4.318" y2="-7.239" width="0.1524" layer="21"/>
<wire x1="-4.318" y1="-7.239" x2="-2.794" y2="-7.239" width="0.1524" layer="21"/>
<wire x1="-4.318" y1="-7.366" x2="-2.794" y2="-7.366" width="0.1524" layer="21"/>
<wire x1="-2.794" y1="-7.239" x2="-2.794" y2="-7.366" width="0.1524" layer="21"/>
<wire x1="-2.794" y1="-7.239" x2="-2.286" y2="-7.239" width="0.1524" layer="21"/>
<wire x1="-2.286" y1="-7.239" x2="-0.762" y2="-7.239" width="0.1524" layer="21"/>
<wire x1="-2.286" y1="-7.366" x2="-2.286" y2="-7.239" width="0.1524" layer="21"/>
<wire x1="-2.286" y1="-7.366" x2="-0.762" y2="-7.366" width="0.1524" layer="21"/>
<wire x1="2.286" y1="-7.239" x2="2.286" y2="-7.366" width="0.1524" layer="21"/>
<wire x1="2.286" y1="-7.239" x2="2.794" y2="-7.239" width="0.1524" layer="21"/>
<wire x1="0.762" y1="-7.366" x2="2.286" y2="-7.366" width="0.1524" layer="21"/>
<wire x1="2.794" y1="-7.366" x2="2.794" y2="-7.239" width="0.1524" layer="21"/>
<wire x1="2.794" y1="-7.239" x2="4.318" y2="-7.239" width="0.1524" layer="21"/>
<wire x1="2.794" y1="-7.366" x2="4.318" y2="-7.366" width="0.1524" layer="21"/>
<wire x1="4.318" y1="-7.366" x2="4.318" y2="-7.239" width="0.1524" layer="21"/>
<wire x1="4.318" y1="-7.239" x2="5.08" y2="-7.239" width="0.1524" layer="21"/>
<wire x1="0.762" y1="-7.366" x2="0.762" y2="-7.239" width="0.1524" layer="21"/>
<wire x1="0.762" y1="-7.239" x2="2.286" y2="-7.239" width="0.1524" layer="21"/>
<circle x="-2.5146" y="0" radius="1.397" width="0.1524" layer="51"/>
<circle x="2.5146" y="0" radius="1.397" width="0.1524" layer="51"/>
<pad name="1" x="-2.5146" y="0" drill="1.3208" shape="long" rot="R90"/>
<pad name="2" x="2.5146" y="0" drill="1.3208" shape="long" rot="R90"/>
<text x="-5.08" y="3.556" size="1.778" layer="25" ratio="10">&gt;NAME</text>
<text x="-5.08" y="-9.525" size="1.778" layer="27" ratio="10">&gt;VALUE</text>
<text x="-3.175" y="-5.715" size="1.27" layer="21" ratio="10">1</text>
<text x="1.905" y="-5.715" size="1.27" layer="21" ratio="10">2</text>
<rectangle x1="-3.6576" y1="-1.524" x2="-1.3716" y2="-0.762" layer="51"/>
<rectangle x1="1.3716" y1="-1.524" x2="3.6576" y2="-0.762" layer="51"/>
<rectangle x1="-3.6576" y1="-2.667" x2="-1.3716" y2="-1.524" layer="21"/>
<rectangle x1="1.3716" y1="-2.667" x2="3.6576" y2="-1.524" layer="21"/>
</package>
</packages>
<symbols>
<symbol name="KL">
<circle x="1.27" y="0" radius="1.27" width="0.254" layer="94"/>
<text x="-1.27" y="0.889" size="1.778" layer="95" rot="R180">&gt;NAME</text>
<pin name="KL" x="5.08" y="0" visible="off" length="short" direction="pas" rot="R180"/>
</symbol>
<symbol name="KLV">
<circle x="1.27" y="0" radius="1.27" width="0.254" layer="94"/>
<text x="-1.27" y="0.889" size="1.778" layer="95" rot="R180">&gt;NAME</text>
<text x="-3.81" y="-3.683" size="1.778" layer="96">&gt;VALUE</text>
<pin name="KL" x="5.08" y="0" visible="off" length="short" direction="pas" rot="R180"/>
</symbol>
</symbols>
<devicesets>
<deviceset name="AK500/2-H" prefix="X" uservalue="yes">
<description>&lt;b&gt;CONNECTOR&lt;/b&gt;&lt;p&gt;
Aug. 2004 / PTR Meßtechnik:&lt;br&gt;
Die Bezeichnung der Serie AK505 wurde geändert.&lt;br&gt;
Es handelt sich hierbei um AK500 in horizontaler Ausführung.</description>
<gates>
<gate name="-1" symbol="KL" x="0" y="5.08" addlevel="always"/>
<gate name="-2" symbol="KLV" x="0" y="0" addlevel="always"/>
</gates>
<devices>
<device name="" package="AK500/2-H">
<connects>
<connect gate="-1" pin="KL" pad="1"/>
<connect gate="-2" pin="KL" pad="2"/>
</connects>
<technologies>
<technology name="">
<attribute name="MF" value="" constant="no"/>
<attribute name="MPN" value="" constant="no"/>
<attribute name="OC_FARNELL" value="unknown" constant="no"/>
<attribute name="OC_NEWARK" value="unknown" constant="no"/>
</technology>
</technologies>
</device>
</devices>
</deviceset>
</devicesets>
</library>
</libraries>
<attributes>
</attributes>
<variantdefs>
</variantdefs>
<classes>
<class number="0" name="default" width="0" drill="0">
</class>
</classes>
<parts>
<part name="P+1" library="supply1" deviceset="VCC" device=""/>
<part name="P+3" library="supply1" deviceset="VCC" device=""/>
<part name="GND1" library="supply1" deviceset="GND" device=""/>
<part name="GND3" library="supply1" deviceset="GND" device=""/>
<part name="JP2" library="pinhead" deviceset="PINHD-1X4" device=""/>
<part name="U$2" library="mosfet" deviceset="AO4606" device=""/>
<part name="X1" library="con-ptr500" deviceset="AK500/2-H" device=""/>
<part name="X2" library="con-ptr500" deviceset="AK500/2-H" device=""/>
<part name="U$1" library="mosfet" deviceset="AO4606" device=""/>
</parts>
<sheets>
<sheet>
<plain>
</plain>
<instances>
<instance part="P+1" gate="VCC" x="15.24" y="60.96"/>
<instance part="P+3" gate="VCC" x="-45.72" y="68.58"/>
<instance part="GND1" gate="1" x="15.24" y="7.62"/>
<instance part="GND3" gate="1" x="-45.72" y="50.8"/>
<instance part="JP2" gate="A" x="-22.86" y="43.18" rot="R180"/>
<instance part="U$2" gate="G$1" x="25.4" y="38.1" rot="MR0"/>
<instance part="X1" gate="-1" x="10.16" y="30.48" rot="R90"/>
<instance part="X1" gate="-2" x="15.24" y="30.48" rot="R90"/>
<instance part="X2" gate="-1" x="-53.34" y="62.23"/>
<instance part="X2" gate="-2" x="-53.34" y="55.88"/>
<instance part="U$1" gate="G$1" x="0" y="38.1"/>
</instances>
<busses>
</busses>
<nets>
<net name="VCC" class="0">
<segment>
<pinref part="P+1" gate="VCC" pin="VCC"/>
<wire x1="15.24" y1="58.42" x2="15.24" y2="55.88" width="0.1524" layer="91"/>
<wire x1="15.24" y1="55.88" x2="0" y2="55.88" width="0.1524" layer="91"/>
<wire x1="0" y1="55.88" x2="0" y2="53.34" width="0.1524" layer="91"/>
<wire x1="15.24" y1="55.88" x2="25.4" y2="55.88" width="0.1524" layer="91"/>
<junction x="15.24" y="55.88"/>
<wire x1="25.4" y1="55.88" x2="25.4" y2="53.34" width="0.1524" layer="91"/>
<pinref part="U$2" gate="G$1" pin="S1"/>
<pinref part="U$1" gate="G$1" pin="S1"/>
</segment>
<segment>
<pinref part="X2" gate="-1" pin="KL"/>
<pinref part="P+3" gate="VCC" pin="VCC"/>
<wire x1="-48.26" y1="62.23" x2="-45.72" y2="64.77" width="0.1524" layer="91"/>
<wire x1="-45.72" y1="64.77" x2="-45.72" y2="66.04" width="0.1524" layer="91"/>
</segment>
</net>
<net name="N$1" class="0">
<segment>
<pinref part="U$2" gate="G$1" pin="D1"/>
<pinref part="X1" gate="-1" pin="KL"/>
<wire x1="25.4" y1="43.18" x2="10.16" y2="43.18" width="0.1524" layer="91"/>
<wire x1="10.16" y1="43.18" x2="10.16" y2="38.1" width="0.1524" layer="91"/>
<wire x1="10.16" y1="38.1" x2="10.16" y2="35.56" width="0.1524" layer="91"/>
<wire x1="0" y1="33.02" x2="0" y2="38.1" width="0.1524" layer="91"/>
<wire x1="0" y1="38.1" x2="10.16" y2="38.1" width="0.1524" layer="91"/>
<junction x="10.16" y="38.1"/>
<pinref part="U$1" gate="G$1" pin="D2"/>
</segment>
</net>
<net name="N$2" class="0">
<segment>
<wire x1="0" y1="43.18" x2="0" y2="40.64" width="0.1524" layer="91"/>
<wire x1="0" y1="40.64" x2="15.24" y2="40.64" width="0.1524" layer="91"/>
<pinref part="X1" gate="-2" pin="KL"/>
<wire x1="15.24" y1="40.64" x2="15.24" y2="38.1" width="0.1524" layer="91"/>
<pinref part="U$2" gate="G$1" pin="D2"/>
<wire x1="15.24" y1="38.1" x2="15.24" y2="35.56" width="0.1524" layer="91"/>
<wire x1="25.4" y1="33.02" x2="25.4" y2="38.1" width="0.1524" layer="91"/>
<wire x1="25.4" y1="38.1" x2="15.24" y2="38.1" width="0.1524" layer="91"/>
<junction x="15.24" y="38.1"/>
<pinref part="U$1" gate="G$1" pin="D1"/>
</segment>
</net>
<net name="N$3" class="0">
<segment>
<wire x1="-10.16" y1="50.8" x2="-10.16" y2="45.72" width="0.1524" layer="91"/>
<pinref part="U$1" gate="G$1" pin="G1"/>
<wire x1="-5.08" y1="50.8" x2="-10.16" y2="50.8" width="0.1524" layer="91"/>
<pinref part="JP2" gate="A" pin="4"/>
<wire x1="-20.32" y1="45.72" x2="-10.16" y2="45.72" width="0.1524" layer="91"/>
</segment>
</net>
<net name="N$5" class="0">
<segment>
<wire x1="33.02" y1="64.77" x2="-12.7" y2="64.77" width="0.1524" layer="91"/>
<wire x1="-12.7" y1="64.77" x2="-12.7" y2="38.1" width="0.1524" layer="91"/>
<pinref part="U$2" gate="G$1" pin="G2"/>
<wire x1="30.48" y1="25.4" x2="33.02" y2="25.4" width="0.1524" layer="91"/>
<wire x1="33.02" y1="25.4" x2="33.02" y2="64.77" width="0.1524" layer="91"/>
<pinref part="JP2" gate="A" pin="1"/>
<wire x1="-20.32" y1="38.1" x2="-12.7" y2="38.1" width="0.1524" layer="91"/>
</segment>
</net>
<net name="N$6" class="0">
<segment>
<wire x1="36.83" y1="21.59" x2="-13.97" y2="21.59" width="0.1524" layer="91"/>
<wire x1="-13.97" y1="21.59" x2="-13.97" y2="40.64" width="0.1524" layer="91"/>
<wire x1="36.83" y1="21.59" x2="36.83" y2="50.8" width="0.1524" layer="91"/>
<pinref part="U$2" gate="G$1" pin="G1"/>
<wire x1="36.83" y1="50.8" x2="30.48" y2="50.8" width="0.1524" layer="91"/>
<pinref part="JP2" gate="A" pin="2"/>
<wire x1="-20.32" y1="40.64" x2="-13.97" y2="40.64" width="0.1524" layer="91"/>
</segment>
</net>
<net name="GND" class="0">
<segment>
<wire x1="0" y1="22.86" x2="0" y2="12.7" width="0.1524" layer="91"/>
<wire x1="0" y1="12.7" x2="15.24" y2="12.7" width="0.1524" layer="91"/>
<pinref part="GND1" gate="1" pin="GND"/>
<wire x1="15.24" y1="12.7" x2="15.24" y2="10.16" width="0.1524" layer="91"/>
<pinref part="U$2" gate="G$1" pin="S2"/>
<wire x1="25.4" y1="22.86" x2="25.4" y2="12.7" width="0.1524" layer="91"/>
<wire x1="25.4" y1="12.7" x2="15.24" y2="12.7" width="0.1524" layer="91"/>
<junction x="15.24" y="12.7"/>
<pinref part="U$1" gate="G$1" pin="S2"/>
</segment>
<segment>
<pinref part="GND3" gate="1" pin="GND"/>
<pinref part="X2" gate="-2" pin="KL"/>
<wire x1="-45.72" y1="53.34" x2="-45.72" y2="55.88" width="0.1524" layer="91"/>
<wire x1="-45.72" y1="55.88" x2="-48.26" y2="55.88" width="0.1524" layer="91"/>
</segment>
</net>
<net name="N$4" class="0">
<segment>
<pinref part="U$1" gate="G$1" pin="G2"/>
<wire x1="-7.62" y1="43.18" x2="-7.62" y2="25.4" width="0.1524" layer="91"/>
<wire x1="-7.62" y1="25.4" x2="-5.08" y2="25.4" width="0.1524" layer="91"/>
<pinref part="JP2" gate="A" pin="3"/>
<wire x1="-20.32" y1="43.18" x2="-7.62" y2="43.18" width="0.1524" layer="91"/>
</segment>
</net>
</nets>
</sheet>
</sheets>
</schematic>
</drawing>
</eagle>
