<?xml version="1.0" encoding="utf-8"?>
<!DOCTYPE eagle SYSTEM "eagle.dtd">
<eagle version="6.5.0">
<drawing>
<settings>
<setting alwaysvectorfont="no"/>
<setting verticaltext="up"/>
</settings>
<grid distance="25" unitdist="mil" unit="mm" style="lines" multiple="1" display="no" altdistance="0.025" altunitdist="inch" altunit="inch"/>
<layers>
<layer number="1" name="Top" color="4" fill="1" visible="yes" active="yes"/>
<layer number="2" name="Route2" color="1" fill="3" visible="no" active="no"/>
<layer number="3" name="Route3" color="4" fill="3" visible="no" active="no"/>
<layer number="4" name="Route4" color="1" fill="4" visible="no" active="no"/>
<layer number="5" name="Route5" color="4" fill="4" visible="no" active="no"/>
<layer number="6" name="Route6" color="1" fill="8" visible="no" active="no"/>
<layer number="7" name="Route7" color="4" fill="8" visible="no" active="no"/>
<layer number="8" name="Route8" color="1" fill="2" visible="no" active="no"/>
<layer number="9" name="Route9" color="4" fill="2" visible="no" active="no"/>
<layer number="10" name="Route10" color="1" fill="7" visible="no" active="no"/>
<layer number="11" name="Route11" color="4" fill="7" visible="no" active="no"/>
<layer number="12" name="Route12" color="1" fill="5" visible="no" active="no"/>
<layer number="13" name="Route13" color="4" fill="5" visible="no" active="no"/>
<layer number="14" name="Route14" color="1" fill="6" visible="no" active="no"/>
<layer number="15" name="Route15" color="4" fill="6" visible="no" active="no"/>
<layer number="16" name="Bottom" color="1" fill="1" visible="yes" active="yes"/>
<layer number="17" name="Pads" color="2" fill="1" visible="yes" active="yes"/>
<layer number="18" name="Vias" color="2" fill="1" visible="yes" active="yes"/>
<layer number="19" name="Unrouted" color="6" fill="1" visible="yes" active="yes"/>
<layer number="20" name="Dimension" color="15" fill="1" visible="yes" active="yes"/>
<layer number="21" name="tPlace" color="7" fill="1" visible="yes" active="yes"/>
<layer number="22" name="bPlace" color="7" fill="1" visible="yes" active="yes"/>
<layer number="23" name="tOrigins" color="15" fill="1" visible="yes" active="yes"/>
<layer number="24" name="bOrigins" color="15" fill="1" visible="yes" active="yes"/>
<layer number="25" name="tNames" color="7" fill="1" visible="yes" active="yes"/>
<layer number="26" name="bNames" color="7" fill="1" visible="yes" active="yes"/>
<layer number="27" name="tValues" color="7" fill="1" visible="yes" active="yes"/>
<layer number="28" name="bValues" color="7" fill="1" visible="yes" active="yes"/>
<layer number="29" name="tStop" color="7" fill="3" visible="no" active="yes"/>
<layer number="30" name="bStop" color="7" fill="6" visible="no" active="yes"/>
<layer number="31" name="tCream" color="7" fill="4" visible="no" active="yes"/>
<layer number="32" name="bCream" color="7" fill="5" visible="no" active="yes"/>
<layer number="33" name="tFinish" color="6" fill="3" visible="no" active="yes"/>
<layer number="34" name="bFinish" color="6" fill="6" visible="no" active="yes"/>
<layer number="35" name="tGlue" color="7" fill="4" visible="no" active="yes"/>
<layer number="36" name="bGlue" color="7" fill="5" visible="no" active="yes"/>
<layer number="37" name="tTest" color="7" fill="1" visible="no" active="yes"/>
<layer number="38" name="bTest" color="7" fill="1" visible="no" active="yes"/>
<layer number="39" name="tKeepout" color="4" fill="11" visible="yes" active="yes"/>
<layer number="40" name="bKeepout" color="1" fill="11" visible="yes" active="yes"/>
<layer number="41" name="tRestrict" color="4" fill="10" visible="yes" active="yes"/>
<layer number="42" name="bRestrict" color="1" fill="10" visible="yes" active="yes"/>
<layer number="43" name="vRestrict" color="2" fill="10" visible="yes" active="yes"/>
<layer number="44" name="Drills" color="7" fill="1" visible="no" active="yes"/>
<layer number="45" name="Holes" color="7" fill="1" visible="no" active="yes"/>
<layer number="46" name="Milling" color="3" fill="1" visible="no" active="yes"/>
<layer number="47" name="Measures" color="7" fill="1" visible="no" active="yes"/>
<layer number="48" name="Document" color="7" fill="1" visible="yes" active="yes"/>
<layer number="49" name="Reference" color="7" fill="1" visible="yes" active="yes"/>
<layer number="51" name="tDocu" color="7" fill="1" visible="yes" active="yes"/>
<layer number="52" name="bDocu" color="7" fill="1" visible="yes" active="yes"/>
<layer number="91" name="Nets" color="2" fill="1" visible="no" active="no"/>
<layer number="92" name="Busses" color="1" fill="1" visible="no" active="no"/>
<layer number="93" name="Pins" color="2" fill="1" visible="no" active="no"/>
<layer number="94" name="Symbols" color="4" fill="1" visible="no" active="no"/>
<layer number="95" name="Names" color="7" fill="1" visible="no" active="no"/>
<layer number="96" name="Values" color="7" fill="1" visible="no" active="no"/>
<layer number="97" name="Info" color="7" fill="1" visible="no" active="no"/>
<layer number="98" name="Guide" color="6" fill="1" visible="no" active="no"/>
</layers>
<board>
<plain>
<wire x1="0" y1="0" x2="53.32" y2="0" width="0" layer="20"/>
<wire x1="53.32" y1="0" x2="53.32" y2="38.405" width="0" layer="20"/>
<wire x1="53.32" y1="38.405" x2="0" y2="38.405" width="0" layer="20"/>
<wire x1="0" y1="38.405" x2="0" y2="0" width="0" layer="20"/>
</plain>
<libraries>
<library name="resistor">
<description>&lt;b&gt;Resistors, Capacitors, Inductors&lt;/b&gt;&lt;p&gt;
Based on the previous libraries:
&lt;ul&gt;
&lt;li&gt;r.lbr
&lt;li&gt;cap.lbr 
&lt;li&gt;cap-fe.lbr
&lt;li&gt;captant.lbr
&lt;li&gt;polcap.lbr
&lt;li&gt;ipc-smd.lbr
&lt;/ul&gt;
All SMD packages are defined according to the IPC specifications and  CECC&lt;p&gt;
&lt;author&gt;Created by librarian@cadsoft.de&lt;/author&gt;&lt;p&gt;
&lt;p&gt;
for Electrolyt Capacitors see also :&lt;p&gt;
www.bccomponents.com &lt;p&gt;
www.panasonic.com&lt;p&gt;
www.kemet.com&lt;p&gt;
&lt;p&gt;
for trimmer refence see : &lt;u&gt;www.electrospec-inc.com/cross_references/trimpotcrossref.asp&lt;/u&gt;&lt;p&gt;

&lt;map name="nav_main"&gt;
&lt;area shape="rect" coords="0,1,140,23" href="../military_specs.asp" title=""&gt;
&lt;area shape="rect" coords="0,24,140,51" href="../about.asp" title=""&gt;
&lt;area shape="rect" coords="1,52,140,77" href="../rfq.asp" title=""&gt;
&lt;area shape="rect" coords="0,78,139,103" href="../products.asp" title=""&gt;
&lt;area shape="rect" coords="1,102,138,128" href="../excess_inventory.asp" title=""&gt;
&lt;area shape="rect" coords="1,129,138,150" href="../edge.asp" title=""&gt;
&lt;area shape="rect" coords="1,151,139,178" href="../industry_links.asp" title=""&gt;
&lt;area shape="rect" coords="0,179,139,201" href="../comments.asp" title=""&gt;
&lt;area shape="rect" coords="1,203,138,231" href="../directory.asp" title=""&gt;
&lt;area shape="default" nohref&gt;
&lt;/map&gt;

&lt;html&gt;

&lt;title&gt;&lt;/title&gt;

 &lt;LINK REL="StyleSheet" TYPE="text/css" HREF="style-sheet.css"&gt;

&lt;body bgcolor="#ffffff" text="#000000" marginwidth="0" marginheight="0" topmargin="0" leftmargin="0"&gt;
&lt;table border=0 cellspacing=0 cellpadding=0 width="100%" cellpaddding=0 height="55%"&gt;
&lt;tr valign="top"&gt;

&lt;/td&gt;
&lt;! &lt;td width="10"&gt;&amp;nbsp;&lt;/td&gt;
&lt;td width="90%"&gt;

&lt;b&gt;&lt;font color="#0000FF" size="4"&gt;TRIM-POT CROSS REFERENCE&lt;/font&gt;&lt;/b&gt;
&lt;P&gt;
&lt;TABLE BORDER=0 CELLSPACING=1 CELLPADDING=2&gt;
  &lt;TR&gt;
    &lt;TD COLSPAN=8&gt;
      &lt;FONT SIZE=3 FACE=ARIAL&gt;&lt;B&gt;RECTANGULAR MULTI-TURN&lt;/B&gt;&lt;/FONT&gt;
    &lt;/TD&gt;
  &lt;/TR&gt;
  &lt;TR&gt;
    &lt;TD ALIGN=CENTER&gt;
      &lt;B&gt;
      &lt;FONT SIZE=3 FACE=ARIAL color="#FF0000"&gt;BOURNS&lt;/FONT&gt;
      &lt;/B&gt;
    &lt;/TD&gt;
    &lt;TD ALIGN=CENTER&gt;
      &lt;B&gt;
      &lt;FONT SIZE=3 FACE=ARIAL color="#FF0000"&gt;BI&amp;nbsp;TECH&lt;/FONT&gt;
      &lt;/B&gt;
    &lt;/TD&gt;
    &lt;TD ALIGN=CENTER&gt;
      &lt;B&gt;
      &lt;FONT SIZE=3 FACE=ARIAL color="#FF0000"&gt;DALE-VISHAY&lt;/FONT&gt;
      &lt;/B&gt;
    &lt;/TD&gt;
    &lt;TD ALIGN=CENTER&gt;
      &lt;B&gt;
      &lt;FONT SIZE=3 FACE=ARIAL color="#FF0000"&gt;PHILIPS/MEPCO&lt;/FONT&gt;
      &lt;/B&gt;
    &lt;/TD&gt;
    &lt;TD ALIGN=CENTER&gt;
      &lt;B&gt;
      &lt;FONT SIZE=3 FACE=ARIAL color="#FF0000"&gt;MURATA&lt;/FONT&gt;
      &lt;/B&gt;
    &lt;/TD&gt;
    &lt;TD ALIGN=CENTER&gt;
      &lt;B&gt;
      &lt;FONT SIZE=3 FACE=ARIAL color="#FF0000"&gt;PANASONIC&lt;/FONT&gt;
      &lt;/B&gt;
    &lt;/TD&gt;
    &lt;TD ALIGN=CENTER&gt;
      &lt;B&gt;
      &lt;FONT SIZE=3 FACE=ARIAL color="#FF0000"&gt;SPECTROL&lt;/FONT&gt;
      &lt;/B&gt;
    &lt;/TD&gt;
    &lt;TD ALIGN=CENTER&gt;
      &lt;B&gt;
      &lt;FONT SIZE=3 FACE=ARIAL color="#FF0000"&gt;MILSPEC&lt;/FONT&gt;
      &lt;/B&gt;
    &lt;/TD&gt;&lt;TD&gt;&amp;nbsp;&lt;/TD&gt;
  &lt;/TR&gt;
  &lt;TR&gt;
    &lt;TD BGCOLOR="#cccccc" ALIGN=CENTER&gt;&lt;FONT FACE=ARIAL SIZE=3 &gt;
      3005P&lt;BR&gt;
      3006P&lt;BR&gt;
      3006W&lt;BR&gt;
      3006Y&lt;BR&gt;
      3009P&lt;BR&gt;
      3009W&lt;BR&gt;
      3009Y&lt;BR&gt;
      3057J&lt;BR&gt;
      3057L&lt;BR&gt;
      3057P&lt;BR&gt;
      3057Y&lt;BR&gt;
      3059J&lt;BR&gt;
      3059L&lt;BR&gt;
      3059P&lt;BR&gt;
      3059Y&lt;BR&gt;&lt;/FONT&gt;
    &lt;/TD&gt;
    &lt;TD BGCOLOR="#cccccc" ALIGN=CENTER&gt;&lt;FONT FACE=ARIAL SIZE=3&gt;
      -&lt;BR&gt;
      89P&lt;BR&gt;
      89W&lt;BR&gt;
      89X&lt;BR&gt;
      89PH&lt;BR&gt;
      76P&lt;BR&gt;
      89XH&lt;BR&gt;
      78SLT&lt;BR&gt;
      78L&amp;nbsp;ALT&lt;BR&gt;
      56P&amp;nbsp;ALT&lt;BR&gt;
      78P&amp;nbsp;ALT&lt;BR&gt;
      T8S&lt;BR&gt;
      78L&lt;BR&gt;
      56P&lt;BR&gt;
      78P&lt;BR&gt;&lt;/FONT&gt;
    &lt;/TD&gt;
    &lt;TD BGCOLOR="#cccccc" ALIGN=CENTER&gt;&lt;FONT FACE=ARIAL SIZE=3&gt;
      -&lt;BR&gt;
      T18/784&lt;BR&gt;
      783&lt;BR&gt;
      781&lt;BR&gt;
      -&lt;BR&gt;
      -&lt;BR&gt;
      -&lt;BR&gt;
      2199&lt;BR&gt;
      1697/1897&lt;BR&gt;
      1680/1880&lt;BR&gt;
      2187&lt;BR&gt;
      -&lt;BR&gt;
      -&lt;BR&gt;
      -&lt;BR&gt;
      -&lt;BR&gt;&lt;/FONT&gt;
    &lt;/TD&gt;
    &lt;TD BGCOLOR="#cccccc" ALIGN=CENTER&gt;&lt;FONT FACE=ARIAL SIZE=3&gt;
      -&lt;BR&gt;
      8035EKP/CT20/RJ-20P&lt;BR&gt;
      -&lt;BR&gt;
      RJ-20X&lt;BR&gt;
      -&lt;BR&gt;
      -&lt;BR&gt;
      -&lt;BR&gt;
      1211L&lt;BR&gt;
      8012EKQ&amp;nbsp;ALT&lt;BR&gt;
      8012EKR&amp;nbsp;ALT&lt;BR&gt;
      1211P&lt;BR&gt;
      8012EKJ&lt;BR&gt;
      8012EKL&lt;BR&gt;
      8012EKQ&lt;BR&gt;
      8012EKR&lt;BR&gt;&lt;/FONT&gt;
    &lt;/TD&gt;
    &lt;TD BGCOLOR="#cccccc" ALIGN=CENTER&gt;&lt;FONT FACE=ARIAL SIZE=3&gt;
      -&lt;BR&gt;
      2101P&lt;BR&gt;
      2101W&lt;BR&gt;
      2101Y&lt;BR&gt;
      -&lt;BR&gt;
      -&lt;BR&gt;
      -&lt;BR&gt;
      -&lt;BR&gt;
      -&lt;BR&gt;
      -&lt;BR&gt;
      -&lt;BR&gt;
      -&lt;BR&gt;
      2102L&lt;BR&gt;
      2102S&lt;BR&gt;
      2102Y&lt;BR&gt;&lt;/FONT&gt;
    &lt;/TD&gt;
    &lt;TD BGCOLOR="#cccccc" ALIGN=CENTER&gt;&lt;FONT FACE=ARIAL SIZE=3&gt;
      -&lt;BR&gt;
      EVMCOG&lt;BR&gt;
      -&lt;BR&gt;
      -&lt;BR&gt;
      -&lt;BR&gt;
      -&lt;BR&gt;
      -&lt;BR&gt;
      -&lt;BR&gt;
      -&lt;BR&gt;
      -&lt;BR&gt;
      -&lt;BR&gt;
      -&lt;BR&gt;
      -&lt;BR&gt;
      -&lt;BR&gt;
      -&lt;BR&gt;&lt;/FONT&gt;
    &lt;/TD&gt;
    &lt;TD BGCOLOR="#cccccc" ALIGN=CENTER&gt;&lt;FONT FACE=ARIAL SIZE=3&gt;
      -&lt;BR&gt;
      43P&lt;BR&gt;
      43W&lt;BR&gt;
      43Y&lt;BR&gt;
      -&lt;BR&gt;
      -&lt;BR&gt;
      -&lt;BR&gt;
      -&lt;BR&gt;
      40L&lt;BR&gt;
      40P&lt;BR&gt;
      40Y&lt;BR&gt;
      70Y-T602&lt;BR&gt;
      70L&lt;BR&gt;
      70P&lt;BR&gt;
      70Y&lt;BR&gt;&lt;/FONT&gt;
    &lt;/TD&gt;
    &lt;TD BGCOLOR="#cccccc" ALIGN=CENTER&gt;&lt;FONT FACE=ARIAL SIZE=3&gt;
      -&lt;BR&gt;
      -&lt;BR&gt;
      -&lt;BR&gt;
      -&lt;BR&gt;
      -&lt;BR&gt;
      -&lt;BR&gt;
      -&lt;BR&gt;
      -&lt;BR&gt;
      RT/RTR12&lt;BR&gt;
      RT/RTR12&lt;BR&gt;
      RT/RTR12&lt;BR&gt;
      -&lt;BR&gt;
      RJ/RJR12&lt;BR&gt;
      RJ/RJR12&lt;BR&gt;
      RJ/RJR12&lt;BR&gt;&lt;/FONT&gt;
    &lt;/TD&gt;
  &lt;/TR&gt;
  &lt;TR&gt;
    &lt;TD COLSPAN=8&gt;&amp;nbsp;
    &lt;/TD&gt;
  &lt;/TR&gt;
  &lt;TR&gt;
    &lt;TD COLSPAN=8&gt;
      &lt;FONT SIZE=4 FACE=ARIAL&gt;&lt;B&gt;SQUARE MULTI-TURN&lt;/B&gt;&lt;/FONT&gt;
    &lt;/TD&gt;
  &lt;/TR&gt;
  &lt;TR&gt;
   &lt;TD ALIGN=CENTER&gt;
      &lt;FONT SIZE=3 FACE=ARIAL&gt;&lt;B&gt;BOURN&lt;/B&gt;&lt;/FONT&gt;
    &lt;/TD&gt;
    &lt;TD ALIGN=CENTER&gt;
      &lt;FONT SIZE=3 FACE=ARIAL&gt;&lt;B&gt;BI&amp;nbsp;TECH&lt;/B&gt;&lt;/FONT&gt;
    &lt;/TD&gt;
    &lt;TD ALIGN=CENTER&gt;
      &lt;FONT SIZE=3 FACE=ARIAL&gt;&lt;B&gt;DALE-VISHAY&lt;/B&gt;&lt;/FONT&gt;
    &lt;/TD&gt;
    &lt;TD ALIGN=CENTER&gt;
      &lt;FONT SIZE=3 FACE=ARIAL&gt;&lt;B&gt;PHILIPS/MEPCO&lt;/B&gt;&lt;/FONT&gt;
    &lt;/TD&gt;
    &lt;TD ALIGN=CENTER&gt;
      &lt;FONT SIZE=3 FACE=ARIAL&gt;&lt;B&gt;MURATA&lt;/B&gt;&lt;/FONT&gt;
    &lt;/TD&gt;
    &lt;TD ALIGN=CENTER&gt;
      &lt;FONT SIZE=3 FACE=ARIAL&gt;&lt;B&gt;PANASONIC&lt;/B&gt;&lt;/FONT&gt;
    &lt;/TD&gt;
    &lt;TD ALIGN=CENTER&gt;
      &lt;FONT SIZE=3 FACE=ARIAL&gt;&lt;B&gt;SPECTROL&lt;/B&gt;&lt;/FONT&gt;
    &lt;/TD&gt;
    &lt;TD ALIGN=CENTER&gt;
      &lt;FONT SIZE=3 FACE=ARIAL&gt;&lt;B&gt;MILSPEC&lt;/B&gt;&lt;/FONT&gt;
    &lt;/TD&gt;
  &lt;/TR&gt;
  &lt;TR&gt;
    &lt;TD BGCOLOR="#cccccc" ALIGN=CENTER&gt;&lt;FONT FACE=ARIAL SIZE=3&gt;
      3250L&lt;BR&gt;
      3250P&lt;BR&gt;
      3250W&lt;BR&gt;
      3250X&lt;BR&gt;
      3252P&lt;BR&gt;
      3252W&lt;BR&gt;
      3252X&lt;BR&gt;
      3260P&lt;BR&gt;
      3260W&lt;BR&gt;
      3260X&lt;BR&gt;
      3262P&lt;BR&gt;
      3262W&lt;BR&gt;
      3262X&lt;BR&gt;
      3266P&lt;BR&gt;
      3266W&lt;BR&gt;
      3266X&lt;BR&gt;
      3290H&lt;BR&gt;
      3290P&lt;BR&gt;
      3290W&lt;BR&gt;
      3292P&lt;BR&gt;
      3292W&lt;BR&gt;
      3292X&lt;BR&gt;
      3296P&lt;BR&gt;
      3296W&lt;BR&gt;
      3296X&lt;BR&gt;
      3296Y&lt;BR&gt;
      3296Z&lt;BR&gt;
      3299P&lt;BR&gt;
      3299W&lt;BR&gt;
      3299X&lt;BR&gt;
      3299Y&lt;BR&gt;
      3299Z&lt;BR&gt;&lt;/FONT&gt;
    &lt;/TD&gt;
    &lt;TD BGCOLOR="#cccccc" ALIGN=CENTER&gt;&lt;FONT FACE=ARIAL SIZE=3&gt;
      -&lt;BR&gt;
      66P&amp;nbsp;ALT&lt;BR&gt;
      66W&amp;nbsp;ALT&lt;BR&gt;
      66X&amp;nbsp;ALT&lt;BR&gt;
      66P&amp;nbsp;ALT&lt;BR&gt;
      66W&amp;nbsp;ALT&lt;BR&gt;
      66X&amp;nbsp;ALT&lt;BR&gt;
      -&lt;BR&gt;
      64W&amp;nbsp;ALT&lt;BR&gt;
      -&lt;BR&gt;
      64P&amp;nbsp;ALT&lt;BR&gt;
      64W&amp;nbsp;ALT&lt;BR&gt;
      64X&amp;nbsp;ALT&lt;BR&gt;
      64P&lt;BR&gt;
      64W&lt;BR&gt;
      64X&lt;BR&gt;
      66X&amp;nbsp;ALT&lt;BR&gt;
      66P&amp;nbsp;ALT&lt;BR&gt;
      66W&amp;nbsp;ALT&lt;BR&gt;
      66P&lt;BR&gt;
      66W&lt;BR&gt;
      66X&lt;BR&gt;
      67P&lt;BR&gt;
      67W&lt;BR&gt;
      67X&lt;BR&gt;
      67Y&lt;BR&gt;
      67Z&lt;BR&gt;
      68P&lt;BR&gt;
      68W&lt;BR&gt;
      68X&lt;BR&gt;
      67Y&amp;nbsp;ALT&lt;BR&gt;
      67Z&amp;nbsp;ALT&lt;BR&gt;&lt;/FONT&gt;
    &lt;/TD&gt;
    &lt;TD BGCOLOR="#cccccc" ALIGN=CENTER&gt;&lt;FONT FACE=ARIAL SIZE=3&gt;
      5050&lt;BR&gt;
      5091&lt;BR&gt;
      5080&lt;BR&gt;
      5087&lt;BR&gt;
      -&lt;BR&gt;
      -&lt;BR&gt;
      -&lt;BR&gt;
      -&lt;BR&gt;
      -&lt;BR&gt;
      -&lt;BR&gt;
      -&lt;BR&gt;
      T63YB&lt;BR&gt;
      T63XB&lt;BR&gt;
      -&lt;BR&gt;
      -&lt;BR&gt;
      -&lt;BR&gt;
      5887&lt;BR&gt;
      5891&lt;BR&gt;
      5880&lt;BR&gt;
      -&lt;BR&gt;
      -&lt;BR&gt;
      -&lt;BR&gt;
      T93Z&lt;BR&gt;
      T93YA&lt;BR&gt;
      T93XA&lt;BR&gt;
      T93YB&lt;BR&gt;
      T93XB&lt;BR&gt;
      -&lt;BR&gt;
      -&lt;BR&gt;
      -&lt;BR&gt;
      -&lt;BR&gt;
      -&lt;BR&gt;&lt;/FONT&gt;
    &lt;/TD&gt;
    &lt;TD BGCOLOR="#cccccc" ALIGN=CENTER&gt;&lt;FONT FACE=ARIAL SIZE=3&gt;
      -&lt;BR&gt;
      -&lt;BR&gt;
      -&lt;BR&gt;
      -&lt;BR&gt;
      -&lt;BR&gt;
      -&lt;BR&gt;
      -&lt;BR&gt;
      -&lt;BR&gt;
      -&lt;BR&gt;
      -&lt;BR&gt;
      8026EKP&lt;BR&gt;
      8026EKW&lt;BR&gt;
      8026EKM&lt;BR&gt;
      8026EKP&lt;BR&gt;
      8026EKB&lt;BR&gt;
      8026EKM&lt;BR&gt;
      1309X&lt;BR&gt;
      1309P&lt;BR&gt;
      1309W&lt;BR&gt;
      8024EKP&lt;BR&gt;
      8024EKW&lt;BR&gt;
      8024EKN&lt;BR&gt;
      RJ-9P/CT9P&lt;BR&gt;
      RJ-9W&lt;BR&gt;
      RJ-9X&lt;BR&gt;
      -&lt;BR&gt;
      -&lt;BR&gt;
      -&lt;BR&gt;
      -&lt;BR&gt;
      -&lt;BR&gt;
      -&lt;BR&gt;
      -&lt;BR&gt;&lt;/FONT&gt;
    &lt;/TD&gt;
    &lt;TD BGCOLOR="#cccccc" ALIGN=CENTER&gt;&lt;FONT FACE=ARIAL SIZE=3&gt;
      -&lt;BR&gt;
      -&lt;BR&gt;
      -&lt;BR&gt;
      -&lt;BR&gt;
      -&lt;BR&gt;
      -&lt;BR&gt;
      -&lt;BR&gt;
      -&lt;BR&gt;
      -&lt;BR&gt;
      -&lt;BR&gt;
      3103P&lt;BR&gt;
      3103Y&lt;BR&gt;
      3103Z&lt;BR&gt;
      3103P&lt;BR&gt;
      3103Y&lt;BR&gt;
      3103Z&lt;BR&gt;
      -&lt;BR&gt;
      -&lt;BR&gt;
      -&lt;BR&gt;
      -&lt;BR&gt;
      -&lt;BR&gt;
      -&lt;BR&gt;
      3105P/3106P&lt;BR&gt;
      3105W/3106W&lt;BR&gt;
      3105X/3106X&lt;BR&gt;
      3105Y/3106Y&lt;BR&gt;
      3105Z/3105Z&lt;BR&gt;
      3102P&lt;BR&gt;
      3102W&lt;BR&gt;
      3102X&lt;BR&gt;
      3102Y&lt;BR&gt;
      3102Z&lt;BR&gt;&lt;/FONT&gt;
    &lt;/TD&gt;
    &lt;TD BGCOLOR="#cccccc" ALIGN=CENTER&gt;&lt;FONT FACE=ARIAL SIZE=3&gt;
      -&lt;BR&gt;
      -&lt;BR&gt;
      -&lt;BR&gt;
      -&lt;BR&gt;
      -&lt;BR&gt;
      -&lt;BR&gt;
      -&lt;BR&gt;
      -&lt;BR&gt;
      -&lt;BR&gt;
      -&lt;BR&gt;
      -&lt;BR&gt;
      -&lt;BR&gt;
      -&lt;BR&gt;
      -&lt;BR&gt;
      -&lt;BR&gt;
      -&lt;BR&gt;
      -&lt;BR&gt;
      -&lt;BR&gt;
      -&lt;BR&gt;
      -&lt;BR&gt;
      -&lt;BR&gt;
      -&lt;BR&gt;
      EVMCBG&lt;BR&gt;
      EVMCCG&lt;BR&gt;
      -&lt;BR&gt;
      -&lt;BR&gt;
      -&lt;BR&gt;
      -&lt;BR&gt;
      -&lt;BR&gt;
      -&lt;BR&gt;
      -&lt;BR&gt;
      -&lt;BR&gt;&lt;/FONT&gt;
    &lt;/TD&gt;
    &lt;TD BGCOLOR="#cccccc" ALIGN=CENTER&gt;&lt;FONT FACE=ARIAL SIZE=3&gt;
      55-1-X&lt;BR&gt;
      55-4-X&lt;BR&gt;
      55-3-X&lt;BR&gt;
      55-2-X&lt;BR&gt;
      -&lt;BR&gt;
      -&lt;BR&gt;
      -&lt;BR&gt;
      -&lt;BR&gt;
      -&lt;BR&gt;
      -&lt;BR&gt;
      -&lt;BR&gt;
      -&lt;BR&gt;
      -&lt;BR&gt;
      -&lt;BR&gt;
      -&lt;BR&gt;
      -&lt;BR&gt;
      50-2-X&lt;BR&gt;
      50-4-X&lt;BR&gt;
      50-3-X&lt;BR&gt;
      -&lt;BR&gt;
      -&lt;BR&gt;
      -&lt;BR&gt;
      64P&lt;BR&gt;
      64W&lt;BR&gt;
      64X&lt;BR&gt;
      64Y&lt;BR&gt;
      64Z&lt;BR&gt;
      -&lt;BR&gt;
      -&lt;BR&gt;
      -&lt;BR&gt;
      -&lt;BR&gt;
      -&lt;BR&gt;&lt;/FONT&gt;
    &lt;/TD&gt;
    &lt;TD BGCOLOR="#cccccc" ALIGN=CENTER&gt;&lt;FONT FACE=ARIAL SIZE=3&gt;
      RT/RTR22&lt;BR&gt;
      RT/RTR22&lt;BR&gt;
      RT/RTR22&lt;BR&gt;
      RT/RTR22&lt;BR&gt;
      RJ/RJR22&lt;BR&gt;
      RJ/RJR22&lt;BR&gt;
      RJ/RJR22&lt;BR&gt;
      RT/RTR26&lt;BR&gt;
      RT/RTR26&lt;BR&gt;
      RT/RTR26&lt;BR&gt;
      RJ/RJR26&lt;BR&gt;
      RJ/RJR26&lt;BR&gt;
      RJ/RJR26&lt;BR&gt;
      RJ/RJR26&lt;BR&gt;
      RJ/RJR26&lt;BR&gt;
      RJ/RJR26&lt;BR&gt;
      RT/RTR24&lt;BR&gt;
      RT/RTR24&lt;BR&gt;
      RT/RTR24&lt;BR&gt;
      RJ/RJR24&lt;BR&gt;
      RJ/RJR24&lt;BR&gt;
      RJ/RJR24&lt;BR&gt;
      RJ/RJR24&lt;BR&gt;
      RJ/RJR24&lt;BR&gt;
      RJ/RJR24&lt;BR&gt;
      -&lt;BR&gt;
      -&lt;BR&gt;
      -&lt;BR&gt;
      -&lt;BR&gt;
      -&lt;BR&gt;
      -&lt;BR&gt;
      -&lt;BR&gt;&lt;/FONT&gt;
    &lt;/TD&gt;
  &lt;/TR&gt;
  &lt;TR&gt;
    &lt;TD COLSPAN=8&gt;&amp;nbsp;
    &lt;/TD&gt;
  &lt;/TR&gt;
  &lt;TR&gt;
    &lt;TD COLSPAN=8&gt;
      &lt;FONT SIZE=4 FACE=ARIAL&gt;&lt;B&gt;SINGLE TURN&lt;/B&gt;&lt;/FONT&gt;
    &lt;/TD&gt;
  &lt;/TR&gt;
  &lt;TR&gt;
    &lt;TD ALIGN=CENTER&gt;
      &lt;FONT SIZE=3 FACE=ARIAL&gt;&lt;B&gt;BOURN&lt;/B&gt;&lt;/FONT&gt;
    &lt;/TD&gt;
    &lt;TD ALIGN=CENTER&gt;
      &lt;FONT SIZE=3 FACE=ARIAL&gt;&lt;B&gt;BI&amp;nbsp;TECH&lt;/B&gt;&lt;/FONT&gt;
    &lt;/TD&gt;
    &lt;TD ALIGN=CENTER&gt;
      &lt;FONT SIZE=3 FACE=ARIAL&gt;&lt;B&gt;DALE-VISHAY&lt;/B&gt;&lt;/FONT&gt;
    &lt;/TD&gt;
    &lt;TD ALIGN=CENTER&gt;
      &lt;FONT SIZE=3 FACE=ARIAL&gt;&lt;B&gt;PHILIPS/MEPCO&lt;/B&gt;&lt;/FONT&gt;
    &lt;/TD&gt;
    &lt;TD ALIGN=CENTER&gt;
      &lt;FONT SIZE=3 FACE=ARIAL&gt;&lt;B&gt;MURATA&lt;/B&gt;&lt;/FONT&gt;
    &lt;/TD&gt;
    &lt;TD ALIGN=CENTER&gt;
      &lt;FONT SIZE=3 FACE=ARIAL&gt;&lt;B&gt;PANASONIC&lt;/B&gt;&lt;/FONT&gt;
    &lt;/TD&gt;
    &lt;TD ALIGN=CENTER&gt;
      &lt;FONT SIZE=3 FACE=ARIAL&gt;&lt;B&gt;SPECTROL&lt;/B&gt;&lt;/FONT&gt;
    &lt;/TD&gt;
    &lt;TD ALIGN=CENTER&gt;
      &lt;FONT SIZE=3 FACE=ARIAL&gt;&lt;B&gt;MILSPEC&lt;/B&gt;&lt;/FONT&gt;
    &lt;/TD&gt;
  &lt;/TR&gt;
  &lt;TR&gt;
    &lt;TD BGCOLOR="#cccccc" ALIGN=CENTER&gt;&lt;FONT FACE=ARIAL SIZE=3&gt;
      3323P&lt;BR&gt;
      3323S&lt;BR&gt;
      3323W&lt;BR&gt;
      3329H&lt;BR&gt;
      3329P&lt;BR&gt;
      3329W&lt;BR&gt;
      3339H&lt;BR&gt;
      3339P&lt;BR&gt;
      3339W&lt;BR&gt;
      3352E&lt;BR&gt;
      3352H&lt;BR&gt;
      3352K&lt;BR&gt;
      3352P&lt;BR&gt;
      3352T&lt;BR&gt;
      3352V&lt;BR&gt;
      3352W&lt;BR&gt;
      3362H&lt;BR&gt;
      3362M&lt;BR&gt;
      3362P&lt;BR&gt;
      3362R&lt;BR&gt;
      3362S&lt;BR&gt;
      3362U&lt;BR&gt;
      3362W&lt;BR&gt;
      3362X&lt;BR&gt;
      3386B&lt;BR&gt;
      3386C&lt;BR&gt;
      3386F&lt;BR&gt;
      3386H&lt;BR&gt;
      3386K&lt;BR&gt;
      3386M&lt;BR&gt;
      3386P&lt;BR&gt;
      3386S&lt;BR&gt;
      3386W&lt;BR&gt;
      3386X&lt;BR&gt;&lt;/FONT&gt;
    &lt;/TD&gt;
    &lt;TD BGCOLOR="#cccccc" ALIGN=CENTER&gt;&lt;FONT FACE=ARIAL SIZE=3&gt;
      25P&lt;BR&gt;
      25S&lt;BR&gt;
      25RX&lt;BR&gt;
      82P&lt;BR&gt;
      82M&lt;BR&gt;
      82PA&lt;BR&gt;
      -&lt;BR&gt;
      -&lt;BR&gt;
      -&lt;BR&gt;
      91E&lt;BR&gt;
      91X&lt;BR&gt;
      91T&lt;BR&gt;
      91B&lt;BR&gt;
      91A&lt;BR&gt;
      91V&lt;BR&gt;
      91W&lt;BR&gt;
      25W&lt;BR&gt;
      25V&lt;BR&gt;
      25P&lt;BR&gt;
      -&lt;BR&gt;
      25S&lt;BR&gt;
      25U&lt;BR&gt;
      25RX&lt;BR&gt;
      25X&lt;BR&gt;
      72XW&lt;BR&gt;
      72XL&lt;BR&gt;
      72PM&lt;BR&gt;
      72RX&lt;BR&gt;
      -&lt;BR&gt;
      72PX&lt;BR&gt;
      72P&lt;BR&gt;
      72RXW&lt;BR&gt;
      72RXL&lt;BR&gt;
      72X&lt;BR&gt;&lt;/FONT&gt;
    &lt;/TD&gt;
    &lt;TD BGCOLOR="#cccccc" ALIGN=CENTER&gt;&lt;FONT FACE=ARIAL SIZE=3&gt;
      -&lt;BR&gt;
      -&lt;BR&gt;
      -&lt;BR&gt;
      T7YB&lt;BR&gt;
      T7YA&lt;BR&gt;
      -&lt;BR&gt;
      -&lt;BR&gt;
      -&lt;BR&gt;
      -&lt;BR&gt;
      -&lt;BR&gt;
      -&lt;BR&gt;
      -&lt;BR&gt;
      -&lt;BR&gt;
      -&lt;BR&gt;
      -&lt;BR&gt;
      -&lt;BR&gt;
      -&lt;BR&gt;
      TXD&lt;BR&gt;
      TYA&lt;BR&gt;
      TYP&lt;BR&gt;
      -&lt;BR&gt;
      TYD&lt;BR&gt;
      TX&lt;BR&gt;
      -&lt;BR&gt;
      150SX&lt;BR&gt;
      100SX&lt;BR&gt;
      102T&lt;BR&gt;
      101S&lt;BR&gt;
      190T&lt;BR&gt;
      150TX&lt;BR&gt;
      101&lt;BR&gt;
      -&lt;BR&gt;
      -&lt;BR&gt;
      101SX&lt;BR&gt;&lt;/FONT&gt;
    &lt;/TD&gt;
    &lt;TD BGCOLOR="#cccccc" ALIGN=CENTER&gt;&lt;FONT FACE=ARIAL SIZE=3&gt;
      ET6P&lt;BR&gt;
      ET6S&lt;BR&gt;
      ET6X&lt;BR&gt;
      RJ-6W/8014EMW&lt;BR&gt;
      RJ-6P/8014EMP&lt;BR&gt;
      RJ-6X/8014EMX&lt;BR&gt;
      TM7W&lt;BR&gt;
      TM7P&lt;BR&gt;
      TM7X&lt;BR&gt;
      -&lt;BR&gt;
      8017SMS&lt;BR&gt;
      -&lt;BR&gt;
      8017SMB&lt;BR&gt;
      8017SMA&lt;BR&gt;
      -&lt;BR&gt;
      -&lt;BR&gt;
      CT-6W&lt;BR&gt;
      CT-6H&lt;BR&gt;
      CT-6P&lt;BR&gt;
      CT-6R&lt;BR&gt;
      -&lt;BR&gt;
      CT-6V&lt;BR&gt;
      CT-6X&lt;BR&gt;
      -&lt;BR&gt;
      -&lt;BR&gt;
      8038EKV&lt;BR&gt;
      -&lt;BR&gt;
      8038EKX&lt;BR&gt;
      -&lt;BR&gt;
      -&lt;BR&gt;
      8038EKP&lt;BR&gt;
      8038EKZ&lt;BR&gt;
      8038EKW&lt;BR&gt;
      -&lt;BR&gt;&lt;/FONT&gt;
    &lt;/TD&gt;
    &lt;TD BGCOLOR="#cccccc" ALIGN=CENTER&gt;&lt;FONT FACE=ARIAL SIZE=3&gt;
      -&lt;BR&gt;
      -&lt;BR&gt;
      -&lt;BR&gt;
      3321H&lt;BR&gt;
      3321P&lt;BR&gt;
      3321N&lt;BR&gt;
      1102H&lt;BR&gt;
      1102P&lt;BR&gt;
      1102T&lt;BR&gt;
      RVA0911V304A&lt;BR&gt;
      -&lt;BR&gt;
      RVA0911H413A&lt;BR&gt;
      RVG0707V100A&lt;BR&gt;
      RVA0607V(H)306A&lt;BR&gt;
      RVA1214H213A&lt;BR&gt;
      -&lt;BR&gt;
      -&lt;BR&gt;
      -&lt;BR&gt;
      -&lt;BR&gt;
      -&lt;BR&gt;
      -&lt;BR&gt;
      -&lt;BR&gt;
      -&lt;BR&gt;
      -&lt;BR&gt;
      3104B&lt;BR&gt;
      3104C&lt;BR&gt;
      3104F&lt;BR&gt;
      3104H&lt;BR&gt;
      -&lt;BR&gt;
      3104M&lt;BR&gt;
      3104P&lt;BR&gt;
      3104S&lt;BR&gt;
      3104W&lt;BR&gt;
      3104X&lt;BR&gt;&lt;/FONT&gt;
    &lt;/TD&gt;
    &lt;TD BGCOLOR="#cccccc" ALIGN=CENTER&gt;&lt;FONT FACE=ARIAL SIZE=3&gt;
      EVMQ0G&lt;BR&gt;
      EVMQIG&lt;BR&gt;
      EVMQ3G&lt;BR&gt;
      EVMS0G&lt;BR&gt;
      EVMQ0G&lt;BR&gt;
      EVMG0G&lt;BR&gt;
      -&lt;BR&gt;
      -&lt;BR&gt;
      -&lt;BR&gt;
      EVMK4GA00B&lt;BR&gt;
      EVM30GA00B&lt;BR&gt;
      EVMK0GA00B&lt;BR&gt;
      EVM38GA00B&lt;BR&gt;
      EVMB6&lt;BR&gt;
      EVLQ0&lt;BR&gt;
      -&lt;BR&gt;
      EVMMSG&lt;BR&gt;
      EVMMBG&lt;BR&gt;
      EVMMAG&lt;BR&gt;
      -&lt;BR&gt;
      -&lt;BR&gt;
      EVMMCS&lt;BR&gt;
      -&lt;BR&gt;
      -&lt;BR&gt;
      -&lt;BR&gt;
      -&lt;BR&gt;
      -&lt;BR&gt;
      EVMM1&lt;BR&gt;
      -&lt;BR&gt;
      -&lt;BR&gt;
      EVMM0&lt;BR&gt;
      -&lt;BR&gt;
      -&lt;BR&gt;
      EVMM3&lt;BR&gt;&lt;/FONT&gt;
    &lt;/TD&gt;
    &lt;TD BGCOLOR="#cccccc" ALIGN=CENTER&gt;&lt;FONT FACE=ARIAL SIZE=3&gt;
      -&lt;BR&gt;
      -&lt;BR&gt;
      -&lt;BR&gt;
      62-3-1&lt;BR&gt;
      62-1-2&lt;BR&gt;
      -&lt;BR&gt;
      -&lt;BR&gt;
      -&lt;BR&gt;
      -&lt;BR&gt;
      -&lt;BR&gt;
      -&lt;BR&gt;
      -&lt;BR&gt;
      -&lt;BR&gt;
      -&lt;BR&gt;
      -&lt;BR&gt;
      -&lt;BR&gt;
      67R&lt;BR&gt;
      -&lt;BR&gt;
      67P&lt;BR&gt;
      -&lt;BR&gt;
      -&lt;BR&gt;
      -&lt;BR&gt;
      -&lt;BR&gt;
      67X&lt;BR&gt;
      63V&lt;BR&gt;
      63S&lt;BR&gt;
      63M&lt;BR&gt;
      -&lt;BR&gt;
      -&lt;BR&gt;
      63H&lt;BR&gt;
      63P&lt;BR&gt;
      -&lt;BR&gt;
      -&lt;BR&gt;
      63X&lt;BR&gt;&lt;/FONT&gt;
    &lt;/TD&gt;
    &lt;TD BGCOLOR="#cccccc" ALIGN=CENTER&gt;&lt;FONT FACE=ARIAL SIZE=3&gt;
      -&lt;BR&gt;
      -&lt;BR&gt;
      -&lt;BR&gt;
      RJ/RJR50&lt;BR&gt;
      RJ/RJR50&lt;BR&gt;
      RJ/RJR50&lt;BR&gt;
      -&lt;BR&gt;
      -&lt;BR&gt;
      -&lt;BR&gt;
      -&lt;BR&gt;
      -&lt;BR&gt;
      -&lt;BR&gt;
      -&lt;BR&gt;
      -&lt;BR&gt;
      -&lt;BR&gt;
      -&lt;BR&gt;
      -&lt;BR&gt;
      -&lt;BR&gt;
      -&lt;BR&gt;
      -&lt;BR&gt;
      -&lt;BR&gt;
      -&lt;BR&gt;
      -&lt;BR&gt;
      -&lt;BR&gt;
      -&lt;BR&gt;
      -&lt;BR&gt;
      -&lt;BR&gt;
      -&lt;BR&gt;
      -&lt;BR&gt;
      -&lt;BR&gt;
      -&lt;BR&gt;
      -&lt;BR&gt;
      -&lt;BR&gt;
      -&lt;BR&gt;&lt;/FONT&gt;
    &lt;/TD&gt;
  &lt;/TR&gt;
&lt;/TABLE&gt;
&lt;P&gt;&amp;nbsp;&lt;P&gt;
&lt;TABLE BORDER=0 CELLSPACING=1 CELLPADDING=3&gt;
  &lt;TR&gt;
    &lt;TD COLSPAN=7&gt;
      &lt;FONT color="#0000FF" SIZE=4 FACE=ARIAL&gt;&lt;B&gt;SMD TRIM-POT CROSS REFERENCE&lt;/B&gt;&lt;/FONT&gt;
      &lt;P&gt;
      &lt;FONT SIZE=4 FACE=ARIAL&gt;&lt;B&gt;MULTI-TURN&lt;/B&gt;&lt;/FONT&gt;
    &lt;/TD&gt;
  &lt;/TR&gt;
  &lt;TR&gt;
    &lt;TD&gt;
      &lt;FONT SIZE=3 FACE=ARIAL&gt;&lt;B&gt;BOURNS&lt;/B&gt;&lt;/FONT&gt;
    &lt;/TD&gt;
    &lt;TD&gt;
      &lt;FONT SIZE=3 FACE=ARIAL&gt;&lt;B&gt;BI&amp;nbsp;TECH&lt;/B&gt;&lt;/FONT&gt;
    &lt;/TD&gt;
    &lt;TD&gt;
      &lt;FONT SIZE=3 FACE=ARIAL&gt;&lt;B&gt;DALE-VISHAY&lt;/B&gt;&lt;/FONT&gt;
    &lt;/TD&gt;
    &lt;TD&gt;
      &lt;FONT SIZE=3 FACE=ARIAL&gt;&lt;B&gt;PHILIPS/MEPCO&lt;/B&gt;&lt;/FONT&gt;
    &lt;/TD&gt;
    &lt;TD&gt;
      &lt;FONT SIZE=3 FACE=ARIAL&gt;&lt;B&gt;PANASONIC&lt;/B&gt;&lt;/FONT&gt;
    &lt;/TD&gt;
    &lt;TD&gt;
      &lt;FONT SIZE=3 FACE=ARIAL&gt;&lt;B&gt;TOCOS&lt;/B&gt;&lt;/FONT&gt;
    &lt;/TD&gt;
    &lt;TD&gt;
      &lt;FONT SIZE=3 FACE=ARIAL&gt;&lt;B&gt;AUX/KYOCERA&lt;/B&gt;&lt;/FONT&gt;
    &lt;/TD&gt;
  &lt;/TR&gt;
  &lt;TR&gt;
    &lt;TD BGCOLOR="#cccccc" ALIGN=CENTER&gt;&lt;FONT FACE=ARIAL SIZE=3&gt;
      3224G&lt;BR&gt;
      3224J&lt;BR&gt;
      3224W&lt;BR&gt;
      3269P&lt;BR&gt;
      3269W&lt;BR&gt;
      3269X&lt;BR&gt;&lt;/FONT&gt;
    &lt;/TD&gt;
    &lt;TD BGCOLOR="#cccccc" ALIGN=CENTER&gt;&lt;FONT FACE=ARIAL SIZE=3&gt;
      44G&lt;BR&gt;
      44J&lt;BR&gt;
      44W&lt;BR&gt;
      84P&lt;BR&gt;
      84W&lt;BR&gt;
      84X&lt;BR&gt;&lt;/FONT&gt;
    &lt;/TD&gt;
    &lt;TD BGCOLOR="#cccccc" ALIGN=CENTER&gt;&lt;FONT FACE=ARIAL SIZE=3&gt;
      -&lt;BR&gt;
      -&lt;BR&gt;
      -&lt;BR&gt;
      ST63Z&lt;BR&gt;
      ST63Y&lt;BR&gt;
      -&lt;BR&gt;&lt;/FONT&gt;
    &lt;/TD&gt;
    &lt;TD BGCOLOR="#cccccc" ALIGN=CENTER&gt;&lt;FONT FACE=ARIAL SIZE=3&gt;
      -&lt;BR&gt;
      -&lt;BR&gt;
      -&lt;BR&gt;
      ST5P&lt;BR&gt;
      ST5W&lt;BR&gt;
      ST5X&lt;BR&gt;&lt;/FONT&gt;
    &lt;/TD&gt;
    &lt;TD BGCOLOR="#cccccc" ALIGN=CENTER&gt;&lt;FONT FACE=ARIAL SIZE=3&gt;
      -&lt;BR&gt;
      -&lt;BR&gt;
      -&lt;BR&gt;
      -&lt;BR&gt;
      -&lt;BR&gt;
      -&lt;BR&gt;&lt;/FONT&gt;
    &lt;/TD&gt;
    &lt;TD BGCOLOR="#cccccc" ALIGN=CENTER&gt;&lt;FONT FACE=ARIAL SIZE=3&gt;
      -&lt;BR&gt;
      -&lt;BR&gt;
      -&lt;BR&gt;
      -&lt;BR&gt;
      -&lt;BR&gt;
      -&lt;BR&gt;&lt;/FONT&gt;
    &lt;/TD&gt;
    &lt;TD BGCOLOR="#cccccc" ALIGN=CENTER&gt;&lt;FONT FACE=ARIAL SIZE=3&gt;
      -&lt;BR&gt;
      -&lt;BR&gt;
      -&lt;BR&gt;
      -&lt;BR&gt;
      -&lt;BR&gt;
      -&lt;BR&gt;&lt;/FONT&gt;
    &lt;/TD&gt;
  &lt;/TR&gt;
  &lt;TR&gt;
    &lt;TD COLSPAN=7&gt;&amp;nbsp;
    &lt;/TD&gt;
  &lt;/TR&gt;
  &lt;TR&gt;
    &lt;TD COLSPAN=7&gt;
      &lt;FONT SIZE=4 FACE=ARIAL&gt;&lt;B&gt;SINGLE TURN&lt;/B&gt;&lt;/FONT&gt;
    &lt;/TD&gt;
  &lt;/TR&gt;
  &lt;TR&gt;
    &lt;TD&gt;
      &lt;FONT SIZE=3 FACE=ARIAL&gt;&lt;B&gt;BOURNS&lt;/B&gt;&lt;/FONT&gt;
    &lt;/TD&gt;
    &lt;TD&gt;
      &lt;FONT SIZE=3 FACE=ARIAL&gt;&lt;B&gt;BI&amp;nbsp;TECH&lt;/B&gt;&lt;/FONT&gt;
    &lt;/TD&gt;
    &lt;TD&gt;
      &lt;FONT SIZE=3 FACE=ARIAL&gt;&lt;B&gt;DALE-VISHAY&lt;/B&gt;&lt;/FONT&gt;
    &lt;/TD&gt;
    &lt;TD&gt;
      &lt;FONT SIZE=3 FACE=ARIAL&gt;&lt;B&gt;PHILIPS/MEPCO&lt;/B&gt;&lt;/FONT&gt;
    &lt;/TD&gt;
    &lt;TD&gt;
      &lt;FONT SIZE=3 FACE=ARIAL&gt;&lt;B&gt;PANASONIC&lt;/B&gt;&lt;/FONT&gt;
    &lt;/TD&gt;
    &lt;TD&gt;
      &lt;FONT SIZE=3 FACE=ARIAL&gt;&lt;B&gt;TOCOS&lt;/B&gt;&lt;/FONT&gt;
    &lt;/TD&gt;
    &lt;TD&gt;
      &lt;FONT SIZE=3 FACE=ARIAL&gt;&lt;B&gt;AUX/KYOCERA&lt;/B&gt;&lt;/FONT&gt;
    &lt;/TD&gt;
  &lt;/TR&gt;
  &lt;TR&gt;
    &lt;TD BGCOLOR="#cccccc" ALIGN=CENTER&gt;&lt;FONT FACE=ARIAL SIZE=3&gt;
      3314G&lt;BR&gt;
      3314J&lt;BR&gt;
      3364A/B&lt;BR&gt;
      3364C/D&lt;BR&gt;
      3364W/X&lt;BR&gt;
      3313G&lt;BR&gt;
      3313J&lt;BR&gt;&lt;/FONT&gt;
    &lt;/TD&gt;
    &lt;TD BGCOLOR="#cccccc" ALIGN=CENTER&gt;&lt;FONT FACE=ARIAL SIZE=3&gt;
      23B&lt;BR&gt;
      23A&lt;BR&gt;
      21X&lt;BR&gt;
      21W&lt;BR&gt;
      -&lt;BR&gt;
      22B&lt;BR&gt;
      22A&lt;BR&gt;&lt;/FONT&gt;
    &lt;/TD&gt;
    &lt;TD BGCOLOR="#cccccc" ALIGN=CENTER&gt;&lt;FONT FACE=ARIAL SIZE=3&gt;
      ST5YL/ST53YL&lt;BR&gt;
      ST5YJ/5T53YJ&lt;BR&gt;
      ST-23A&lt;BR&gt;
      ST-22B&lt;BR&gt;
      ST-22&lt;BR&gt;
      -&lt;BR&gt;
      -&lt;BR&gt;&lt;/FONT&gt;
    &lt;/TD&gt;
    &lt;TD BGCOLOR="#cccccc" ALIGN=CENTER&gt;&lt;FONT FACE=ARIAL SIZE=3&gt;
      ST-4B&lt;BR&gt;
      ST-4A&lt;BR&gt;
      -&lt;BR&gt;
      -&lt;BR&gt;
      -&lt;BR&gt;
      ST-3B&lt;BR&gt;
      ST-3A&lt;BR&gt;&lt;/FONT&gt;
    &lt;/TD&gt;
    &lt;TD BGCOLOR="#cccccc" ALIGN=CENTER&gt;&lt;FONT FACE=ARIAL SIZE=3&gt;
      -&lt;BR&gt;
      EVM-6YS&lt;BR&gt;
      EVM-1E&lt;BR&gt;
      EVM-1G&lt;BR&gt;
      EVM-1D&lt;BR&gt;
      -&lt;BR&gt;
      -&lt;BR&gt;&lt;/FONT&gt;
    &lt;/TD&gt;
    &lt;TD BGCOLOR="#cccccc" ALIGN=CENTER&gt;&lt;FONT FACE=ARIAL SIZE=3&gt;
      G4B&lt;BR&gt;
      G4A&lt;BR&gt;
      TR04-3S1&lt;BR&gt;
      TRG04-2S1&lt;BR&gt;
      -&lt;BR&gt;
      -&lt;BR&gt;
      -&lt;BR&gt;&lt;/FONT&gt;
    &lt;/TD&gt;
    &lt;TD BGCOLOR="#cccccc" ALIGN=CENTER&gt;&lt;FONT FACE=ARIAL SIZE=3&gt;
      -&lt;BR&gt;
      -&lt;BR&gt;
      DVR-43A&lt;BR&gt;
      CVR-42C&lt;BR&gt;
      CVR-42A/C&lt;BR&gt;
      -&lt;BR&gt;
      -&lt;BR&gt;&lt;/FONT&gt;
    &lt;/TD&gt;
  &lt;/TR&gt;
&lt;/TABLE&gt;
&lt;P&gt;
&lt;FONT SIZE=4 FACE=ARIAL&gt;&lt;B&gt;ALT =&amp;nbsp;ALTERNATE&lt;/B&gt;&lt;/FONT&gt;
&lt;P&gt;

&amp;nbsp;
&lt;P&gt;
&lt;/td&gt;
&lt;/tr&gt;
&lt;/table&gt;
&lt;/BODY&gt;&lt;/HTML&gt;</description>
<packages>
<package name="C050-045X075">
<description>&lt;b&gt;CAPACITOR&lt;/b&gt;&lt;p&gt;
grid 5 mm, outline 4.5 x 7.5 mm</description>
<wire x1="-0.3048" y1="0.635" x2="-0.3048" y2="0" width="0.3048" layer="21"/>
<wire x1="-0.3048" y1="0" x2="-0.3048" y2="-0.635" width="0.3048" layer="21"/>
<wire x1="-0.3048" y1="0" x2="-1.524" y2="0" width="0.1524" layer="21"/>
<wire x1="0.3302" y1="0.635" x2="0.3302" y2="0" width="0.3048" layer="21"/>
<wire x1="0.3302" y1="0" x2="0.3302" y2="-0.635" width="0.3048" layer="21"/>
<wire x1="0.3302" y1="0" x2="1.524" y2="0" width="0.1524" layer="21"/>
<wire x1="-3.683" y1="2.032" x2="-3.683" y2="-2.032" width="0.1524" layer="21"/>
<wire x1="-3.429" y1="-2.286" x2="3.429" y2="-2.286" width="0.1524" layer="21"/>
<wire x1="3.683" y1="-2.032" x2="3.683" y2="2.032" width="0.1524" layer="21"/>
<wire x1="3.429" y1="2.286" x2="-3.429" y2="2.286" width="0.1524" layer="21"/>
<wire x1="3.429" y1="2.286" x2="3.683" y2="2.032" width="0.1524" layer="21" curve="-90"/>
<wire x1="3.429" y1="-2.286" x2="3.683" y2="-2.032" width="0.1524" layer="21" curve="90"/>
<wire x1="-3.683" y1="-2.032" x2="-3.429" y2="-2.286" width="0.1524" layer="21" curve="90"/>
<wire x1="-3.683" y1="2.032" x2="-3.429" y2="2.286" width="0.1524" layer="21" curve="-90"/>
<pad name="1" x="-2.54" y="0" drill="0.8128" shape="octagon"/>
<pad name="2" x="2.54" y="0" drill="0.8128" shape="octagon"/>
<text x="-3.556" y="2.667" size="1.27" layer="25" ratio="10">&gt;NAME</text>
<text x="-3.556" y="-3.81" size="1.27" layer="27" ratio="10">&gt;VALUE</text>
</package>
<package name="RTRIM3339P">
<description>&lt;b&gt;Trimm resistor&lt;/b&gt; BOURNS&lt;p&gt;
Cermet MIL-R-22097</description>
<circle x="0" y="0" radius="3.81" width="0.1524" layer="21"/>
<circle x="0" y="0" radius="1.4199" width="0.1524" layer="21"/>
<pad name="1" x="-2.54" y="0" drill="0.6096"/>
<pad name="2" x="0" y="-2.54" drill="0.6096"/>
<pad name="3" x="2.54" y="0" drill="0.6096"/>
<text x="-2.515" y="4.205" size="1.27" layer="25">&gt;NAME</text>
<text x="-2.515" y="-5.605" size="1.27" layer="27">&gt;VALUE</text>
<rectangle x1="-1.016" y1="-0.254" x2="1.016" y2="0.254" layer="21"/>
<rectangle x1="-0.254" y1="-1.016" x2="0.254" y2="1.016" layer="21"/>
</package>
<package name="RTRIM64W">
<description>&lt;b&gt;Trimm resistor&lt;/b&gt; Spectrol&lt;p&gt;
Cermet MIL-R-22097</description>
<wire x1="2.52" y1="-4.8" x2="-2.03" y2="-4.8" width="0.254" layer="21"/>
<wire x1="-2.03" y1="-4.8" x2="-2.03" y2="4.8" width="0.254" layer="21"/>
<wire x1="-2.03" y1="4.8" x2="2.52" y2="4.8" width="0.254" layer="21"/>
<wire x1="2.52" y1="4.8" x2="2.52" y2="3.2" width="0.254" layer="21"/>
<wire x1="2.52" y1="3.2" x2="2.27" y2="3.2" width="0.254" layer="21"/>
<wire x1="2.27" y1="3.2" x2="2.27" y2="-3.2" width="0.254" layer="21"/>
<wire x1="2.27" y1="-3.2" x2="2.52" y2="-3.2" width="0.254" layer="21"/>
<wire x1="2.52" y1="-3.2" x2="2.52" y2="-4.8" width="0.254" layer="21"/>
<circle x="-0.58" y="3.3" radius="1.1" width="0.1524" layer="21"/>
<pad name="1" x="1.27" y="-2.54" drill="0.6096"/>
<pad name="2" x="1.27" y="0" drill="0.6096"/>
<pad name="3" x="1.27" y="2.54" drill="0.6096"/>
<text x="-2.62" y="-4.95" size="1.27" layer="25" rot="R90">&gt;NAME</text>
<text x="4.35" y="-4.95" size="1.27" layer="27" rot="R90">&gt;VALUE</text>
<rectangle x1="-0.78" y1="2.25" x2="-0.38" y2="4.35" layer="21"/>
</package>
<package name="0204/7">
<description>&lt;b&gt;RESISTOR&lt;/b&gt;&lt;p&gt;
type 0204, grid 7.5 mm</description>
<wire x1="3.81" y1="0" x2="2.921" y2="0" width="0.508" layer="51"/>
<wire x1="-3.81" y1="0" x2="-2.921" y2="0" width="0.508" layer="51"/>
<wire x1="-2.54" y1="0.762" x2="-2.286" y2="1.016" width="0.1524" layer="21" curve="-90"/>
<wire x1="-2.54" y1="-0.762" x2="-2.286" y2="-1.016" width="0.1524" layer="21" curve="90"/>
<wire x1="2.286" y1="-1.016" x2="2.54" y2="-0.762" width="0.1524" layer="21" curve="90"/>
<wire x1="2.286" y1="1.016" x2="2.54" y2="0.762" width="0.1524" layer="21" curve="-90"/>
<wire x1="-2.54" y1="-0.762" x2="-2.54" y2="0.762" width="0.1524" layer="21"/>
<wire x1="-2.286" y1="1.016" x2="-1.905" y2="1.016" width="0.1524" layer="21"/>
<wire x1="-1.778" y1="0.889" x2="-1.905" y2="1.016" width="0.1524" layer="21"/>
<wire x1="-2.286" y1="-1.016" x2="-1.905" y2="-1.016" width="0.1524" layer="21"/>
<wire x1="-1.778" y1="-0.889" x2="-1.905" y2="-1.016" width="0.1524" layer="21"/>
<wire x1="1.778" y1="0.889" x2="1.905" y2="1.016" width="0.1524" layer="21"/>
<wire x1="1.778" y1="0.889" x2="-1.778" y2="0.889" width="0.1524" layer="21"/>
<wire x1="1.778" y1="-0.889" x2="1.905" y2="-1.016" width="0.1524" layer="21"/>
<wire x1="1.778" y1="-0.889" x2="-1.778" y2="-0.889" width="0.1524" layer="21"/>
<wire x1="2.286" y1="1.016" x2="1.905" y2="1.016" width="0.1524" layer="21"/>
<wire x1="2.286" y1="-1.016" x2="1.905" y2="-1.016" width="0.1524" layer="21"/>
<wire x1="2.54" y1="-0.762" x2="2.54" y2="0.762" width="0.1524" layer="21"/>
<pad name="1" x="-3.81" y="0" drill="0.8128" shape="octagon"/>
<pad name="2" x="3.81" y="0" drill="0.8128" shape="octagon"/>
<text x="-2.54" y="1.2954" size="0.9906" layer="25" ratio="10">&gt;NAME</text>
<text x="-1.6256" y="-0.4826" size="0.9906" layer="27" ratio="10">&gt;VALUE</text>
<rectangle x1="2.54" y1="-0.254" x2="2.921" y2="0.254" layer="21"/>
<rectangle x1="-2.921" y1="-0.254" x2="-2.54" y2="0.254" layer="21"/>
</package>
<package name="0411/15">
<description>&lt;b&gt;RESISTOR&lt;/b&gt;&lt;p&gt;
type 0411, grid 15 mm</description>
<wire x1="5.08" y1="-1.651" x2="5.08" y2="1.651" width="0.1524" layer="21"/>
<wire x1="4.699" y1="2.032" x2="5.08" y2="1.651" width="0.1524" layer="21" curve="-90"/>
<wire x1="-5.08" y1="-1.651" x2="-4.699" y2="-2.032" width="0.1524" layer="21" curve="90"/>
<wire x1="4.699" y1="-2.032" x2="5.08" y2="-1.651" width="0.1524" layer="21" curve="90"/>
<wire x1="-5.08" y1="1.651" x2="-4.699" y2="2.032" width="0.1524" layer="21" curve="-90"/>
<wire x1="4.699" y1="2.032" x2="4.064" y2="2.032" width="0.1524" layer="21"/>
<wire x1="3.937" y1="1.905" x2="4.064" y2="2.032" width="0.1524" layer="21"/>
<wire x1="4.699" y1="-2.032" x2="4.064" y2="-2.032" width="0.1524" layer="21"/>
<wire x1="3.937" y1="-1.905" x2="4.064" y2="-2.032" width="0.1524" layer="21"/>
<wire x1="-3.937" y1="1.905" x2="-4.064" y2="2.032" width="0.1524" layer="21"/>
<wire x1="-3.937" y1="1.905" x2="3.937" y2="1.905" width="0.1524" layer="21"/>
<wire x1="-3.937" y1="-1.905" x2="-4.064" y2="-2.032" width="0.1524" layer="21"/>
<wire x1="-3.937" y1="-1.905" x2="3.937" y2="-1.905" width="0.1524" layer="21"/>
<wire x1="-5.08" y1="1.651" x2="-5.08" y2="-1.651" width="0.1524" layer="21"/>
<wire x1="-4.699" y1="2.032" x2="-4.064" y2="2.032" width="0.1524" layer="21"/>
<wire x1="-4.699" y1="-2.032" x2="-4.064" y2="-2.032" width="0.1524" layer="21"/>
<wire x1="-7.62" y1="0" x2="-6.35" y2="0" width="0.762" layer="51"/>
<wire x1="6.35" y1="0" x2="7.62" y2="0" width="0.762" layer="51"/>
<pad name="1" x="-7.62" y="0" drill="0.9144" shape="octagon"/>
<pad name="2" x="7.62" y="0" drill="0.9144" shape="octagon"/>
<text x="-5.08" y="2.413" size="1.27" layer="25" ratio="10">&gt;NAME</text>
<text x="-3.5814" y="-0.635" size="1.27" layer="27" ratio="10">&gt;VALUE</text>
<rectangle x1="5.08" y1="-0.381" x2="6.477" y2="0.381" layer="21"/>
<rectangle x1="-6.477" y1="-0.381" x2="-5.08" y2="0.381" layer="21"/>
</package>
</packages>
</library>
<library name="triac">
<description>&lt;b&gt;Thyristors, Triacs, Trigger Diodes&lt;/b&gt;&lt;p&gt;
&lt;author&gt;Created by librarian@cadsoft.de&lt;/author&gt;</description>
<packages>
<package name="TO220AB">
<description>&lt;B&gt;TO220 AB&lt;/B&gt;&lt;p&gt;
3-lead molded horzintal</description>
<wire x1="-5.207" y1="-1.27" x2="5.207" y2="-1.27" width="0.1524" layer="21"/>
<wire x1="5.207" y1="14.605" x2="-5.207" y2="14.605" width="0.1524" layer="21"/>
<wire x1="5.207" y1="-1.27" x2="5.207" y2="11.176" width="0.1524" layer="21"/>
<wire x1="5.207" y1="11.176" x2="4.318" y2="11.176" width="0.1524" layer="21"/>
<wire x1="4.318" y1="11.176" x2="4.318" y2="12.7" width="0.1524" layer="21"/>
<wire x1="4.318" y1="12.7" x2="5.207" y2="12.7" width="0.1524" layer="21"/>
<wire x1="5.207" y1="12.7" x2="5.207" y2="14.605" width="0.1524" layer="21"/>
<wire x1="-5.207" y1="-1.27" x2="-5.207" y2="11.176" width="0.1524" layer="21"/>
<wire x1="-5.207" y1="11.176" x2="-4.318" y2="11.176" width="0.1524" layer="21"/>
<wire x1="-4.318" y1="11.176" x2="-4.318" y2="12.7" width="0.1524" layer="21"/>
<wire x1="-4.318" y1="12.7" x2="-5.207" y2="12.7" width="0.1524" layer="21"/>
<wire x1="-5.207" y1="12.7" x2="-5.207" y2="14.605" width="0.1524" layer="21"/>
<wire x1="-4.572" y1="-0.635" x2="4.572" y2="-0.635" width="0.0508" layer="21"/>
<wire x1="4.572" y1="7.62" x2="4.572" y2="-0.635" width="0.0508" layer="21"/>
<wire x1="4.572" y1="7.62" x2="-4.572" y2="7.62" width="0.0508" layer="21"/>
<wire x1="-4.572" y1="-0.635" x2="-4.572" y2="7.62" width="0.0508" layer="21"/>
<circle x="0" y="11.176" radius="1.8034" width="0.1524" layer="21"/>
<circle x="0" y="11.176" radius="2.921" width="0" layer="42"/>
<circle x="0" y="11.176" radius="2.921" width="0" layer="43"/>
<pad name="1" x="-2.54" y="-6.35" drill="1.1176" shape="long" rot="R90"/>
<pad name="2" x="0" y="-6.35" drill="1.1176" shape="long" rot="R90"/>
<pad name="3" x="2.54" y="-6.35" drill="1.1176" shape="long" rot="R90"/>
<text x="-5.461" y="-1.27" size="1.778" layer="25" ratio="10" rot="R90">&gt;NAME</text>
<text x="-3.937" y="2.54" size="1.778" layer="27" ratio="10">&gt;VALUE</text>
<text x="-4.445" y="7.874" size="0.9906" layer="21" ratio="10">A17,5mm</text>
<rectangle x1="2.159" y1="-4.445" x2="2.921" y2="-3.81" layer="21"/>
<rectangle x1="-0.381" y1="-4.445" x2="0.381" y2="-3.81" layer="21"/>
<rectangle x1="-2.921" y1="-4.445" x2="-2.159" y2="-3.81" layer="21"/>
<rectangle x1="-3.175" y1="-3.81" x2="-1.905" y2="-1.27" layer="21"/>
<rectangle x1="-0.635" y1="-3.81" x2="0.635" y2="-1.27" layer="21"/>
<rectangle x1="1.905" y1="-3.81" x2="3.175" y2="-1.27" layer="21"/>
<rectangle x1="2.159" y1="-6.35" x2="2.921" y2="-4.445" layer="51"/>
<rectangle x1="-0.381" y1="-6.35" x2="0.381" y2="-4.445" layer="51"/>
<rectangle x1="-2.921" y1="-6.35" x2="-2.159" y2="-4.445" layer="51"/>
<hole x="0" y="11.176" drill="3.302"/>
</package>
</packages>
</library>
<library name="diode">
<description>&lt;b&gt;Diodes&lt;/b&gt;&lt;p&gt;
Based on the following sources:
&lt;ul&gt;
&lt;li&gt;Motorola : www.onsemi.com
&lt;li&gt;Fairchild : www.fairchildsemi.com
&lt;li&gt;Philips : www.semiconductors.com
&lt;li&gt;Vishay : www.vishay.de
&lt;/ul&gt;
&lt;author&gt;Created by librarian@cadsoft.de&lt;/author&gt;</description>
<packages>
<package name="GT32">
<description>&lt;B&gt;DIODE&lt;/B&gt;&lt;p&gt;
diameter 2.54 mm, horizontal, grid 7.62 mm</description>
<wire x1="2.032" y1="-1.27" x2="-2.032" y2="-1.27" width="0.1524" layer="21"/>
<wire x1="2.032" y1="-1.27" x2="2.032" y2="1.27" width="0.1524" layer="21"/>
<wire x1="-2.032" y1="1.27" x2="2.032" y2="1.27" width="0.1524" layer="21"/>
<wire x1="-2.032" y1="1.27" x2="-2.032" y2="-1.27" width="0.1524" layer="21"/>
<wire x1="3.81" y1="0" x2="2.794" y2="0" width="0.762" layer="51"/>
<wire x1="-3.81" y1="0" x2="-2.794" y2="0" width="0.762" layer="51"/>
<wire x1="1.016" y1="0.635" x2="1.016" y2="-0.635" width="0.1524" layer="21"/>
<wire x1="1.016" y1="-0.635" x2="0" y2="0" width="0.1524" layer="21"/>
<wire x1="0" y1="0" x2="1.016" y2="0.635" width="0.1524" layer="21"/>
<wire x1="-1.016" y1="-0.635" x2="-1.016" y2="0.635" width="0.1524" layer="21"/>
<wire x1="-1.016" y1="0.635" x2="0" y2="0" width="0.1524" layer="21"/>
<wire x1="0" y1="0" x2="-1.397" y2="0" width="0.1524" layer="21"/>
<wire x1="0" y1="0" x2="-1.016" y2="-0.635" width="0.1524" layer="21"/>
<wire x1="0" y1="0" x2="1.524" y2="0" width="0.1524" layer="21"/>
<wire x1="-0.254" y1="-0.635" x2="0" y2="-0.635" width="0.1524" layer="21"/>
<wire x1="0" y1="-0.635" x2="0" y2="0" width="0.1524" layer="21"/>
<wire x1="0.254" y1="0.635" x2="0" y2="0.635" width="0.1524" layer="21"/>
<wire x1="0" y1="0.635" x2="0" y2="0" width="0.1524" layer="21"/>
<pad name="1" x="-3.81" y="0" drill="1.1176" shape="octagon"/>
<pad name="2" x="3.81" y="0" drill="1.1176" shape="octagon"/>
<text x="-2.032" y="1.524" size="1.27" layer="25" ratio="10">&gt;NAME</text>
<text x="-2.032" y="-2.794" size="1.27" layer="27" ratio="10">&gt;VALUE</text>
<rectangle x1="2.032" y1="-0.381" x2="2.667" y2="0.381" layer="21"/>
<rectangle x1="-2.667" y1="-0.381" x2="-2.032" y2="0.381" layer="21"/>
</package>
</packages>
</library>
<library name="fuse">
<description>&lt;b&gt;Fuses and Fuse Holders&lt;/b&gt;&lt;p&gt;
&lt;author&gt;Created by librarian@cadsoft.de&lt;/author&gt;</description>
<packages>
<package name="FUSE_HOLDER_5X20MM">
<description>&lt;b&gt;Fuse Holder&lt;/b&gt; 5x20 mm&lt;p&gt;
Source: User LBR Version 2.05</description>
<wire x1="-2.54" y1="2.54" x2="-2.54" y2="-2.54" width="0.3048" layer="21"/>
<wire x1="1.016" y1="-3.556" x2="-2.032" y2="-3.556" width="0.3048" layer="21"/>
<wire x1="-2.032" y1="-3.556" x2="-2.032" y2="-2.54" width="0.3048" layer="21"/>
<wire x1="-2.032" y1="3.556" x2="1.016" y2="3.556" width="0.3048" layer="21"/>
<wire x1="-2.286" y1="-3.048" x2="-3.048" y2="-3.048" width="0.3048" layer="21"/>
<wire x1="-3.048" y1="-1.778" x2="-3.048" y2="-3.048" width="0.3048" layer="21"/>
<wire x1="13.716" y1="2.54" x2="13.716" y2="-2.54" width="0.3048" layer="21"/>
<wire x1="1.524" y1="2.54" x2="1.524" y2="-2.54" width="0.3048" layer="21"/>
<wire x1="1.524" y1="2.54" x2="13.716" y2="2.54" width="0.3048" layer="21"/>
<wire x1="1.524" y1="-2.54" x2="13.716" y2="-2.54" width="0.3048" layer="21"/>
<wire x1="-2.032" y1="-2.286" x2="1.016" y2="-2.286" width="0.3048" layer="21"/>
<wire x1="-2.032" y1="2.286" x2="1.016" y2="2.286" width="0.3048" layer="21"/>
<wire x1="1.524" y1="2.54" x2="1.016" y2="2.54" width="0.3048" layer="21"/>
<wire x1="1.016" y1="2.54" x2="1.016" y2="3.556" width="0.3048" layer="21"/>
<wire x1="1.016" y1="2.54" x2="1.016" y2="2.286" width="0.3048" layer="21"/>
<wire x1="-2.032" y1="2.286" x2="-2.032" y2="2.54" width="0.3048" layer="21"/>
<wire x1="-2.032" y1="2.54" x2="-2.032" y2="3.556" width="0.3048" layer="21"/>
<wire x1="-2.032" y1="2.54" x2="-2.54" y2="2.54" width="0.3048" layer="21"/>
<wire x1="-2.032" y1="-2.54" x2="-2.032" y2="-2.286" width="0.3048" layer="21"/>
<wire x1="-2.032" y1="-2.54" x2="-2.54" y2="-2.54" width="0.3048" layer="21"/>
<wire x1="1.524" y1="-2.54" x2="1.016" y2="-2.54" width="0.3048" layer="21"/>
<wire x1="1.016" y1="-2.54" x2="1.016" y2="-2.286" width="0.3048" layer="21"/>
<wire x1="1.016" y1="-2.54" x2="1.016" y2="-3.556" width="0.3048" layer="21"/>
<wire x1="17.78" y1="-2.54" x2="17.78" y2="2.54" width="0.3048" layer="21"/>
<wire x1="14.224" y1="3.556" x2="17.272" y2="3.556" width="0.3048" layer="21"/>
<wire x1="17.272" y1="3.556" x2="17.272" y2="2.54" width="0.3048" layer="21"/>
<wire x1="17.272" y1="-3.556" x2="14.224" y2="-3.556" width="0.3048" layer="21"/>
<wire x1="17.526" y1="3.048" x2="18.288" y2="3.048" width="0.3048" layer="21"/>
<wire x1="18.288" y1="1.778" x2="18.288" y2="3.048" width="0.3048" layer="21"/>
<wire x1="17.272" y1="2.286" x2="14.224" y2="2.286" width="0.3048" layer="21"/>
<wire x1="17.272" y1="-2.286" x2="14.224" y2="-2.286" width="0.3048" layer="21"/>
<wire x1="13.716" y1="-2.54" x2="14.224" y2="-2.54" width="0.3048" layer="21"/>
<wire x1="14.224" y1="-2.54" x2="14.224" y2="-3.556" width="0.3048" layer="21"/>
<wire x1="14.224" y1="-2.54" x2="14.224" y2="-2.286" width="0.3048" layer="21"/>
<wire x1="17.272" y1="-2.286" x2="17.272" y2="-2.54" width="0.3048" layer="21"/>
<wire x1="17.272" y1="-2.54" x2="17.272" y2="-3.556" width="0.3048" layer="21"/>
<wire x1="17.272" y1="-2.54" x2="17.78" y2="-2.54" width="0.3048" layer="21"/>
<wire x1="17.272" y1="2.54" x2="17.272" y2="2.286" width="0.3048" layer="21"/>
<wire x1="17.272" y1="2.54" x2="17.78" y2="2.54" width="0.3048" layer="21"/>
<wire x1="13.716" y1="2.54" x2="14.224" y2="2.54" width="0.3048" layer="21"/>
<wire x1="14.224" y1="2.54" x2="14.224" y2="2.286" width="0.3048" layer="21"/>
<wire x1="14.224" y1="2.54" x2="14.224" y2="3.556" width="0.3048" layer="21"/>
<pad name="1" x="0" y="0" drill="1.4224" diameter="2.286" shape="square"/>
<pad name="2" x="15.24" y="0" drill="1.4224" diameter="2.286" shape="square"/>
<text x="2.032" y="3.81" size="2.54" layer="25">&gt;NAME</text>
<text x="1.778" y="-5.842" size="2.54" layer="27">&gt;VALUE</text>
</package>
</packages>
</library>
<library name="con-ptr500">
<description>&lt;b&gt;PTR Connectors&lt;/b&gt;&lt;p&gt;
Aug. 2004 / PTR Meßtechnik:&lt;br&gt;
Die Bezeichnung der Serie AK505 wurde geändert.&lt;br&gt;
Es handelt sich hierbei um AK500 in horizontaler Ausführung.&lt;p&gt;
&lt;TABLE BORDER=0 CELLSPACING=1 CELLPADDING=2&gt;
  &lt;TR&gt;
    &lt;TD ALIGN=LEFT&gt;
      &lt;FONT SIZE=4 FACE=ARIAL&gt;&lt;B&gt;Alte Bezeichnung&lt;/B&gt;&lt;/FONT&gt;
    &lt;/TD&gt;
    &lt;TD ALIGN=LEFT&gt;
      &lt;FONT SIZE=4 FACE=ARIAL&gt;&lt;B&gt;Neue Bezeichnung&lt;/B&gt;&lt;/FONT&gt;
    &lt;/TD&gt;
  &lt;/TR&gt;
  &lt;TR&gt;
    &lt;TD ALIGN=LEFT&gt;
      &lt;B&gt;
      &lt;FONT SIZE=3 FACE=ARIAL color="#FF0000"&gt;AK505/2,grau&lt;/FONT&gt;
      &lt;/B&gt;
    &lt;/TD&gt;
    &lt;TD ALIGN=LEFT&gt;
      &lt;B&gt;
      &lt;FONT SIZE=3 FACE=ARIAL color="#0000FF"&gt;AK500/2-5.0-H-GRAU&lt;/FONT&gt;
      &lt;/B&gt;
    &lt;/TD&gt;
  &lt;/TR&gt;
  &lt;TR&gt;
    &lt;TD ALIGN=LEFT&gt;
      &lt;B&gt;
      &lt;FONT SIZE=3 FACE=ARIAL color="#FF0000"&gt;AK505/2DS,grau&lt;/FONT&gt;
      &lt;/B&gt;
    &lt;/TD&gt;
    &lt;TD ALIGN=LEFT&gt;
      &lt;B&gt;
      &lt;FONT SIZE=3 FACE=ARIAL color="#0000FF"&gt;AK500/2DS-5.0-H-GRAU&lt;/FONT&gt;
      &lt;/B&gt;
    &lt;/TD&gt;
  &lt;/TR&gt;
  &lt;TR&gt;
    &lt;TD ALIGN=LEFT&gt;
      &lt;B&gt;
      &lt;FONT SIZE=3 FACE=ARIAL color="#FF0000"&gt;AKZ505/2,grau&lt;/FONT&gt;
      &lt;/B&gt;
    &lt;/TD&gt;
    &lt;TD ALIGN=LEFT&gt;
      &lt;B&gt;
      &lt;FONT SIZE=3 FACE=ARIAL color="#0000FF"&gt;AKZ500/2-5.08-H-GRAU&lt;/FONT&gt;
      &lt;/B&gt;
    &lt;/TD&gt;
  &lt;/TABLE&gt;

&lt;author&gt;Created by librarian@cadsoft.de&lt;/author&gt;</description>
<packages>
<package name="AK500/6-H">
<description>&lt;b&gt;CONNECTOR&lt;/b&gt;&lt;p&gt;
Aug. 2004 / PTR Meßtechnik:&lt;br&gt;
Die Bezeichnung der Serie AK505 wurde geändert.&lt;br&gt;
Es handelt sich hierbei um AK500 in horizontaler Ausführung.</description>
<wire x1="-15.0876" y1="-7.239" x2="-15.0876" y2="-3.81" width="0.1524" layer="21"/>
<wire x1="15.0876" y1="2.794" x2="-15.0876" y2="2.794" width="0.1524" layer="21"/>
<wire x1="-15.0876" y1="-7.239" x2="-14.351" y2="-7.239" width="0.1524" layer="21"/>
<wire x1="15.0876" y1="2.794" x2="15.0876" y2="-3.429" width="0.1524" layer="21"/>
<wire x1="-15.0876" y1="-3.429" x2="15.0876" y2="-3.429" width="0.1524" layer="21"/>
<wire x1="-15.0876" y1="-3.429" x2="-15.0876" y2="2.794" width="0.1524" layer="21"/>
<wire x1="15.0876" y1="-3.429" x2="15.0876" y2="-3.81" width="0.1524" layer="21"/>
<wire x1="15.4686" y1="2.794" x2="15.4686" y2="-3.429" width="0.1524" layer="21"/>
<wire x1="15.4686" y1="-3.429" x2="15.0876" y2="-3.429" width="0.1524" layer="21"/>
<wire x1="15.4686" y1="2.794" x2="15.0876" y2="2.794" width="0.1524" layer="21"/>
<wire x1="-10.4902" y1="2.159" x2="-10.4902" y2="-2.794" width="0.1524" layer="21"/>
<wire x1="-14.5542" y1="-2.794" x2="-10.4902" y2="-2.794" width="0.1524" layer="21"/>
<wire x1="-14.5542" y1="-2.794" x2="-14.5542" y2="2.159" width="0.1524" layer="21"/>
<wire x1="-10.4902" y1="2.159" x2="-14.5542" y2="2.159" width="0.1524" layer="21"/>
<wire x1="-9.5504" y1="2.159" x2="-9.5504" y2="-2.794" width="0.1524" layer="21"/>
<wire x1="-9.5504" y1="-2.794" x2="-5.4864" y2="-2.794" width="0.1524" layer="21"/>
<wire x1="-5.4864" y1="-2.794" x2="-5.4864" y2="2.159" width="0.1524" layer="21"/>
<wire x1="-5.4864" y1="2.159" x2="-9.5504" y2="2.159" width="0.1524" layer="21"/>
<wire x1="-5.2324" y1="-3.048" x2="-9.8044" y2="-3.048" width="0.0508" layer="21"/>
<wire x1="-5.2324" y1="-3.048" x2="-5.2324" y2="2.413" width="0.0508" layer="21"/>
<wire x1="-9.8044" y1="2.413" x2="-5.2324" y2="2.413" width="0.0508" layer="21"/>
<wire x1="-9.8044" y1="2.413" x2="-9.8044" y2="-3.048" width="0.0508" layer="21"/>
<wire x1="-10.2362" y1="2.413" x2="-10.2362" y2="-3.048" width="0.0508" layer="21"/>
<wire x1="-14.8082" y1="2.413" x2="-10.2362" y2="2.413" width="0.0508" layer="21"/>
<wire x1="-14.8082" y1="2.413" x2="-14.8082" y2="-3.048" width="0.0508" layer="21"/>
<wire x1="-10.2362" y1="-3.048" x2="-14.8082" y2="-3.048" width="0.0508" layer="21"/>
<wire x1="-14.5542" y1="0" x2="-10.4902" y2="0" width="0.1524" layer="21" curve="-180"/>
<wire x1="-14.5542" y1="-2.413" x2="-14.3002" y2="-2.667" width="0.1524" layer="21" curve="90"/>
<wire x1="-10.7442" y1="-2.667" x2="-10.4902" y2="-2.413" width="0.1524" layer="21" curve="90"/>
<wire x1="-10.7442" y1="-2.667" x2="-14.3002" y2="-2.667" width="0.1524" layer="21"/>
<wire x1="-11.3792" y1="-2.413" x2="-11.1252" y2="-2.667" width="0.1524" layer="21" curve="90"/>
<wire x1="-13.9192" y1="-2.667" x2="-13.6652" y2="-2.413" width="0.1524" layer="21" curve="90"/>
<wire x1="-13.6652" y1="-0.127" x2="-13.6652" y2="-0.762" width="0.1524" layer="51"/>
<wire x1="-13.6652" y1="-0.127" x2="-11.3792" y2="-0.127" width="0.1524" layer="51"/>
<wire x1="-11.3792" y1="-0.127" x2="-11.3792" y2="-0.762" width="0.1524" layer="51"/>
<wire x1="-13.6652" y1="-0.762" x2="-11.3792" y2="-0.762" width="0.1524" layer="51"/>
<wire x1="-13.6652" y1="-0.762" x2="-13.6652" y2="-2.413" width="0.1524" layer="21"/>
<wire x1="-11.3792" y1="-0.762" x2="-11.3792" y2="-2.413" width="0.1524" layer="21"/>
<wire x1="15.0876" y1="-3.81" x2="-15.0876" y2="-3.81" width="0.0508" layer="21"/>
<wire x1="-15.0876" y1="-3.81" x2="-15.0876" y2="-3.429" width="0.1524" layer="21"/>
<wire x1="15.0876" y1="-3.81" x2="15.0876" y2="-7.239" width="0.1524" layer="21"/>
<wire x1="-9.5504" y1="0" x2="-5.4864" y2="0" width="0.1524" layer="21" curve="-180"/>
<wire x1="-8.6614" y1="-0.127" x2="-6.3754" y2="-0.127" width="0.1524" layer="51"/>
<wire x1="-8.6614" y1="-0.127" x2="-8.6614" y2="-0.762" width="0.1524" layer="51"/>
<wire x1="-8.6614" y1="-0.762" x2="-6.3754" y2="-0.762" width="0.1524" layer="51"/>
<wire x1="-8.6614" y1="-0.762" x2="-8.6614" y2="-2.413" width="0.1524" layer="21"/>
<wire x1="-6.3754" y1="-0.762" x2="-6.3754" y2="-2.413" width="0.1524" layer="21"/>
<wire x1="-6.3754" y1="-0.127" x2="-6.3754" y2="-0.762" width="0.1524" layer="51"/>
<wire x1="-8.9154" y1="-2.667" x2="-8.6614" y2="-2.413" width="0.1524" layer="21" curve="90"/>
<wire x1="-6.3754" y1="-2.413" x2="-6.1214" y2="-2.667" width="0.1524" layer="21" curve="90"/>
<wire x1="-5.7404" y1="-2.667" x2="-9.2964" y2="-2.667" width="0.1524" layer="21"/>
<wire x1="-5.7404" y1="-2.667" x2="-5.4864" y2="-2.413" width="0.1524" layer="21" curve="90"/>
<wire x1="-9.5504" y1="-2.413" x2="-9.2964" y2="-2.667" width="0.1524" layer="21" curve="90"/>
<wire x1="-10.795" y1="-7.366" x2="-10.795" y2="-7.239" width="0.1524" layer="21"/>
<wire x1="-10.795" y1="-7.239" x2="-9.271" y2="-7.239" width="0.1524" layer="21"/>
<wire x1="-14.351" y1="-7.366" x2="-14.351" y2="-7.239" width="0.1524" layer="21"/>
<wire x1="-14.351" y1="-7.239" x2="-12.827" y2="-7.239" width="0.1524" layer="21"/>
<wire x1="-14.351" y1="-7.366" x2="-12.827" y2="-7.366" width="0.1524" layer="21"/>
<wire x1="-12.827" y1="-7.239" x2="-12.827" y2="-7.366" width="0.1524" layer="21"/>
<wire x1="-12.827" y1="-7.239" x2="-12.319" y2="-7.239" width="0.1524" layer="21"/>
<wire x1="-12.319" y1="-7.239" x2="-10.795" y2="-7.239" width="0.1524" layer="21"/>
<wire x1="-12.319" y1="-7.366" x2="-12.319" y2="-7.239" width="0.1524" layer="21"/>
<wire x1="-12.319" y1="-7.366" x2="-10.795" y2="-7.366" width="0.1524" layer="21"/>
<wire x1="-7.747" y1="-7.239" x2="-7.747" y2="-7.366" width="0.1524" layer="21"/>
<wire x1="-7.747" y1="-7.239" x2="-7.239" y2="-7.239" width="0.1524" layer="21"/>
<wire x1="-9.271" y1="-7.366" x2="-7.747" y2="-7.366" width="0.1524" layer="21"/>
<wire x1="-7.239" y1="-7.366" x2="-7.239" y2="-7.239" width="0.1524" layer="21"/>
<wire x1="-7.239" y1="-7.239" x2="-5.715" y2="-7.239" width="0.1524" layer="21"/>
<wire x1="-7.239" y1="-7.366" x2="-5.715" y2="-7.366" width="0.1524" layer="21"/>
<wire x1="-5.715" y1="-7.366" x2="-5.715" y2="-7.239" width="0.1524" layer="21"/>
<wire x1="-9.271" y1="-7.366" x2="-9.271" y2="-7.239" width="0.1524" layer="21"/>
<wire x1="-9.271" y1="-7.239" x2="-7.747" y2="-7.239" width="0.1524" layer="21"/>
<wire x1="-0.4826" y1="2.159" x2="-0.4826" y2="-2.794" width="0.1524" layer="21"/>
<wire x1="-4.5466" y1="-2.794" x2="-0.4826" y2="-2.794" width="0.1524" layer="21"/>
<wire x1="-4.5466" y1="-2.794" x2="-4.5466" y2="2.159" width="0.1524" layer="21"/>
<wire x1="-0.4826" y1="2.159" x2="-4.5466" y2="2.159" width="0.1524" layer="21"/>
<wire x1="-0.2286" y1="2.413" x2="-0.2286" y2="-3.048" width="0.0508" layer="21"/>
<wire x1="-4.8006" y1="2.413" x2="-0.2286" y2="2.413" width="0.0508" layer="21"/>
<wire x1="-4.8006" y1="2.413" x2="-4.8006" y2="-3.048" width="0.0508" layer="21"/>
<wire x1="-0.2286" y1="-3.048" x2="-4.8006" y2="-3.048" width="0.0508" layer="21"/>
<wire x1="-4.5466" y1="0" x2="-0.4826" y2="0" width="0.1524" layer="21" curve="-180"/>
<wire x1="-4.5466" y1="-2.413" x2="-4.2926" y2="-2.667" width="0.1524" layer="21" curve="90"/>
<wire x1="-0.7366" y1="-2.667" x2="-0.4826" y2="-2.413" width="0.1524" layer="21" curve="90"/>
<wire x1="-0.7366" y1="-2.667" x2="-4.2926" y2="-2.667" width="0.1524" layer="21"/>
<wire x1="-1.3716" y1="-2.413" x2="-1.1176" y2="-2.667" width="0.1524" layer="21" curve="90"/>
<wire x1="-3.9116" y1="-2.667" x2="-3.6576" y2="-2.413" width="0.1524" layer="21" curve="90"/>
<wire x1="-3.6576" y1="-0.127" x2="-3.6576" y2="-0.762" width="0.1524" layer="51"/>
<wire x1="-3.6576" y1="-0.127" x2="-1.3716" y2="-0.127" width="0.1524" layer="51"/>
<wire x1="-1.3716" y1="-0.127" x2="-1.3716" y2="-0.762" width="0.1524" layer="51"/>
<wire x1="-3.6576" y1="-0.762" x2="-1.3716" y2="-0.762" width="0.1524" layer="51"/>
<wire x1="-3.6576" y1="-0.762" x2="-3.6576" y2="-2.413" width="0.1524" layer="21"/>
<wire x1="-1.3716" y1="-0.762" x2="-1.3716" y2="-2.413" width="0.1524" layer="21"/>
<wire x1="-0.7874" y1="-7.366" x2="-0.7874" y2="-7.239" width="0.1524" layer="21"/>
<wire x1="-4.3434" y1="-7.366" x2="-2.8194" y2="-7.366" width="0.1524" layer="21"/>
<wire x1="-2.3114" y1="-7.366" x2="-0.7874" y2="-7.366" width="0.1524" layer="21"/>
<wire x1="-4.3434" y1="-7.239" x2="-4.3434" y2="-7.366" width="0.1524" layer="21"/>
<wire x1="-4.3434" y1="-7.239" x2="-5.715" y2="-7.239" width="0.1524" layer="21"/>
<wire x1="-4.3434" y1="-7.239" x2="-2.8194" y2="-7.239" width="0.1524" layer="21"/>
<wire x1="-2.8194" y1="-7.239" x2="-2.8194" y2="-7.366" width="0.1524" layer="21"/>
<wire x1="-2.8194" y1="-7.239" x2="-2.3114" y2="-7.239" width="0.1524" layer="21"/>
<wire x1="-2.3114" y1="-7.239" x2="-2.3114" y2="-7.366" width="0.1524" layer="21"/>
<wire x1="-2.3114" y1="-7.239" x2="-0.7874" y2="-7.239" width="0.1524" layer="21"/>
<wire x1="15.0876" y1="-7.239" x2="14.2494" y2="-7.239" width="0.1524" layer="21"/>
<wire x1="4.5466" y1="2.159" x2="4.5466" y2="-2.794" width="0.1524" layer="21"/>
<wire x1="0.4826" y1="-2.794" x2="4.5466" y2="-2.794" width="0.1524" layer="21"/>
<wire x1="0.4826" y1="-2.794" x2="0.4826" y2="2.159" width="0.1524" layer="21"/>
<wire x1="4.5466" y1="2.159" x2="0.4826" y2="2.159" width="0.1524" layer="21"/>
<wire x1="4.8006" y1="2.413" x2="4.8006" y2="-3.048" width="0.0508" layer="21"/>
<wire x1="0.2286" y1="2.413" x2="4.8006" y2="2.413" width="0.0508" layer="21"/>
<wire x1="0.2286" y1="2.413" x2="0.2286" y2="-3.048" width="0.0508" layer="21"/>
<wire x1="4.8006" y1="-3.048" x2="0.2286" y2="-3.048" width="0.0508" layer="21"/>
<wire x1="0.4826" y1="0" x2="4.5466" y2="0" width="0.1524" layer="21" curve="-180"/>
<wire x1="0.4826" y1="-2.413" x2="0.7366" y2="-2.667" width="0.1524" layer="21" curve="90"/>
<wire x1="4.2926" y1="-2.667" x2="4.5466" y2="-2.413" width="0.1524" layer="21" curve="90"/>
<wire x1="4.2926" y1="-2.667" x2="0.7366" y2="-2.667" width="0.1524" layer="21"/>
<wire x1="3.6576" y1="-2.413" x2="3.9116" y2="-2.667" width="0.1524" layer="21" curve="90"/>
<wire x1="1.1176" y1="-2.667" x2="1.3716" y2="-2.413" width="0.1524" layer="21" curve="90"/>
<wire x1="1.3716" y1="-0.127" x2="1.3716" y2="-0.762" width="0.1524" layer="51"/>
<wire x1="1.3716" y1="-0.127" x2="3.6576" y2="-0.127" width="0.1524" layer="51"/>
<wire x1="3.6576" y1="-0.127" x2="3.6576" y2="-0.762" width="0.1524" layer="51"/>
<wire x1="1.3716" y1="-0.762" x2="3.6576" y2="-0.762" width="0.1524" layer="51"/>
<wire x1="1.3716" y1="-0.762" x2="1.3716" y2="-2.413" width="0.1524" layer="21"/>
<wire x1="3.6576" y1="-0.762" x2="3.6576" y2="-2.413" width="0.1524" layer="21"/>
<wire x1="4.2418" y1="-7.366" x2="4.2418" y2="-7.239" width="0.1524" layer="21"/>
<wire x1="0.6858" y1="-7.366" x2="2.2098" y2="-7.366" width="0.1524" layer="21"/>
<wire x1="2.7178" y1="-7.366" x2="4.2418" y2="-7.366" width="0.1524" layer="21"/>
<wire x1="0.6858" y1="-7.239" x2="0.6858" y2="-7.366" width="0.1524" layer="21"/>
<wire x1="0.6858" y1="-7.239" x2="-0.6858" y2="-7.239" width="0.1524" layer="21"/>
<wire x1="0.6858" y1="-7.239" x2="2.2098" y2="-7.239" width="0.1524" layer="21"/>
<wire x1="2.2098" y1="-7.239" x2="2.2098" y2="-7.366" width="0.1524" layer="21"/>
<wire x1="2.2098" y1="-7.239" x2="2.7178" y2="-7.239" width="0.1524" layer="21"/>
<wire x1="2.7178" y1="-7.239" x2="2.7178" y2="-7.366" width="0.1524" layer="21"/>
<wire x1="9.5504" y1="2.159" x2="9.5504" y2="-2.794" width="0.1524" layer="21"/>
<wire x1="5.4864" y1="-2.794" x2="9.5504" y2="-2.794" width="0.1524" layer="21"/>
<wire x1="5.4864" y1="-2.794" x2="5.4864" y2="2.159" width="0.1524" layer="21"/>
<wire x1="9.5504" y1="2.159" x2="5.4864" y2="2.159" width="0.1524" layer="21"/>
<wire x1="9.8044" y1="2.413" x2="9.8044" y2="-3.048" width="0.0508" layer="21"/>
<wire x1="5.2324" y1="2.413" x2="9.8044" y2="2.413" width="0.0508" layer="21"/>
<wire x1="5.2324" y1="2.413" x2="5.2324" y2="-3.048" width="0.0508" layer="21"/>
<wire x1="9.8044" y1="-3.048" x2="5.2324" y2="-3.048" width="0.0508" layer="21"/>
<wire x1="5.4864" y1="0" x2="9.5504" y2="0" width="0.1524" layer="21" curve="-180"/>
<wire x1="5.4864" y1="-2.413" x2="5.7404" y2="-2.667" width="0.1524" layer="21" curve="90"/>
<wire x1="9.2964" y1="-2.667" x2="9.5504" y2="-2.413" width="0.1524" layer="21" curve="90"/>
<wire x1="9.2964" y1="-2.667" x2="5.7404" y2="-2.667" width="0.1524" layer="21"/>
<wire x1="8.6614" y1="-2.413" x2="8.9154" y2="-2.667" width="0.1524" layer="21" curve="90"/>
<wire x1="6.1214" y1="-2.667" x2="6.3754" y2="-2.413" width="0.1524" layer="21" curve="90"/>
<wire x1="6.3754" y1="-0.127" x2="6.3754" y2="-0.762" width="0.1524" layer="51"/>
<wire x1="6.3754" y1="-0.127" x2="8.6614" y2="-0.127" width="0.1524" layer="51"/>
<wire x1="8.6614" y1="-0.127" x2="8.6614" y2="-0.762" width="0.1524" layer="51"/>
<wire x1="6.3754" y1="-0.762" x2="8.6614" y2="-0.762" width="0.1524" layer="51"/>
<wire x1="6.3754" y1="-0.762" x2="6.3754" y2="-2.413" width="0.1524" layer="21"/>
<wire x1="8.6614" y1="-0.762" x2="8.6614" y2="-2.413" width="0.1524" layer="21"/>
<wire x1="9.2456" y1="-7.366" x2="9.2456" y2="-7.239" width="0.1524" layer="21"/>
<wire x1="5.6896" y1="-7.366" x2="5.6896" y2="-7.239" width="0.1524" layer="21"/>
<wire x1="5.6896" y1="-7.366" x2="7.2136" y2="-7.366" width="0.1524" layer="21"/>
<wire x1="7.2136" y1="-7.239" x2="7.2136" y2="-7.366" width="0.1524" layer="21"/>
<wire x1="7.7216" y1="-7.366" x2="7.7216" y2="-7.239" width="0.1524" layer="21"/>
<wire x1="7.7216" y1="-7.366" x2="9.2456" y2="-7.366" width="0.1524" layer="21"/>
<wire x1="5.6896" y1="-7.239" x2="4.2418" y2="-7.239" width="0.1524" layer="21"/>
<wire x1="7.7216" y1="-7.239" x2="7.2136" y2="-7.239" width="0.1524" layer="21"/>
<wire x1="7.2136" y1="-7.239" x2="5.6896" y2="-7.239" width="0.1524" layer="21"/>
<wire x1="9.2456" y1="-7.239" x2="7.7216" y2="-7.239" width="0.1524" layer="21"/>
<wire x1="2.7178" y1="-7.239" x2="-0.7874" y2="-7.239" width="0.1524" layer="21"/>
<wire x1="4.2418" y1="-7.239" x2="2.7178" y2="-7.239" width="0.1524" layer="21"/>
<wire x1="14.5542" y1="2.159" x2="14.5542" y2="-2.794" width="0.1524" layer="21"/>
<wire x1="10.4902" y1="-2.794" x2="14.5542" y2="-2.794" width="0.1524" layer="21"/>
<wire x1="10.4902" y1="-2.794" x2="10.4902" y2="2.159" width="0.1524" layer="21"/>
<wire x1="14.5542" y1="2.159" x2="10.4902" y2="2.159" width="0.1524" layer="21"/>
<wire x1="14.8082" y1="2.413" x2="14.8082" y2="-3.048" width="0.0508" layer="21"/>
<wire x1="10.2362" y1="2.413" x2="14.8082" y2="2.413" width="0.0508" layer="21"/>
<wire x1="10.2362" y1="2.413" x2="10.2362" y2="-3.048" width="0.0508" layer="21"/>
<wire x1="14.8082" y1="-3.048" x2="10.2362" y2="-3.048" width="0.0508" layer="21"/>
<wire x1="10.4902" y1="0" x2="14.5542" y2="0" width="0.1524" layer="21" curve="-180"/>
<wire x1="10.4902" y1="-2.413" x2="10.7442" y2="-2.667" width="0.1524" layer="21" curve="90"/>
<wire x1="14.3002" y1="-2.667" x2="14.5542" y2="-2.413" width="0.1524" layer="21" curve="90"/>
<wire x1="14.3002" y1="-2.667" x2="10.7442" y2="-2.667" width="0.1524" layer="21"/>
<wire x1="13.6652" y1="-2.413" x2="13.9192" y2="-2.667" width="0.1524" layer="21" curve="90"/>
<wire x1="11.1252" y1="-2.667" x2="11.3792" y2="-2.413" width="0.1524" layer="21" curve="90"/>
<wire x1="11.3792" y1="-0.127" x2="11.3792" y2="-0.762" width="0.1524" layer="51"/>
<wire x1="11.3792" y1="-0.127" x2="13.6652" y2="-0.127" width="0.1524" layer="51"/>
<wire x1="13.6652" y1="-0.127" x2="13.6652" y2="-0.762" width="0.1524" layer="51"/>
<wire x1="11.3792" y1="-0.762" x2="13.6652" y2="-0.762" width="0.1524" layer="51"/>
<wire x1="11.3792" y1="-0.762" x2="11.3792" y2="-2.413" width="0.1524" layer="21"/>
<wire x1="13.6652" y1="-0.762" x2="13.6652" y2="-2.413" width="0.1524" layer="21"/>
<wire x1="14.2494" y1="-7.366" x2="14.2494" y2="-7.239" width="0.1524" layer="21"/>
<wire x1="10.6934" y1="-7.366" x2="10.6934" y2="-7.239" width="0.1524" layer="21"/>
<wire x1="10.6934" y1="-7.366" x2="12.2174" y2="-7.366" width="0.1524" layer="21"/>
<wire x1="12.2174" y1="-7.239" x2="12.2174" y2="-7.366" width="0.1524" layer="21"/>
<wire x1="12.7254" y1="-7.366" x2="12.7254" y2="-7.239" width="0.1524" layer="21"/>
<wire x1="12.7254" y1="-7.366" x2="14.2494" y2="-7.366" width="0.1524" layer="21"/>
<wire x1="14.2494" y1="-7.239" x2="12.7254" y2="-7.239" width="0.1524" layer="21"/>
<wire x1="12.7254" y1="-7.239" x2="12.2174" y2="-7.239" width="0.1524" layer="21"/>
<wire x1="12.2174" y1="-7.239" x2="10.6934" y2="-7.239" width="0.1524" layer="21"/>
<wire x1="10.6934" y1="-7.239" x2="9.2456" y2="-7.239" width="0.1524" layer="21"/>
<circle x="-12.5222" y="0" radius="1.397" width="0.1524" layer="51"/>
<circle x="-7.5184" y="0" radius="1.397" width="0.1524" layer="51"/>
<circle x="-2.5146" y="0" radius="1.397" width="0.1524" layer="51"/>
<circle x="2.5146" y="0" radius="1.397" width="0.1524" layer="51"/>
<circle x="7.5184" y="0" radius="1.397" width="0.1524" layer="51"/>
<circle x="12.5222" y="0" radius="1.397" width="0.1524" layer="51"/>
<pad name="1" x="-12.5222" y="0" drill="1.3208" shape="long" rot="R90"/>
<pad name="2" x="-7.5184" y="0" drill="1.3208" shape="long" rot="R90"/>
<pad name="3" x="-2.5146" y="0" drill="1.3208" shape="long" rot="R90"/>
<pad name="4" x="2.5146" y="0" drill="1.3208" shape="long" rot="R90"/>
<pad name="5" x="7.5184" y="0" drill="1.3208" shape="long" rot="R90"/>
<pad name="6" x="12.5222" y="0" drill="1.3208" shape="long" rot="R90"/>
<text x="-15.0622" y="3.556" size="1.778" layer="25" ratio="10">&gt;NAME</text>
<text x="-15.0622" y="-9.525" size="1.778" layer="27" ratio="10">&gt;VALUE</text>
<text x="-13.208" y="-5.715" size="1.27" layer="21" ratio="10">1</text>
<text x="-8.128" y="-5.715" size="1.27" layer="21" ratio="10">2</text>
<text x="-3.2004" y="-5.715" size="1.27" layer="21" ratio="10">3</text>
<text x="1.8288" y="-5.715" size="1.27" layer="21" ratio="10">4</text>
<text x="6.8326" y="-5.715" size="1.27" layer="21" ratio="10">5</text>
<text x="11.8364" y="-5.715" size="1.27" layer="21" ratio="10">6</text>
<rectangle x1="-13.6652" y1="-1.524" x2="-11.3792" y2="-0.762" layer="51"/>
<rectangle x1="-8.6614" y1="-1.524" x2="-6.3754" y2="-0.762" layer="51"/>
<rectangle x1="-13.6652" y1="-2.667" x2="-11.3792" y2="-1.524" layer="21"/>
<rectangle x1="-8.6614" y1="-2.667" x2="-6.3754" y2="-1.524" layer="21"/>
<rectangle x1="-3.6576" y1="-1.524" x2="-1.3716" y2="-0.762" layer="51"/>
<rectangle x1="-3.6576" y1="-2.667" x2="-1.3716" y2="-1.524" layer="21"/>
<rectangle x1="1.3716" y1="-1.524" x2="3.6576" y2="-0.762" layer="51"/>
<rectangle x1="1.3716" y1="-2.667" x2="3.6576" y2="-1.524" layer="21"/>
<rectangle x1="6.3754" y1="-1.524" x2="8.6614" y2="-0.762" layer="51"/>
<rectangle x1="6.3754" y1="-2.667" x2="8.6614" y2="-1.524" layer="21"/>
<rectangle x1="11.3792" y1="-1.524" x2="13.6652" y2="-0.762" layer="51"/>
<rectangle x1="11.3792" y1="-2.667" x2="13.6652" y2="-1.524" layer="21"/>
</package>
</packages>
</library>
</libraries>
<attributes>
</attributes>
<variantdefs>
</variantdefs>
<classes>
<class number="0" name="default" width="0" drill="0">
</class>
</classes>
<designrules name="default *">
<description language="de">&lt;b&gt;EAGLE Design Rules&lt;/b&gt;
&lt;p&gt;
Die Standard-Design-Rules sind so gewählt, dass sie für 
die meisten Anwendungen passen. Sollte ihre Platine 
besondere Anforderungen haben, treffen Sie die erforderlichen
Einstellungen hier und speichern die Design Rules unter 
einem neuen Namen ab.</description>
<description language="en">&lt;b&gt;EAGLE Design Rules&lt;/b&gt;
&lt;p&gt;
The default Design Rules have been set to cover
a wide range of applications. Your particular design
may have different requirements, so please make the
necessary adjustments and save your customized
design rules under a new name.</description>
<param name="layerSetup" value="(1*16)"/>
<param name="mtCopper" value="0.035mm 0.035mm 0.035mm 0.035mm 0.035mm 0.035mm 0.035mm 0.035mm 0.035mm 0.035mm 0.035mm 0.035mm 0.035mm 0.035mm 0.035mm 0.035mm"/>
<param name="mtIsolate" value="1.5mm 0.15mm 0.2mm 0.15mm 0.2mm 0.15mm 0.2mm 0.15mm 0.2mm 0.15mm 0.2mm 0.15mm 0.2mm 0.15mm 0.2mm"/>
<param name="mdWireWire" value="8mil"/>
<param name="mdWirePad" value="8mil"/>
<param name="mdWireVia" value="8mil"/>
<param name="mdPadPad" value="8mil"/>
<param name="mdPadVia" value="8mil"/>
<param name="mdViaVia" value="8mil"/>
<param name="mdSmdPad" value="8mil"/>
<param name="mdSmdVia" value="8mil"/>
<param name="mdSmdSmd" value="8mil"/>
<param name="mdViaViaSameLayer" value="8mil"/>
<param name="mnLayersViaInSmd" value="2"/>
<param name="mdCopperDimension" value="40mil"/>
<param name="mdDrill" value="8mil"/>
<param name="mdSmdStop" value="0mil"/>
<param name="msWidth" value="56mil"/>
<param name="msDrill" value="24mil"/>
<param name="msMicroVia" value="9.99mm"/>
<param name="msBlindViaRatio" value="0.5"/>
<param name="rvPadTop" value="0.25"/>
<param name="rvPadInner" value="0.25"/>
<param name="rvPadBottom" value="0.25"/>
<param name="rvViaOuter" value="0.25"/>
<param name="rvViaInner" value="0.25"/>
<param name="rvMicroViaOuter" value="0.25"/>
<param name="rvMicroViaInner" value="0.25"/>
<param name="rlMinPadTop" value="10mil"/>
<param name="rlMaxPadTop" value="20mil"/>
<param name="rlMinPadInner" value="10mil"/>
<param name="rlMaxPadInner" value="20mil"/>
<param name="rlMinPadBottom" value="10mil"/>
<param name="rlMaxPadBottom" value="20mil"/>
<param name="rlMinViaOuter" value="8mil"/>
<param name="rlMaxViaOuter" value="20mil"/>
<param name="rlMinViaInner" value="8mil"/>
<param name="rlMaxViaInner" value="20mil"/>
<param name="rlMinMicroViaOuter" value="4mil"/>
<param name="rlMaxMicroViaOuter" value="20mil"/>
<param name="rlMinMicroViaInner" value="4mil"/>
<param name="rlMaxMicroViaInner" value="20mil"/>
<param name="psTop" value="-1"/>
<param name="psBottom" value="-1"/>
<param name="psFirst" value="-1"/>
<param name="psElongationLong" value="100"/>
<param name="psElongationOffset" value="100"/>
<param name="mvStopFrame" value="1"/>
<param name="mvCreamFrame" value="0"/>
<param name="mlMinStopFrame" value="4mil"/>
<param name="mlMaxStopFrame" value="4mil"/>
<param name="mlMinCreamFrame" value="0mil"/>
<param name="mlMaxCreamFrame" value="0mil"/>
<param name="mlViaStopLimit" value="0mil"/>
<param name="srRoundness" value="0"/>
<param name="srMinRoundness" value="0mil"/>
<param name="srMaxRoundness" value="0mil"/>
<param name="slThermalIsolate" value="10mil"/>
<param name="slThermalsForVias" value="0"/>
<param name="dpMaxLengthDifference" value="10mm"/>
<param name="dpGapFactor" value="2.5"/>
<param name="checkGrid" value="0"/>
<param name="checkAngle" value="0"/>
<param name="checkFont" value="1"/>
<param name="checkRestrict" value="1"/>
<param name="useDiameter" value="13"/>
<param name="maxErrors" value="50"/>
</designrules>
<autorouter>
<pass name="Default">
<param name="RoutingGrid" value="50mil"/>
<param name="tpViaShape" value="round"/>
<param name="PrefDir.1" value="0"/>
<param name="PrefDir.2" value="0"/>
<param name="PrefDir.3" value="0"/>
<param name="PrefDir.4" value="0"/>
<param name="PrefDir.5" value="0"/>
<param name="PrefDir.6" value="0"/>
<param name="PrefDir.7" value="0"/>
<param name="PrefDir.8" value="0"/>
<param name="PrefDir.9" value="0"/>
<param name="PrefDir.10" value="0"/>
<param name="PrefDir.11" value="0"/>
<param name="PrefDir.12" value="0"/>
<param name="PrefDir.13" value="0"/>
<param name="PrefDir.14" value="0"/>
<param name="PrefDir.15" value="0"/>
<param name="PrefDir.16" value="-"/>
<param name="cfVia" value="8"/>
<param name="cfNonPref" value="5"/>
<param name="cfChangeDir" value="2"/>
<param name="cfOrthStep" value="2"/>
<param name="cfDiagStep" value="3"/>
<param name="cfExtdStep" value="0"/>
<param name="cfBonusStep" value="1"/>
<param name="cfMalusStep" value="1"/>
<param name="cfPadImpact" value="4"/>
<param name="cfSmdImpact" value="4"/>
<param name="cfBusImpact" value="0"/>
<param name="cfHugging" value="3"/>
<param name="cfAvoid" value="4"/>
<param name="cfPolygon" value="10"/>
<param name="cfBase.1" value="0"/>
<param name="cfBase.2" value="1"/>
<param name="cfBase.3" value="1"/>
<param name="cfBase.4" value="1"/>
<param name="cfBase.5" value="1"/>
<param name="cfBase.6" value="1"/>
<param name="cfBase.7" value="1"/>
<param name="cfBase.8" value="1"/>
<param name="cfBase.9" value="1"/>
<param name="cfBase.10" value="1"/>
<param name="cfBase.11" value="1"/>
<param name="cfBase.12" value="1"/>
<param name="cfBase.13" value="1"/>
<param name="cfBase.14" value="1"/>
<param name="cfBase.15" value="1"/>
<param name="cfBase.16" value="0"/>
<param name="mnVias" value="20"/>
<param name="mnSegments" value="9999"/>
<param name="mnExtdSteps" value="9999"/>
<param name="mnRipupLevel" value="10"/>
<param name="mnRipupSteps" value="100"/>
<param name="mnRipupTotal" value="100"/>
</pass>
<pass name="Follow-me" refer="Default" active="yes">
</pass>
<pass name="Busses" refer="Default" active="yes">
<param name="cfNonPref" value="4"/>
<param name="cfBusImpact" value="4"/>
<param name="cfHugging" value="0"/>
<param name="mnVias" value="0"/>
</pass>
<pass name="Route" refer="Default" active="yes">
</pass>
<pass name="Optimize1" refer="Default" active="yes">
<param name="cfVia" value="99"/>
<param name="cfExtdStep" value="10"/>
<param name="cfHugging" value="1"/>
<param name="mnExtdSteps" value="1"/>
<param name="mnRipupLevel" value="0"/>
</pass>
<pass name="Optimize2" refer="Optimize1" active="yes">
<param name="cfNonPref" value="0"/>
<param name="cfChangeDir" value="6"/>
<param name="cfExtdStep" value="0"/>
<param name="cfBonusStep" value="2"/>
<param name="cfMalusStep" value="2"/>
<param name="cfPadImpact" value="2"/>
<param name="cfSmdImpact" value="2"/>
<param name="cfHugging" value="0"/>
</pass>
<pass name="Optimize3" refer="Optimize2" active="yes">
<param name="cfChangeDir" value="8"/>
<param name="cfPadImpact" value="0"/>
<param name="cfSmdImpact" value="0"/>
</pass>
<pass name="Optimize4" refer="Optimize3" active="yes">
<param name="cfChangeDir" value="25"/>
</pass>
</autorouter>
<elements>
<element name="C3" library="resistor" package="C050-045X075" value="100n" x="46.355" y="18.415"/>
<element name="C2" library="resistor" package="C050-045X075" value="100n" x="38.1" y="18.415" rot="R180"/>
<element name="C1" library="resistor" package="C050-045X075" value="100n" x="47.625" y="7.62" rot="R180"/>
<element name="P1" library="resistor" package="RTRIM3339P" value="150k-220k" x="38.735" y="6.985"/>
<element name="P2" library="resistor" package="RTRIM64W" value="330k-500k/n" x="27.305" y="5.715" rot="R90"/>
<element name="R1" library="resistor" package="0204/7" value="120k" x="27.305" y="14.605"/>
<element name="R2" library="resistor" package="0204/7" value="10k" x="27.305" y="11.43"/>
<element name="R3" library="resistor" package="0411/15" value="100" x="41.275" y="13.335" rot="R180"/>
<element name="T2" library="triac" package="TO220AB" value="BT136" x="31.115" y="27.305" rot="R270"/>
<element name="T1" library="diode" package="GT32" value="" x="28.575" y="18.415"/>
<element name="POISTKA" library="fuse" package="FUSE_HOLDER_5X20MM" value="FUSEBLANK_5X20MM" x="18.415" y="12.065" rot="R90">
<attribute name="OC_NEWARK" value="unknown" x="48.895" y="67.945" size="1.778" layer="27" rot="R90" display="off"/>
<attribute name="MPN" value="" x="48.895" y="67.945" size="1.778" layer="27" rot="R90" display="off"/>
<attribute name="MF" value="" x="48.895" y="67.945" size="1.778" layer="27" rot="R90" display="off"/>
<attribute name="OC_FARNELL" value="unknown" x="48.895" y="67.945" size="1.778" layer="27" rot="R90" display="off"/>
</element>
<element name="X2" library="con-ptr500" package="AK500/6-H" value="" x="10.16" y="19.685" rot="R270"/>
</elements>
<signals>
<signal name="FAZA">
<contactref element="T2" pad="1"/>
<contactref element="C3" pad="1"/>
<contactref element="C2" pad="1"/>
<contactref element="C1" pad="1"/>
<contactref element="X2" pad="3"/>
<wire x1="24.765" y1="29.845" x2="24.13" y2="30.48" width="1.4224" layer="16"/>
<wire x1="24.765" y1="29.845" x2="25.4" y2="30.48" width="1.4224" layer="16"/>
<wire x1="25.4" y1="30.48" x2="25.4" y2="35.56" width="1.4224" layer="16"/>
<wire x1="40.64" y1="18.415" x2="43.815" y2="18.415" width="1.4224" layer="16"/>
<wire x1="50.165" y1="7.62" x2="44.45" y2="13.335" width="1.4224" layer="16"/>
<wire x1="44.45" y1="13.335" x2="44.45" y2="18.415" width="1.4224" layer="16"/>
<wire x1="25.4" y1="35.56" x2="44.45" y2="35.56" width="1.4224" layer="16"/>
<wire x1="44.45" y1="35.56" x2="48.895" y2="33.02" width="1.4224" layer="16"/>
<wire x1="48.895" y1="33.02" x2="48.895" y2="21.59" width="1.4224" layer="16"/>
<wire x1="48.895" y1="21.59" x2="44.45" y2="18.415" width="1.4224" layer="16"/>
<wire x1="43.815" y1="18.415" x2="44.45" y2="18.415" width="1.4224" layer="16"/>
<polygon width="0.6096" layer="16">
<vertex x="15.875" y="29.845"/>
<vertex x="15.875" y="36.195"/>
<vertex x="48.895" y="36.195"/>
<vertex x="48.895" y="33.655"/>
<vertex x="27.94" y="33.655"/>
<vertex x="27.94" y="29.845"/>
</polygon>
<wire x1="10.16" y1="22.1996" x2="14.605" y2="22.1996" width="1.27" layer="16"/>
<wire x1="14.605" y1="22.1996" x2="14.605" y2="28.575" width="1.27" layer="16"/>
<wire x1="14.605" y1="28.575" x2="16.51" y2="30.48" width="1.27" layer="16"/>
<wire x1="16.51" y1="30.48" x2="24.13" y2="30.48" width="1.27" layer="16"/>
<polygon width="0.6096" layer="16">
<vertex x="8.89" y="20.32"/>
<vertex x="17.78" y="20.32"/>
<vertex x="17.78" y="23.495"/>
<vertex x="15.875" y="23.495"/>
<vertex x="15.875" y="30.48"/>
<vertex x="14.605" y="30.48"/>
<vertex x="14.605" y="23.495"/>
<vertex x="8.89" y="23.495"/>
</polygon>
</signal>
<signal name="N$3">
<contactref element="C1" pad="2"/>
<contactref element="P1" pad="1"/>
<contactref element="R1" pad="1"/>
<contactref element="P1" pad="2"/>
<wire x1="38.735" y1="4.445" x2="45.085" y2="4.445" width="1.4224" layer="16"/>
<wire x1="45.085" y1="4.445" x2="51.435" y2="4.445" width="1.4224" layer="16"/>
<wire x1="45.085" y1="7.62" x2="45.085" y2="4.445" width="1.4224" layer="16"/>
<wire x1="36.195" y1="6.985" x2="38.735" y2="4.445" width="1.4224" layer="16"/>
<wire x1="38.735" y1="4.445" x2="38.735" y2="1.905" width="0.8128" layer="16"/>
<wire x1="38.735" y1="1.905" x2="20.955" y2="1.905" width="0.8128" layer="16"/>
<wire x1="20.955" y1="1.905" x2="20.955" y2="12.065" width="0.8128" layer="16"/>
<wire x1="20.955" y1="12.065" x2="23.495" y2="14.605" width="0.8128" layer="16"/>
</signal>
<signal name="N$4">
<contactref element="R2" pad="1"/>
<contactref element="P2" pad="1"/>
<contactref element="P2" pad="2"/>
<wire x1="23.495" y1="11.43" x2="25.4" y2="9.525" width="1.4224" layer="16"/>
<wire x1="25.4" y1="9.525" x2="27.305" y2="9.525" width="1.4224" layer="16"/>
<wire x1="27.305" y1="9.525" x2="27.305" y2="6.985" width="1.4224" layer="16"/>
<wire x1="29.845" y1="6.985" x2="27.305" y2="6.985" width="0.8128" layer="16"/>
</signal>
<signal name="ZATAZ-BEZ">
<contactref element="R1" pad="2"/>
<contactref element="R2" pad="2"/>
<contactref element="R3" pad="2"/>
<contactref element="T2" pad="2"/>
<contactref element="POISTKA" pad="2"/>
<wire x1="18.415" y1="27.305" x2="24.765" y2="27.305" width="1.4224" layer="16"/>
<wire x1="31.115" y1="11.43" x2="31.115" y2="10.795" width="1.4224" layer="16"/>
<wire x1="31.115" y1="11.43" x2="31.115" y2="13.335" width="1.4224" layer="16"/>
<wire x1="31.115" y1="13.335" x2="31.115" y2="14.605" width="1.4224" layer="16"/>
<wire x1="33.655" y1="13.335" x2="31.115" y2="13.335" width="1.4224" layer="16"/>
<wire x1="24.765" y1="27.305" x2="29.21" y2="27.305" width="1.4224" layer="16"/>
<wire x1="29.21" y1="27.305" x2="29.21" y2="14.605" width="1.4224" layer="16"/>
<wire x1="29.21" y1="14.605" x2="31.115" y2="14.605" width="1.4224" layer="16"/>
<polygon width="0.6096" layer="16">
<vertex x="28.575" y="27.94"/>
<vertex x="29.845" y="27.94"/>
<vertex x="29.845" y="31.75"/>
<vertex x="45.085" y="31.75"/>
<vertex x="45.085" y="22.225"/>
<vertex x="28.575" y="22.225"/>
</polygon>
</signal>
<signal name="N$6">
<contactref element="R3" pad="1"/>
<contactref element="C3" pad="2"/>
<wire x1="48.895" y1="18.415" x2="48.895" y2="13.335" width="1.4224" layer="16"/>
</signal>
<signal name="N$1">
<contactref element="T1" pad="2"/>
<contactref element="P2" pad="3"/>
<contactref element="C2" pad="2"/>
<contactref element="P1" pad="3"/>
<wire x1="32.385" y1="18.415" x2="35.56" y2="18.415" width="1.4224" layer="16"/>
<wire x1="41.275" y1="6.985" x2="36.83" y2="11.43" width="1.4224" layer="16"/>
<wire x1="36.83" y1="11.43" x2="36.83" y2="18.415" width="1.4224" layer="16"/>
<wire x1="36.83" y1="18.415" x2="35.56" y2="18.415" width="1.4224" layer="16"/>
<wire x1="24.765" y1="6.985" x2="24.765" y2="4.445" width="1.4224" layer="16"/>
<wire x1="24.765" y1="4.445" x2="31.75" y2="4.445" width="1.4224" layer="16"/>
<wire x1="31.75" y1="4.445" x2="33.655" y2="6.35" width="1.4224" layer="16"/>
<wire x1="33.655" y1="6.35" x2="33.655" y2="8.255" width="1.4224" layer="16"/>
<wire x1="33.655" y1="8.255" x2="36.83" y2="11.43" width="1.4224" layer="16"/>
</signal>
<signal name="N$7">
<contactref element="T1" pad="1"/>
<contactref element="T2" pad="3"/>
<wire x1="24.765" y1="24.765" x2="24.765" y2="18.415" width="1.4224" layer="16"/>
</signal>
<signal name="NULA">
<contactref element="X2" pad="4"/>
<contactref element="X2" pad="5"/>
<wire x1="10.16" y1="12.1666" x2="10.16" y2="17.1704" width="1.4224" layer="16"/>
<polygon width="0.6096" layer="16">
<vertex x="13.335" y="11.43"/>
<vertex x="6.985" y="11.43"/>
<vertex x="6.985" y="18.415"/>
<vertex x="13.335" y="18.415"/>
</polygon>
</signal>
<signal name="ZATAZ">
<contactref element="POISTKA" pad="1"/>
<contactref element="X2" pad="6"/>
<polygon width="0.6096" layer="16">
<vertex x="7.62" y="9.525"/>
<vertex x="7.62" y="4.445"/>
<vertex x="17.145" y="4.445"/>
<vertex x="17.145" y="9.525"/>
</polygon>
<wire x1="10.16" y1="7.1628" x2="14.1478" y2="7.1628" width="1.778" layer="16"/>
<wire x1="14.1478" y1="7.1628" x2="16.51" y2="9.525" width="1.778" layer="16"/>
<wire x1="16.51" y1="9.525" x2="16.51" y2="10.16" width="1.778" layer="16"/>
<wire x1="16.51" y1="10.16" x2="18.415" y2="12.065" width="1.778" layer="16"/>
</signal>
<signal name="ZEM">
<contactref element="X2" pad="2"/>
<contactref element="X2" pad="1"/>
<wire x1="10.16" y1="27.2034" x2="10.16" y2="32.2072" width="1.4224" layer="16"/>
<polygon width="0.6096" layer="16">
<vertex x="12.065" y="25.4"/>
<vertex x="12.065" y="34.29"/>
<vertex x="7.62" y="34.29"/>
<vertex x="7.62" y="25.4"/>
</polygon>
</signal>
</signals>
</board>
</drawing>
</eagle>
