<?xml version="1.0" standalone="no"?>
 <!DOCTYPE svg PUBLIC "-//W3C//DTD SVG 1.1//EN" 
 "http://www.w3.org/Graphics/SVG/1.1/DTD/svg11.dtd"> 
<svg xmlns="http://www.w3.org/2000/svg" version="1.1" 
    width="15.4026cm" height="9.19226cm" viewBox="0 0 60640 36190 ">
<title>SVG Picture created as untitled-F_Paste.svg date 2015/03/23 00:22:53 </title>
  <desc>Picture generated by PCBNEW </desc>
<g style="fill:#000000; fill-opacity:1;stroke:#000000; stroke-opacity:1;
stroke-linecap:round; stroke-linejoin:round; "
 transform="translate(0 0) scale(1 1)">
</g>
<g style="fill:#C1C100; fill-opacity:0.0; 
stroke:#C1C100; stroke-width:0; stroke-opacity:1; 
stroke-linecap:round; stroke-linejoin:round;">
<path d="M38840 34730
L60640 34730
" />
<path d="M60640 34730
L60640 6050
" />
<path d="M60640 6050
L38840 6050
" />
<path d="M38840 6050
L38840 34730
" />
</g>
<g style="fill:#840000; fill-opacity:0.0; 
stroke:#840000; stroke-width:39.3701; stroke-opacity:1; 
stroke-linecap:round; stroke-linejoin:round;">
</g>
<g style="fill:#840000; fill-opacity:1.0; 
stroke:#840000; stroke-width:39.3701; stroke-opacity:1; 
stroke-linecap:round; stroke-linejoin:round;">
<polyline style="fill-rule:evenodd;"
points="15229,3505
15229,2954
15702,2954
15702,3505
15229,3505
" /> 
<polyline style="fill-rule:evenodd;"
points="15977,3505
15977,2954
16450,2954
16450,3505
15977,3505
" /> 
<polyline style="fill-rule:evenodd;"
points="2021,20182
2021,19277
2926,19277
2926,20182
2021,20182
" /> 
<polyline style="fill-rule:evenodd;"
points="3753,20182
3753,19277
4658,19277
4658,20182
3753,20182
" /> 
<polyline style="fill-rule:evenodd;"
points="29521,16682
29521,15777
30426,15777
30426,16682
29521,16682
" /> 
<polyline style="fill-rule:evenodd;"
points="31253,16682
31253,15777
32158,15777
32158,16682
31253,16682
" /> 
<polyline style="fill-rule:evenodd;"
points="22521,16682
22521,15777
23426,15777
23426,16682
22521,16682
" /> 
<polyline style="fill-rule:evenodd;"
points="24253,16682
24253,15777
25158,15777
25158,16682
24253,16682
" /> 
<polyline style="fill-rule:evenodd;"
points="26021,16682
26021,15777
26926,15777
26926,16682
26021,16682
" /> 
<polyline style="fill-rule:evenodd;"
points="27753,16682
27753,15777
28658,15777
28658,16682
27753,16682
" /> 
<polyline style="fill-rule:evenodd;"
points="33021,16682
33021,15777
33926,15777
33926,16682
33021,16682
" /> 
<polyline style="fill-rule:evenodd;"
points="34753,16682
34753,15777
35658,15777
35658,16682
34753,16682
" /> 
<polyline style="fill-rule:evenodd;"
points="4229,6005
4229,5454
4702,5454
4702,6005
4229,6005
" /> 
<polyline style="fill-rule:evenodd;"
points="4977,6005
4977,5454
5450,5454
5450,6005
4977,6005
" /> 
<polyline style="fill-rule:evenodd;"
points="1229,6005
1229,5454
1702,5454
1702,6005
1229,6005
" /> 
<polyline style="fill-rule:evenodd;"
points="1977,6005
1977,5454
2450,5454
2450,6005
1977,6005
" /> 
<polyline style="fill-rule:evenodd;"
points="33729,3505
33729,2954
34202,2954
34202,3505
33729,3505
" /> 
<polyline style="fill-rule:evenodd;"
points="34477,3505
34477,2954
34950,2954
34950,3505
34477,3505
" /> 
<polyline style="fill-rule:evenodd;"
points="54729,30505
54729,29954
55202,29954
55202,30505
54729,30505
" /> 
<polyline style="fill-rule:evenodd;"
points="55477,30505
55477,29954
55950,29954
55950,30505
55477,30505
" /> 
<polyline style="fill-rule:evenodd;"
points="7229,6005
7229,5454
7702,5454
7702,6005
7229,6005
" /> 
<polyline style="fill-rule:evenodd;"
points="7977,6005
7977,5454
8450,5454
8450,6005
7977,6005
" /> 
<polyline style="fill-rule:evenodd;"
points="7021,4182
7021,3277
7926,3277
7926,4182
7021,4182
" /> 
<polyline style="fill-rule:evenodd;"
points="8753,4182
8753,3277
9658,3277
9658,4182
8753,4182
" /> 
<polyline style="fill-rule:evenodd;"
points="4021,4182
4021,3277
4926,3277
4926,4182
4021,4182
" /> 
<polyline style="fill-rule:evenodd;"
points="5753,4182
5753,3277
6658,3277
6658,4182
5753,4182
" /> 
<polyline style="fill-rule:evenodd;"
points="12729,3505
12729,2954
13202,2954
13202,3505
12729,3505
" /> 
<polyline style="fill-rule:evenodd;"
points="13477,3505
13477,2954
13950,2954
13950,3505
13477,3505
" /> 
<polyline style="fill-rule:evenodd;"
points="10229,3505
10229,2954
10702,2954
10702,3505
10229,3505
" /> 
<polyline style="fill-rule:evenodd;"
points="10977,3505
10977,2954
11450,2954
11450,3505
10977,3505
" /> 
<polyline style="fill-rule:evenodd;"
points="10229,6005
10229,5454
10702,5454
10702,6005
10229,6005
" /> 
<polyline style="fill-rule:evenodd;"
points="10977,6005
10977,5454
11450,5454
11450,6005
10977,6005
" /> 
<polyline style="fill-rule:evenodd;"
points="27729,3505
27729,2954
28202,2954
28202,3505
27729,3505
" /> 
<polyline style="fill-rule:evenodd;"
points="28477,3505
28477,2954
28950,2954
28950,3505
28477,3505
" /> 
<polyline style="fill-rule:evenodd;"
points="25229,3505
25229,2954
25702,2954
25702,3505
25229,3505
" /> 
<polyline style="fill-rule:evenodd;"
points="25977,3505
25977,2954
26450,2954
26450,3505
25977,3505
" /> 
<polyline style="fill-rule:evenodd;"
points="22729,3505
22729,2954
23202,2954
23202,3505
22729,3505
" /> 
<polyline style="fill-rule:evenodd;"
points="23477,3505
23477,2954
23950,2954
23950,3505
23477,3505
" /> 
<polyline style="fill-rule:evenodd;"
points="20229,3505
20229,2954
20702,2954
20702,3505
20229,3505
" /> 
<polyline style="fill-rule:evenodd;"
points="20977,3505
20977,2954
21450,2954
21450,3505
20977,3505
" /> 
<polyline style="fill-rule:evenodd;"
points="17729,3505
17729,2954
18202,2954
18202,3505
17729,3505
" /> 
<polyline style="fill-rule:evenodd;"
points="18477,3505
18477,2954
18950,2954
18950,3505
18477,3505
" /> 
<polyline style="fill-rule:evenodd;"
points="16229,6005
16229,5454
16702,5454
16702,6005
16229,6005
" /> 
<polyline style="fill-rule:evenodd;"
points="16977,6005
16977,5454
17450,5454
17450,6005
16977,6005
" /> 
<polyline style="fill-rule:evenodd;"
points="13229,6005
13229,5454
13702,5454
13702,6005
13229,6005
" /> 
<polyline style="fill-rule:evenodd;"
points="13977,6005
13977,5454
14450,5454
14450,6005
13977,6005
" /> 
<polyline style="fill-rule:evenodd;"
points="19229,6005
19229,5454
19702,5454
19702,6005
19229,6005
" /> 
<polyline style="fill-rule:evenodd;"
points="19977,6005
19977,5454
20450,5454
20450,6005
19977,6005
" /> 
<polyline style="fill-rule:evenodd;"
points="22729,6005
22729,5454
23202,5454
23202,6005
22729,6005
" /> 
<polyline style="fill-rule:evenodd;"
points="23477,6005
23477,5454
23950,5454
23950,6005
23477,6005
" /> 
<polyline style="fill-rule:evenodd;"
points="26229,6005
26229,5454
26702,5454
26702,6005
26229,6005
" /> 
<polyline style="fill-rule:evenodd;"
points="26977,6005
26977,5454
27450,5454
27450,6005
26977,6005
" /> 
<polyline style="fill-rule:evenodd;"
points="29729,6005
29729,5454
30202,5454
30202,6005
29729,6005
" /> 
<polyline style="fill-rule:evenodd;"
points="30477,6005
30477,5454
30950,5454
30950,6005
30477,6005
" /> 
<polyline style="fill-rule:evenodd;"
points="13729,8505
13729,7954
14202,7954
14202,8505
13729,8505
" /> 
<polyline style="fill-rule:evenodd;"
points="14477,8505
14477,7954
14950,7954
14950,8505
14477,8505
" /> 
<polyline style="fill-rule:evenodd;"
points="8229,8505
8229,7954
8702,7954
8702,8505
8229,8505
" /> 
<polyline style="fill-rule:evenodd;"
points="8977,8505
8977,7954
9450,7954
9450,8505
8977,8505
" /> 
<polyline style="fill-rule:evenodd;"
points="34229,1505
34229,954
34702,954
34702,1505
34229,1505
" /> 
<polyline style="fill-rule:evenodd;"
points="34977,1505
34977,954
35450,954
35450,1505
34977,1505
" /> 
</g> 
</svg>
