<?xml version="1.0" standalone="no"?>
 <!DOCTYPE svg PUBLIC "-//W3C//DTD SVG 1.1//EN" 
 "http://www.w3.org/Graphics/SVG/1.1/DTD/svg11.dtd"> 
<svg xmlns="http://www.w3.org/2000/svg" version="1.1" 
    width="15.4026cm" height="9.19226cm" viewBox="0 0 60640 36190 ">
<title>SVG Picture created as untitled-F_CrtYd.svg date 2015/03/23 00:22:53 </title>
  <desc>Picture generated by PCBNEW </desc>
<g style="fill:#000000; fill-opacity:1;stroke:#000000; stroke-opacity:1;
stroke-linecap:round; stroke-linejoin:round; "
 transform="translate(0 0) scale(1 1)">
</g>
<g style="fill:#C1C100; fill-opacity:0.0; 
stroke:#C1C100; stroke-width:0; stroke-opacity:1; 
stroke-linecap:round; stroke-linejoin:round;">
<path d="M38840 34730
L60640 34730
" />
<path d="M60640 34730
L60640 6050
" />
<path d="M60640 6050
L38840 6050
" />
<path d="M38840 6050
L38840 34730
" />
</g> 
</svg>
