<?xml version="1.0" encoding="utf-8"?>
<!DOCTYPE eagle SYSTEM "eagle.dtd">
<eagle version="7.4.0">
<drawing>
<settings>
<setting alwaysvectorfont="no"/>
<setting verticaltext="up"/>
</settings>
<grid distance="0.1" unitdist="inch" unit="inch" style="lines" multiple="1" display="no" altdistance="0.01" altunitdist="inch" altunit="inch"/>
<layers>
<layer number="1" name="Top" color="4" fill="1" visible="no" active="no"/>
<layer number="2" name="Route2" color="1" fill="3" visible="no" active="no"/>
<layer number="3" name="Route3" color="4" fill="3" visible="no" active="no"/>
<layer number="4" name="Route4" color="1" fill="4" visible="no" active="no"/>
<layer number="5" name="Route5" color="4" fill="4" visible="no" active="no"/>
<layer number="6" name="Route6" color="1" fill="8" visible="no" active="no"/>
<layer number="7" name="Route7" color="4" fill="8" visible="no" active="no"/>
<layer number="8" name="Route8" color="1" fill="2" visible="no" active="no"/>
<layer number="9" name="Route9" color="4" fill="2" visible="no" active="no"/>
<layer number="10" name="Route10" color="1" fill="7" visible="no" active="no"/>
<layer number="11" name="Route11" color="4" fill="7" visible="no" active="no"/>
<layer number="12" name="Route12" color="1" fill="5" visible="no" active="no"/>
<layer number="13" name="Route13" color="4" fill="5" visible="no" active="no"/>
<layer number="14" name="Route14" color="1" fill="6" visible="no" active="no"/>
<layer number="15" name="Route15" color="4" fill="6" visible="no" active="no"/>
<layer number="16" name="Bottom" color="1" fill="1" visible="no" active="no"/>
<layer number="17" name="Pads" color="2" fill="1" visible="no" active="no"/>
<layer number="18" name="Vias" color="2" fill="1" visible="no" active="no"/>
<layer number="19" name="Unrouted" color="6" fill="1" visible="no" active="no"/>
<layer number="20" name="Dimension" color="15" fill="1" visible="no" active="no"/>
<layer number="21" name="tPlace" color="7" fill="1" visible="no" active="no"/>
<layer number="22" name="bPlace" color="7" fill="1" visible="no" active="no"/>
<layer number="23" name="tOrigins" color="15" fill="1" visible="no" active="no"/>
<layer number="24" name="bOrigins" color="15" fill="1" visible="no" active="no"/>
<layer number="25" name="tNames" color="7" fill="1" visible="no" active="no"/>
<layer number="26" name="bNames" color="7" fill="1" visible="no" active="no"/>
<layer number="27" name="tValues" color="7" fill="1" visible="no" active="no"/>
<layer number="28" name="bValues" color="7" fill="1" visible="no" active="no"/>
<layer number="29" name="tStop" color="7" fill="3" visible="no" active="no"/>
<layer number="30" name="bStop" color="7" fill="6" visible="no" active="no"/>
<layer number="31" name="tCream" color="7" fill="4" visible="no" active="no"/>
<layer number="32" name="bCream" color="7" fill="5" visible="no" active="no"/>
<layer number="33" name="tFinish" color="6" fill="3" visible="no" active="no"/>
<layer number="34" name="bFinish" color="6" fill="6" visible="no" active="no"/>
<layer number="35" name="tGlue" color="7" fill="4" visible="no" active="no"/>
<layer number="36" name="bGlue" color="7" fill="5" visible="no" active="no"/>
<layer number="37" name="tTest" color="7" fill="1" visible="no" active="no"/>
<layer number="38" name="bTest" color="7" fill="1" visible="no" active="no"/>
<layer number="39" name="tKeepout" color="4" fill="11" visible="no" active="no"/>
<layer number="40" name="bKeepout" color="1" fill="11" visible="no" active="no"/>
<layer number="41" name="tRestrict" color="4" fill="10" visible="no" active="no"/>
<layer number="42" name="bRestrict" color="1" fill="10" visible="no" active="no"/>
<layer number="43" name="vRestrict" color="2" fill="10" visible="no" active="no"/>
<layer number="44" name="Drills" color="7" fill="1" visible="no" active="no"/>
<layer number="45" name="Holes" color="7" fill="1" visible="no" active="no"/>
<layer number="46" name="Milling" color="3" fill="1" visible="no" active="no"/>
<layer number="47" name="Measures" color="7" fill="1" visible="no" active="no"/>
<layer number="48" name="Document" color="7" fill="1" visible="no" active="no"/>
<layer number="49" name="Reference" color="7" fill="1" visible="no" active="no"/>
<layer number="50" name="dxf" color="7" fill="1" visible="no" active="no"/>
<layer number="51" name="tDocu" color="7" fill="1" visible="no" active="no"/>
<layer number="52" name="bDocu" color="7" fill="1" visible="no" active="no"/>
<layer number="53" name="tPadExt" color="7" fill="1" visible="no" active="no"/>
<layer number="54" name="bPadExt" color="1" fill="1" visible="no" active="no"/>
<layer number="56" name="wert" color="7" fill="1" visible="no" active="no"/>
<layer number="57" name="tCAD" color="7" fill="1" visible="no" active="no"/>
<layer number="59" name="tCarbon" color="7" fill="1" visible="no" active="no"/>
<layer number="60" name="bCarbon" color="7" fill="1" visible="no" active="no"/>
<layer number="90" name="Modules" color="5" fill="1" visible="yes" active="yes"/>
<layer number="91" name="Nets" color="2" fill="1" visible="yes" active="yes"/>
<layer number="92" name="Busses" color="1" fill="1" visible="yes" active="yes"/>
<layer number="93" name="Pins" color="2" fill="1" visible="no" active="yes"/>
<layer number="94" name="Symbols" color="4" fill="1" visible="yes" active="yes"/>
<layer number="95" name="Names" color="7" fill="1" visible="yes" active="yes"/>
<layer number="96" name="Values" color="7" fill="1" visible="yes" active="yes"/>
<layer number="97" name="Info" color="7" fill="1" visible="yes" active="yes"/>
<layer number="98" name="Guide" color="6" fill="1" visible="yes" active="yes"/>
<layer number="99" name="SpiceOrder" color="5" fill="1" visible="yes" active="yes"/>
<layer number="100" name="PWM" color="13" fill="1" visible="yes" active="yes"/>
<layer number="101" name="Patch_Top" color="12" fill="4" visible="yes" active="yes"/>
<layer number="102" name="Changes" color="12" fill="1" visible="yes" active="yes"/>
<layer number="103" name="fp3" color="7" fill="1" visible="yes" active="yes"/>
<layer number="104" name="S_DOKU" color="7" fill="1" visible="yes" active="yes"/>
<layer number="105" name="Beschreib" color="9" fill="1" visible="yes" active="yes"/>
<layer number="106" name="BGA-Top" color="4" fill="1" visible="yes" active="yes"/>
<layer number="107" name="BD-Top" color="5" fill="1" visible="yes" active="yes"/>
<layer number="108" name="fp8" color="7" fill="1" visible="yes" active="yes"/>
<layer number="109" name="fp9" color="7" fill="1" visible="yes" active="yes"/>
<layer number="110" name="fp0" color="7" fill="1" visible="yes" active="yes"/>
<layer number="111" name="LPC17xx" color="7" fill="1" visible="yes" active="yes"/>
<layer number="112" name="tSilk" color="7" fill="1" visible="yes" active="yes"/>
<layer number="113" name="ReferenceLS" color="7" fill="1" visible="no" active="no"/>
<layer number="116" name="Patch_BOT" color="9" fill="4" visible="yes" active="yes"/>
<layer number="118" name="Rect_Pads" color="7" fill="1" visible="no" active="no"/>
<layer number="121" name="_tsilk" color="7" fill="1" visible="yes" active="yes"/>
<layer number="122" name="_bsilk" color="7" fill="1" visible="yes" active="yes"/>
<layer number="123" name="tTestmark" color="7" fill="1" visible="yes" active="yes"/>
<layer number="124" name="bTestmark" color="7" fill="1" visible="yes" active="yes"/>
<layer number="125" name="_tNames" color="7" fill="1" visible="yes" active="yes"/>
<layer number="126" name="_bNames" color="7" fill="1" visible="yes" active="yes"/>
<layer number="127" name="_tValues" color="7" fill="1" visible="yes" active="yes"/>
<layer number="128" name="_bValues" color="7" fill="1" visible="yes" active="yes"/>
<layer number="129" name="Mask" color="7" fill="1" visible="yes" active="yes"/>
<layer number="131" name="tAdjust" color="7" fill="1" visible="yes" active="yes"/>
<layer number="132" name="bAdjust" color="7" fill="1" visible="yes" active="yes"/>
<layer number="144" name="Drill_legend" color="7" fill="1" visible="yes" active="yes"/>
<layer number="150" name="Notes" color="7" fill="1" visible="yes" active="yes"/>
<layer number="151" name="HeatSink" color="7" fill="1" visible="yes" active="yes"/>
<layer number="152" name="_bDocu" color="7" fill="1" visible="yes" active="yes"/>
<layer number="153" name="FabDoc1" color="6" fill="1" visible="no" active="no"/>
<layer number="154" name="FabDoc2" color="2" fill="1" visible="no" active="no"/>
<layer number="155" name="FabDoc3" color="7" fill="15" visible="no" active="no"/>
<layer number="199" name="Contour" color="7" fill="1" visible="yes" active="yes"/>
<layer number="200" name="200bmp" color="1" fill="10" visible="no" active="no"/>
<layer number="201" name="201bmp" color="2" fill="1" visible="no" active="no"/>
<layer number="202" name="202bmp" color="3" fill="1" visible="no" active="no"/>
<layer number="203" name="203bmp" color="4" fill="10" visible="yes" active="yes"/>
<layer number="204" name="204bmp" color="5" fill="10" visible="yes" active="yes"/>
<layer number="205" name="205bmp" color="6" fill="10" visible="yes" active="yes"/>
<layer number="206" name="206bmp" color="7" fill="10" visible="yes" active="yes"/>
<layer number="207" name="207bmp" color="8" fill="10" visible="yes" active="yes"/>
<layer number="208" name="208bmp" color="9" fill="10" visible="yes" active="yes"/>
<layer number="209" name="209bmp" color="7" fill="1" visible="yes" active="yes"/>
<layer number="210" name="210bmp" color="7" fill="1" visible="yes" active="yes"/>
<layer number="211" name="211bmp" color="7" fill="1" visible="yes" active="yes"/>
<layer number="212" name="212bmp" color="7" fill="1" visible="yes" active="yes"/>
<layer number="213" name="213bmp" color="7" fill="1" visible="yes" active="yes"/>
<layer number="214" name="214bmp" color="7" fill="1" visible="yes" active="yes"/>
<layer number="215" name="215bmp" color="7" fill="1" visible="yes" active="yes"/>
<layer number="216" name="216bmp" color="7" fill="1" visible="yes" active="yes"/>
<layer number="217" name="217bmp" color="18" fill="1" visible="no" active="no"/>
<layer number="218" name="218bmp" color="19" fill="1" visible="no" active="no"/>
<layer number="219" name="219bmp" color="20" fill="1" visible="no" active="no"/>
<layer number="220" name="220bmp" color="21" fill="1" visible="no" active="no"/>
<layer number="221" name="221bmp" color="22" fill="1" visible="no" active="no"/>
<layer number="222" name="222bmp" color="23" fill="1" visible="no" active="no"/>
<layer number="223" name="223bmp" color="24" fill="1" visible="no" active="no"/>
<layer number="224" name="224bmp" color="25" fill="1" visible="no" active="no"/>
<layer number="225" name="225bmp" color="7" fill="1" visible="yes" active="yes"/>
<layer number="226" name="226bmp" color="7" fill="1" visible="yes" active="yes"/>
<layer number="227" name="227bmp" color="7" fill="1" visible="yes" active="yes"/>
<layer number="228" name="228bmp" color="7" fill="1" visible="yes" active="yes"/>
<layer number="229" name="229bmp" color="7" fill="1" visible="yes" active="yes"/>
<layer number="230" name="230bmp" color="7" fill="1" visible="yes" active="yes"/>
<layer number="231" name="Eagle3D_PG1" color="7" fill="1" visible="no" active="no"/>
<layer number="232" name="Eagle3D_PG2" color="7" fill="1" visible="no" active="no"/>
<layer number="233" name="Eagle3D_PG3" color="7" fill="1" visible="no" active="no"/>
<layer number="248" name="Housing" color="7" fill="1" visible="yes" active="yes"/>
<layer number="249" name="Edge" color="7" fill="1" visible="yes" active="yes"/>
<layer number="250" name="Descript" color="7" fill="1" visible="yes" active="yes"/>
<layer number="251" name="SMDround" color="7" fill="1" visible="yes" active="yes"/>
<layer number="254" name="OrgLBR" color="13" fill="1" visible="yes" active="yes"/>
<layer number="255" name="routoute" color="7" fill="1" visible="yes" active="yes"/>
</layers>
<schematic xreflabel="%F%N/%S.%C%R" xrefpart="/%S.%C%R">
<libraries>
<library name="supply1">
<packages>
</packages>
<symbols>
<symbol name="GND">
<wire x1="-1.905" y1="0" x2="1.905" y2="0" width="0.254" layer="94"/>
<text x="-2.54" y="-2.54" size="1.778" layer="96">&gt;VALUE</text>
<pin name="GND" x="0" y="2.54" visible="off" length="short" direction="sup" rot="R270"/>
</symbol>
<symbol name="VCC">
<wire x1="1.27" y1="-1.905" x2="0" y2="0" width="0.254" layer="94"/>
<wire x1="0" y1="0" x2="-1.27" y2="-1.905" width="0.254" layer="94"/>
<text x="-2.54" y="-2.54" size="1.778" layer="96" rot="R90">&gt;VALUE</text>
<pin name="VCC" x="0" y="-2.54" visible="off" length="short" direction="sup" rot="R90"/>
</symbol>
<symbol name="V+">
<wire x1="0.889" y1="-1.27" x2="0" y2="0.127" width="0.254" layer="94"/>
<wire x1="0" y1="0.127" x2="-0.889" y2="-1.27" width="0.254" layer="94"/>
<wire x1="-0.889" y1="-1.27" x2="0.889" y2="-1.27" width="0.254" layer="94"/>
<text x="-2.54" y="-2.54" size="1.778" layer="96" rot="R90">&gt;VALUE</text>
<pin name="V+" x="0" y="-2.54" visible="off" length="short" direction="sup" rot="R90"/>
</symbol>
</symbols>
<devicesets>
<deviceset name="GND" prefix="GND">
<description>&lt;b&gt;SUPPLY SYMBOL&lt;/b&gt;</description>
<gates>
<gate name="1" symbol="GND" x="0" y="0"/>
</gates>
<devices>
<device name="">
<technologies>
<technology name=""/>
</technologies>
</device>
</devices>
</deviceset>
<deviceset name="VCC" prefix="P+">
<description>&lt;b&gt;SUPPLY SYMBOL&lt;/b&gt;</description>
<gates>
<gate name="VCC" symbol="VCC" x="0" y="0"/>
</gates>
<devices>
<device name="">
<technologies>
<technology name=""/>
</technologies>
</device>
</devices>
</deviceset>
<deviceset name="V+" prefix="P+">
<description>&lt;b&gt;SUPPLY SYMBOL&lt;/b&gt;</description>
<gates>
<gate name="1" symbol="V+" x="0" y="0"/>
</gates>
<devices>
<device name="">
<technologies>
<technology name=""/>
</technologies>
</device>
</devices>
</deviceset>
</devicesets>
</library>
<library name="pinhead">
<description>&lt;b&gt;Pin Header Connectors&lt;/b&gt;&lt;p&gt;
&lt;author&gt;Created by librarian@cadsoft.de&lt;/author&gt;</description>
<packages>
<package name="1X04">
<description>&lt;b&gt;PIN HEADER&lt;/b&gt;</description>
<wire x1="0" y1="0.635" x2="0.635" y2="1.27" width="0.1524" layer="21"/>
<wire x1="0.635" y1="1.27" x2="1.905" y2="1.27" width="0.1524" layer="21"/>
<wire x1="1.905" y1="1.27" x2="2.54" y2="0.635" width="0.1524" layer="21"/>
<wire x1="2.54" y1="0.635" x2="2.54" y2="-0.635" width="0.1524" layer="21"/>
<wire x1="2.54" y1="-0.635" x2="1.905" y2="-1.27" width="0.1524" layer="21"/>
<wire x1="1.905" y1="-1.27" x2="0.635" y2="-1.27" width="0.1524" layer="21"/>
<wire x1="0.635" y1="-1.27" x2="0" y2="-0.635" width="0.1524" layer="21"/>
<wire x1="-4.445" y1="1.27" x2="-3.175" y2="1.27" width="0.1524" layer="21"/>
<wire x1="-3.175" y1="1.27" x2="-2.54" y2="0.635" width="0.1524" layer="21"/>
<wire x1="-2.54" y1="0.635" x2="-2.54" y2="-0.635" width="0.1524" layer="21"/>
<wire x1="-2.54" y1="-0.635" x2="-3.175" y2="-1.27" width="0.1524" layer="21"/>
<wire x1="-2.54" y1="0.635" x2="-1.905" y2="1.27" width="0.1524" layer="21"/>
<wire x1="-1.905" y1="1.27" x2="-0.635" y2="1.27" width="0.1524" layer="21"/>
<wire x1="-0.635" y1="1.27" x2="0" y2="0.635" width="0.1524" layer="21"/>
<wire x1="0" y1="0.635" x2="0" y2="-0.635" width="0.1524" layer="21"/>
<wire x1="0" y1="-0.635" x2="-0.635" y2="-1.27" width="0.1524" layer="21"/>
<wire x1="-0.635" y1="-1.27" x2="-1.905" y2="-1.27" width="0.1524" layer="21"/>
<wire x1="-1.905" y1="-1.27" x2="-2.54" y2="-0.635" width="0.1524" layer="21"/>
<wire x1="-5.08" y1="0.635" x2="-5.08" y2="-0.635" width="0.1524" layer="21"/>
<wire x1="-4.445" y1="1.27" x2="-5.08" y2="0.635" width="0.1524" layer="21"/>
<wire x1="-5.08" y1="-0.635" x2="-4.445" y2="-1.27" width="0.1524" layer="21"/>
<wire x1="-3.175" y1="-1.27" x2="-4.445" y2="-1.27" width="0.1524" layer="21"/>
<wire x1="3.175" y1="1.27" x2="4.445" y2="1.27" width="0.1524" layer="21"/>
<wire x1="4.445" y1="1.27" x2="5.08" y2="0.635" width="0.1524" layer="21"/>
<wire x1="5.08" y1="0.635" x2="5.08" y2="-0.635" width="0.1524" layer="21"/>
<wire x1="5.08" y1="-0.635" x2="4.445" y2="-1.27" width="0.1524" layer="21"/>
<wire x1="3.175" y1="1.27" x2="2.54" y2="0.635" width="0.1524" layer="21"/>
<wire x1="2.54" y1="-0.635" x2="3.175" y2="-1.27" width="0.1524" layer="21"/>
<wire x1="4.445" y1="-1.27" x2="3.175" y2="-1.27" width="0.1524" layer="21"/>
<pad name="1" x="-3.81" y="0" drill="1.016" diameter="1.778" shape="octagon" rot="R90"/>
<pad name="2" x="-1.27" y="0" drill="1.016" diameter="1.778" shape="octagon" rot="R90"/>
<pad name="3" x="1.27" y="0" drill="1.016" diameter="1.778" shape="octagon" rot="R90"/>
<pad name="4" x="3.81" y="0" drill="1.016" diameter="1.778" shape="octagon" rot="R90"/>
<text x="-5.1562" y="1.8288" size="1.27" layer="25" ratio="10">&gt;NAME</text>
<text x="-5.08" y="-3.175" size="1.27" layer="27">&gt;VALUE</text>
<rectangle x1="1.016" y1="-0.254" x2="1.524" y2="0.254" layer="51"/>
<rectangle x1="-1.524" y1="-0.254" x2="-1.016" y2="0.254" layer="51"/>
<rectangle x1="-4.064" y1="-0.254" x2="-3.556" y2="0.254" layer="51"/>
<rectangle x1="3.556" y1="-0.254" x2="4.064" y2="0.254" layer="51"/>
</package>
<package name="1X04/90">
<description>&lt;b&gt;PIN HEADER&lt;/b&gt;</description>
<wire x1="-5.08" y1="-1.905" x2="-2.54" y2="-1.905" width="0.1524" layer="21"/>
<wire x1="-2.54" y1="-1.905" x2="-2.54" y2="0.635" width="0.1524" layer="21"/>
<wire x1="-2.54" y1="0.635" x2="-5.08" y2="0.635" width="0.1524" layer="21"/>
<wire x1="-5.08" y1="0.635" x2="-5.08" y2="-1.905" width="0.1524" layer="21"/>
<wire x1="-3.81" y1="6.985" x2="-3.81" y2="1.27" width="0.762" layer="21"/>
<wire x1="-2.54" y1="-1.905" x2="0" y2="-1.905" width="0.1524" layer="21"/>
<wire x1="0" y1="-1.905" x2="0" y2="0.635" width="0.1524" layer="21"/>
<wire x1="0" y1="0.635" x2="-2.54" y2="0.635" width="0.1524" layer="21"/>
<wire x1="-1.27" y1="6.985" x2="-1.27" y2="1.27" width="0.762" layer="21"/>
<wire x1="0" y1="-1.905" x2="2.54" y2="-1.905" width="0.1524" layer="21"/>
<wire x1="2.54" y1="-1.905" x2="2.54" y2="0.635" width="0.1524" layer="21"/>
<wire x1="2.54" y1="0.635" x2="0" y2="0.635" width="0.1524" layer="21"/>
<wire x1="1.27" y1="6.985" x2="1.27" y2="1.27" width="0.762" layer="21"/>
<wire x1="2.54" y1="-1.905" x2="5.08" y2="-1.905" width="0.1524" layer="21"/>
<wire x1="5.08" y1="-1.905" x2="5.08" y2="0.635" width="0.1524" layer="21"/>
<wire x1="5.08" y1="0.635" x2="2.54" y2="0.635" width="0.1524" layer="21"/>
<wire x1="3.81" y1="6.985" x2="3.81" y2="1.27" width="0.762" layer="21"/>
<pad name="1" x="-3.81" y="-3.81" drill="1.016" shape="long" rot="R90"/>
<pad name="2" x="-1.27" y="-3.81" drill="1.016" shape="long" rot="R90"/>
<pad name="3" x="1.27" y="-3.81" drill="1.016" shape="long" rot="R90"/>
<pad name="4" x="3.81" y="-3.81" drill="1.016" shape="long" rot="R90"/>
<text x="-5.715" y="-3.81" size="1.27" layer="25" ratio="10" rot="R90">&gt;NAME</text>
<text x="6.985" y="-4.445" size="1.27" layer="27" rot="R90">&gt;VALUE</text>
<rectangle x1="-4.191" y1="0.635" x2="-3.429" y2="1.143" layer="21"/>
<rectangle x1="-1.651" y1="0.635" x2="-0.889" y2="1.143" layer="21"/>
<rectangle x1="0.889" y1="0.635" x2="1.651" y2="1.143" layer="21"/>
<rectangle x1="3.429" y1="0.635" x2="4.191" y2="1.143" layer="21"/>
<rectangle x1="-4.191" y1="-2.921" x2="-3.429" y2="-1.905" layer="21"/>
<rectangle x1="-1.651" y1="-2.921" x2="-0.889" y2="-1.905" layer="21"/>
<rectangle x1="0.889" y1="-2.921" x2="1.651" y2="-1.905" layer="21"/>
<rectangle x1="3.429" y1="-2.921" x2="4.191" y2="-1.905" layer="21"/>
</package>
</packages>
<symbols>
<symbol name="PINHD4">
<wire x1="-6.35" y1="-5.08" x2="1.27" y2="-5.08" width="0.4064" layer="94"/>
<wire x1="1.27" y1="-5.08" x2="1.27" y2="7.62" width="0.4064" layer="94"/>
<wire x1="1.27" y1="7.62" x2="-6.35" y2="7.62" width="0.4064" layer="94"/>
<wire x1="-6.35" y1="7.62" x2="-6.35" y2="-5.08" width="0.4064" layer="94"/>
<text x="-6.35" y="8.255" size="1.778" layer="95">&gt;NAME</text>
<text x="-6.35" y="-7.62" size="1.778" layer="96">&gt;VALUE</text>
<pin name="1" x="-2.54" y="5.08" visible="pad" length="short" direction="pas" function="dot"/>
<pin name="2" x="-2.54" y="2.54" visible="pad" length="short" direction="pas" function="dot"/>
<pin name="3" x="-2.54" y="0" visible="pad" length="short" direction="pas" function="dot"/>
<pin name="4" x="-2.54" y="-2.54" visible="pad" length="short" direction="pas" function="dot"/>
</symbol>
</symbols>
<devicesets>
<deviceset name="PINHD-1X4" prefix="JP" uservalue="yes">
<description>&lt;b&gt;PIN HEADER&lt;/b&gt;</description>
<gates>
<gate name="A" symbol="PINHD4" x="0" y="0"/>
</gates>
<devices>
<device name="" package="1X04">
<connects>
<connect gate="A" pin="1" pad="1"/>
<connect gate="A" pin="2" pad="2"/>
<connect gate="A" pin="3" pad="3"/>
<connect gate="A" pin="4" pad="4"/>
</connects>
<technologies>
<technology name=""/>
</technologies>
</device>
<device name="/90" package="1X04/90">
<connects>
<connect gate="A" pin="1" pad="1"/>
<connect gate="A" pin="2" pad="2"/>
<connect gate="A" pin="3" pad="3"/>
<connect gate="A" pin="4" pad="4"/>
</connects>
<technologies>
<technology name=""/>
</technologies>
</device>
</devices>
</deviceset>
</devicesets>
</library>
<library name="moja_knižnica">
<packages>
<package name="TO-220H">
<wire x1="-5.207" y1="-5.08" x2="5.207" y2="-5.08" width="0.1524" layer="21"/>
<wire x1="5.207" y1="10.795" x2="-5.207" y2="10.795" width="0.1524" layer="21"/>
<wire x1="5.207" y1="-5.08" x2="5.207" y2="7.366" width="0.1524" layer="21"/>
<wire x1="5.207" y1="7.366" x2="4.318" y2="7.366" width="0.1524" layer="21"/>
<wire x1="4.318" y1="7.366" x2="4.318" y2="8.89" width="0.1524" layer="21"/>
<wire x1="4.318" y1="8.89" x2="5.207" y2="8.89" width="0.1524" layer="21"/>
<wire x1="5.207" y1="8.89" x2="5.207" y2="10.795" width="0.1524" layer="21"/>
<wire x1="-5.207" y1="-5.08" x2="-5.207" y2="7.366" width="0.1524" layer="21"/>
<wire x1="-5.207" y1="7.366" x2="-4.318" y2="7.366" width="0.1524" layer="21"/>
<wire x1="-4.318" y1="7.366" x2="-4.318" y2="8.89" width="0.1524" layer="21"/>
<wire x1="-4.318" y1="8.89" x2="-5.207" y2="8.89" width="0.1524" layer="21"/>
<wire x1="-5.207" y1="8.89" x2="-5.207" y2="10.795" width="0.1524" layer="21"/>
<wire x1="-4.572" y1="-4.445" x2="4.572" y2="-4.445" width="0.0508" layer="21"/>
<wire x1="4.572" y1="3.81" x2="4.572" y2="-4.445" width="0.0508" layer="21"/>
<wire x1="4.572" y1="3.81" x2="-4.572" y2="3.81" width="0.0508" layer="21"/>
<wire x1="-4.572" y1="-4.445" x2="-4.572" y2="3.81" width="0.0508" layer="21"/>
<circle x="0" y="7.366" radius="1.016" width="0.1524" layer="21"/>
<pad name="1" x="-2.54" y="-7.62" drill="1.1176" shape="long" rot="R90"/>
<pad name="2" x="0" y="-7.62" drill="1.1176" shape="long" rot="R90"/>
<pad name="3" x="2.54" y="-7.62" drill="1.1176" shape="long" rot="R90"/>
<text x="-5.461" y="-8.382" size="1.778" layer="25" ratio="10" rot="R90">&gt;NAME</text>
<text x="7.366" y="-8.509" size="1.778" layer="27" ratio="10" rot="R90">&gt;VALUE</text>
<rectangle x1="2.159" y1="-8.509" x2="2.921" y2="-7.874" layer="21"/>
<rectangle x1="-0.381" y1="-8.509" x2="0.381" y2="-7.874" layer="21"/>
<rectangle x1="-2.921" y1="-8.509" x2="-2.159" y2="-7.874" layer="21"/>
<rectangle x1="-3.175" y1="-7.874" x2="-1.905" y2="-5.08" layer="21"/>
<rectangle x1="-0.635" y1="-7.874" x2="0.635" y2="-5.08" layer="21"/>
<rectangle x1="1.905" y1="-7.874" x2="3.175" y2="-5.08" layer="21"/>
<pad name="TAB" x="0" y="7.366" drill="0.8"/>
</package>
<package name="TO-220V">
<wire x1="5.08" y1="1.397" x2="4.953" y2="-1.524" width="0.127" layer="21"/>
<wire x1="4.699" y1="-1.778" x2="4.953" y2="-1.524" width="0.127" layer="21"/>
<wire x1="4.699" y1="-1.778" x2="-4.699" y2="-1.778" width="0.127" layer="21"/>
<wire x1="-4.953" y1="-1.524" x2="-4.699" y2="-1.778" width="0.127" layer="21"/>
<wire x1="-4.953" y1="-1.524" x2="-5.08" y2="1.397" width="0.127" layer="21"/>
<circle x="-4.4958" y="-1.1684" radius="0.254" width="0.127" layer="21"/>
<pad name="1" x="-2.54" y="0" drill="1.016" shape="long" rot="R90"/>
<pad name="2" x="0" y="0" drill="1.016" shape="long" rot="R90"/>
<pad name="3" x="2.54" y="0" drill="1.016" shape="long" rot="R90"/>
<text x="-5.08" y="-3.5052" size="1.27" layer="25" ratio="10">&gt;NAME</text>
<text x="-5.08" y="-5.08" size="1.27" layer="27" ratio="10">&gt;VALUE</text>
<text x="-3.175" y="-0.635" size="1.27" layer="51" ratio="10">1</text>
<text x="-0.635" y="-0.635" size="1.27" layer="51" ratio="10">2</text>
<text x="1.905" y="-0.635" size="1.27" layer="51" ratio="10">3</text>
<rectangle x1="-5.334" y1="1.778" x2="5.334" y2="2.54" layer="21"/>
<rectangle x1="-5.334" y1="1.27" x2="-3.429" y2="1.778" layer="21"/>
<rectangle x1="-1.651" y1="1.27" x2="-0.889" y2="1.778" layer="21"/>
<rectangle x1="-3.429" y1="1.27" x2="-1.651" y2="1.778" layer="51"/>
<rectangle x1="0.889" y1="1.27" x2="1.651" y2="1.778" layer="21"/>
<rectangle x1="3.429" y1="1.27" x2="5.334" y2="1.778" layer="21"/>
<rectangle x1="-0.889" y1="1.27" x2="0.889" y2="1.778" layer="51"/>
<rectangle x1="1.651" y1="1.27" x2="3.429" y2="1.778" layer="51"/>
</package>
</packages>
<symbols>
<symbol name="3PIN_VOLT_STAB">
<wire x1="-7.62" y1="-5.08" x2="7.62" y2="-5.08" width="0.4064" layer="94"/>
<wire x1="7.62" y1="-5.08" x2="7.62" y2="2.54" width="0.4064" layer="94"/>
<wire x1="7.62" y1="2.54" x2="-7.62" y2="2.54" width="0.4064" layer="94"/>
<wire x1="-7.62" y1="2.54" x2="-7.62" y2="-5.08" width="0.4064" layer="94"/>
<text x="-7.62" y="5.715" size="1.778" layer="95">&gt;NAME</text>
<text x="-7.62" y="3.175" size="1.778" layer="96">&gt;VALUE</text>
<text x="-2.032" y="-4.318" size="1.524" layer="95">GND</text>
<pin name="VI" x="-10.16" y="0" length="short" direction="in"/>
<pin name="GND" x="0" y="-7.62" visible="pad" length="short" direction="pas" rot="R90"/>
<pin name="VO" x="10.16" y="0" length="short" direction="pas" rot="R180"/>
</symbol>
</symbols>
<devicesets>
<deviceset name="LD33V3" prefix="V">
<gates>
<gate name="G$1" symbol="3PIN_VOLT_STAB" x="0" y="0"/>
</gates>
<devices>
<device name="" package="TO-220H">
<connects>
<connect gate="G$1" pin="GND" pad="1"/>
<connect gate="G$1" pin="VI" pad="3"/>
<connect gate="G$1" pin="VO" pad="2 TAB"/>
</connects>
<technologies>
<technology name="">
<attribute name="V" value=""/>
</technology>
</technologies>
</device>
<device name="V" package="TO-220V">
<connects>
<connect gate="G$1" pin="GND" pad="1"/>
<connect gate="G$1" pin="VI" pad="3"/>
<connect gate="G$1" pin="VO" pad="2"/>
</connects>
<technologies>
<technology name=""/>
</technologies>
</device>
</devices>
</deviceset>
</devicesets>
</library>
</libraries>
<attributes>
</attributes>
<variantdefs>
</variantdefs>
<classes>
<class number="0" name="default" width="0" drill="0">
</class>
</classes>
<parts>
<part name="P+17" library="supply1" deviceset="V+" device=""/>
<part name="P+18" library="supply1" deviceset="VCC" device=""/>
<part name="P+1" library="supply1" deviceset="V+" device=""/>
<part name="GND5" library="supply1" deviceset="GND" device=""/>
<part name="P+2" library="supply1" deviceset="VCC" device=""/>
<part name="JP3" library="pinhead" deviceset="PINHD-1X4" device=""/>
<part name="JP4" library="pinhead" deviceset="PINHD-1X4" device=""/>
<part name="GND1" library="supply1" deviceset="GND" device=""/>
<part name="V1" library="moja_knižnica" deviceset="LD33V3" device=""/>
</parts>
<sheets>
<sheet>
<plain>
</plain>
<instances>
<instance part="P+17" gate="1" x="-203.2" y="-5.08" smashed="yes">
<attribute name="VALUE" x="-203.2" y="-2.54" size="1.778" layer="96" rot="R180"/>
</instance>
<instance part="P+18" gate="VCC" x="-124.46" y="-5.08" smashed="yes">
<attribute name="VALUE" x="-121.92" y="-2.54" size="1.778" layer="96" rot="R180"/>
</instance>
<instance part="P+1" gate="1" x="-182.88" y="15.24" smashed="yes">
<attribute name="VALUE" x="-182.88" y="17.78" size="1.778" layer="96" rot="R180"/>
</instance>
<instance part="GND5" gate="1" x="-162.56" y="2.54" smashed="yes">
<attribute name="VALUE" x="-165.1" y="0" size="1.778" layer="96"/>
</instance>
<instance part="P+2" gate="VCC" x="-182.88" y="25.4"/>
<instance part="JP3" gate="A" x="-195.58" y="10.16" rot="MR0"/>
<instance part="JP4" gate="A" x="-149.86" y="10.16"/>
<instance part="GND1" gate="1" x="-220.98" y="-30.48" smashed="yes">
<attribute name="VALUE" x="-223.52" y="-33.02" size="1.778" layer="96"/>
</instance>
<instance part="V1" gate="G$1" x="-220.98" y="-17.78"/>
</instances>
<busses>
</busses>
<nets>
<net name="GND" class="0">
<segment>
<pinref part="GND5" gate="1" pin="GND"/>
<wire x1="-152.4" y1="10.16" x2="-162.56" y2="10.16" width="0.1524" layer="91"/>
<wire x1="-162.56" y1="10.16" x2="-162.56" y2="7.62" width="0.1524" layer="91"/>
<wire x1="-162.56" y1="7.62" x2="-162.56" y2="5.08" width="0.1524" layer="91"/>
<wire x1="-152.4" y1="7.62" x2="-162.56" y2="7.62" width="0.1524" layer="91"/>
<junction x="-162.56" y="7.62"/>
<wire x1="-162.56" y1="10.16" x2="-162.56" y2="12.7" width="0.1524" layer="91"/>
<wire x1="-162.56" y1="12.7" x2="-162.56" y2="15.24" width="0.1524" layer="91"/>
<wire x1="-162.56" y1="15.24" x2="-152.4" y2="15.24" width="0.1524" layer="91"/>
<junction x="-162.56" y="10.16"/>
<wire x1="-152.4" y1="12.7" x2="-162.56" y2="12.7" width="0.1524" layer="91"/>
<junction x="-162.56" y="12.7"/>
<pinref part="JP4" gate="A" pin="1"/>
<pinref part="JP4" gate="A" pin="2"/>
<pinref part="JP4" gate="A" pin="3"/>
<pinref part="JP4" gate="A" pin="4"/>
</segment>
<segment>
<pinref part="GND1" gate="1" pin="GND"/>
<wire x1="-220.98" y1="-27.94" x2="-220.98" y2="-25.4" width="0.1524" layer="91"/>
<pinref part="V1" gate="G$1" pin="GND"/>
</segment>
</net>
<net name="VCC" class="0">
<segment>
<pinref part="P+2" gate="VCC" pin="VCC"/>
<wire x1="-182.88" y1="22.86" x2="-187.96" y2="22.86" width="0.1524" layer="91"/>
<wire x1="-187.96" y1="22.86" x2="-187.96" y2="10.16" width="0.1524" layer="91"/>
<wire x1="-187.96" y1="10.16" x2="-187.96" y2="7.62" width="0.1524" layer="91"/>
<wire x1="-193.04" y1="7.62" x2="-187.96" y2="7.62" width="0.1524" layer="91"/>
<wire x1="-187.96" y1="10.16" x2="-193.04" y2="10.16" width="0.1524" layer="91"/>
<junction x="-187.96" y="10.16"/>
<pinref part="JP3" gate="A" pin="3"/>
<pinref part="JP3" gate="A" pin="4"/>
</segment>
<segment>
<pinref part="P+18" gate="VCC" pin="VCC"/>
<wire x1="-210.82" y1="-17.78" x2="-124.46" y2="-17.78" width="0.1524" layer="91"/>
<wire x1="-124.46" y1="-17.78" x2="-124.46" y2="-7.62" width="0.1524" layer="91"/>
<pinref part="V1" gate="G$1" pin="VO"/>
</segment>
</net>
<net name="V+" class="0">
<segment>
<pinref part="P+1" gate="1" pin="V+"/>
<wire x1="-182.88" y1="7.62" x2="-182.88" y2="12.7" width="0.1524" layer="91"/>
<wire x1="-193.04" y1="12.7" x2="-185.42" y2="12.7" width="0.1524" layer="91"/>
<wire x1="-185.42" y1="12.7" x2="-185.42" y2="7.62" width="0.1524" layer="91"/>
<wire x1="-185.42" y1="7.62" x2="-182.88" y2="7.62" width="0.1524" layer="91"/>
<wire x1="-193.04" y1="15.24" x2="-185.42" y2="15.24" width="0.1524" layer="91"/>
<wire x1="-185.42" y1="15.24" x2="-185.42" y2="12.7" width="0.1524" layer="91"/>
<junction x="-185.42" y="12.7"/>
<pinref part="JP3" gate="A" pin="2"/>
<pinref part="JP3" gate="A" pin="1"/>
</segment>
<segment>
<pinref part="P+17" gate="1" pin="V+"/>
<wire x1="-203.2" y1="-7.62" x2="-205.74" y2="-7.62" width="0.1524" layer="91"/>
<wire x1="-205.74" y1="-7.62" x2="-205.74" y2="-10.16" width="0.1524" layer="91"/>
<wire x1="-205.74" y1="-10.16" x2="-231.14" y2="-10.16" width="0.1524" layer="91"/>
<wire x1="-231.14" y1="-10.16" x2="-231.14" y2="-17.78" width="0.1524" layer="91"/>
<pinref part="V1" gate="G$1" pin="VI"/>
</segment>
</net>
</nets>
</sheet>
</sheets>
</schematic>
</drawing>
</eagle>
