<?xml version="1.0" standalone="no"?>
 <!DOCTYPE svg PUBLIC "-//W3C//DTD SVG 1.1//EN" 
 "http://www.w3.org/Graphics/SVG/1.1/DTD/svg11.dtd"> 
<svg xmlns="http://www.w3.org/2000/svg" version="1.1" 
    width="6.5659cm" height="2.3622cm" viewBox="0 0 25850 9300 ">
<title>SVG Picture created as untitled-B_Adhes.svg date 2014/10/30 00:47:55 </title>
  <desc>Picture generated by PCBNEW </desc>
<g style="fill:#000000; fill-opacity:1;stroke:#000000; stroke-opacity:1;
stroke-linecap:round; stroke-linejoin:round; "
 transform="translate(0 0) scale(1 1)">
</g>
<g style="fill:#000000; fill-opacity:0.0; 
stroke:#000000; stroke-width:0; stroke-opacity:1; 
stroke-linecap:round; stroke-linejoin:round;">
<path d="M359 8865
L25851 8865
" />
<path d="M25851 8865
L25851 494
" />
<path d="M25851 494
L359 494
" />
<path d="M359 494
L359 8865
" />
</g> 
</svg>
