EESchema Schematic File Version 2
LIBS:burr-brown
LIBS:con-amp
LIBS:diode
LIBS:led
LIBS:opto-trans-siemens
LIBS:rcl
LIBS:resistor
LIBS:st-microelectronics
EELAYER 24 0
EELAYER END
$Descr A4 11700 8267
encoding utf-8
Sheet 1 1
Title "untitled.sch"
Date "30 OCT 2014"
Rev ""
Comp ""
Comment1 ""
Comment2 ""
Comment3 ""
Comment4 ""
$EndDescr
$Comp
L RCL_C-EU025-025X050 C1
U 1 1 5451817C
P 900 9400
F 0 "C1" H 960 9415 70 0000 L BNN
F 1 "" H 890 9290 70 0001 L TNN
F 2 "RCL_C025-025X050" H 890 9190 70 0001 L TNN
	1    900  9400
	1 0 0 -1
$EndComp
$Comp
L RCL_C-EU025-025X050 C2
U 1 1 5451817C
P 1400 9400
F 0 "C2" H 1460 9415 70 0000 L BNN
F 1 "" H 1390 9290 70 0001 L TNN
F 2 "RCL_C025-025X050" H 1390 9190 70 0001 L TNN
	1    1400 9400
	1 0 0 -1
$EndComp
$Comp
L RCL_C-EU025-025X050 C3
U 1 1 5451817C
P 3400 8100
F 0 "C3" H 3385 8160 70 0000 L BNN
F 1 "" H 3390 7990 70 0001 L TNN
F 2 "RCL_C025-025X050" H 3390 7890 70 0001 L TNN
	1    3400 8100
	0 -1 -1 0
$EndComp
$Comp
L RCL_C-EU025-025X050 C4
U 1 1 5451817C
P 4700 9500
F 0 "C4" H 4760 9515 70 0000 L BNN
F 1 "" H 4690 9390 70 0001 L TNN
F 2 "RCL_C025-025X050" H 4690 9290 70 0001 L TNN
	1    4700 9500
	1 0 0 -1
$EndComp
$Comp
L DIODE_1N4148DO35-7 D1
U 1 1 5451817C
P 4100 9300
F 0 "D1" H 4000 9281 70 0000 L BNN
F 1 "1N4148DO35-7" H 4000 9391 70 0000 L BNN
F 2 "DIODE_DO35-7" H 4090 9090 70 0001 L TNN
	1    4100 9300
	-1 0 0 1
$EndComp
$Comp
L LED_SFH482 D2
U 1 1 5451817C
P 2100 9300
F 0 "D2" V 2240 9120 70 0000 L BNN
F 1 "SFH482" V 2325 9120 70 0000 L BNN
F 2 "SFH482" V 2325 9120 70 0000 L BNN
	1    2100 9300
	1 0 0 -1
$EndComp
$Comp
L ST-MICROELECTRONICS_NE555 IC1
U 1 1 5451817C
P 1600 8200
F 0 "IC1" H 1900 7750 70 0000 L BNN
F 1 "NE555" H 1900 8700 70 0000 L BNN
F 2 "ST-MICROELECTRONICS_DIL-08" H 1590 7990 70 0001 L TNN
	1    1600 8200
	-1 0 0 1
$EndComp
$Comp
L BURR-BROWN_OPA2130P IC2
U 1 1 5451817C
P 6100 9400
F 0 "IC2A" H 6200 9625 70 0000 L BNN
F 1 "OPA2130P" H 6200 9200 70 0000 L BNN
F 2 "BURR-BROWN_DIL08" H 6090 9190 70 0001 L TNN
F 5 "V+" V 6050 9575 32 0000 L BNN
F 6 "V-" V 6050 9175 32 0000 L BNN
	1    6100 9400
	1 0 0 -1
$EndComp
$Comp
L BURR-BROWN_OPA2130P IC2
U 1 1 5451817C
P 3500 9300
F 0 "IC2B" H 3600 9525 70 0000 L BNN
F 1 "OPA2130P" H 3600 9100 70 0000 L BNN
F 2 "BURR-BROWN_DIL08" H 3490 9090 70 0001 L TNN
	1    3500 9300
	1 0 0 -1
$EndComp
$Comp
L CON-AMP_MTA02-100 J1
U 1 1 5451817C
P 2700 6700
F 0 "J1" H 2900 6700 70 0000 L BNN
F 1 "" H 2690 6590 70 0001 L TNN
F 2 "CON-AMP_10X02MTA" H 2690 6490 70 0001 L TNN
F 4 "1" H 2600 6650 50 0000 L BNN
	1    2700 6700
	1 0 0 -1
$EndComp
$Comp
L CON-AMP_MTA02-100 J2
U 1 1 5451817C
P 900 6700
F 0 "J2" H 1100 6700 70 0000 L BNN
F 1 "" H 890 6590 70 0001 L TNN
F 2 "CON-AMP_10X02MTA" H 890 6490 70 0001 L TNN
F 4 "1" H 800 6650 50 0000 L BNN
	1    900  6700
	1 0 0 -1
$EndComp
$Comp
L RESISTOR_L-EU0204/7 L1
U 1 1 5451817C
P 3500 8600
F 0 "L1" V 3650 8541 70 0000 L BNN
F 1 "" H 3490 8490 70 0001 L TNN
F 2 "RESISTOR_0204/7" H 3490 8390 70 0001 L TNN
	1    3500 8600
	0 -1 -1 0
$EndComp
$Comp
L LED_TLLG4400 LED1
U 1 1 5451817C
P 7600 9400
F 0 "LED1" V 7780 9540 70 0000 L BNN
F 1 "TLLG4400" V 7780 9625 70 0000 L BNN
F 2 "LED_LED3MM" H 7590 9190 70 0001 L TNN
	1    7600 9400
	0 -1 -1 0
$EndComp
$Comp
L OPTO-TRANS-SIEMENS_BPX81 Q1
U 1 1 5451817C
P 2600 8900
F 0 "Q1" H 2800 9000 70 0000 L BNN
F 1 "BPX81" H 2800 8900 70 0000 L BNN
F 2 "BPX81" H 2800 8900 70 0000 L BNN
	1    2600 8900
	1 0 0 -1
$EndComp
$Comp
L RCL_R-TRIMM3339P R1
U 1 1 5451817C
P 900 8800
F 0 "R1" V 1135 8950 70 0000 L BNN
F 1 "" H 890 8690 70 0001 L TNN
F 2 "RCL_RTRIM3339P" H 890 8590 70 0001 L TNN
	1    900  8800
	-1 0 0 1
$EndComp
$Comp
L RESISTOR_R-EU_0204/7 R2
U 1 1 5451817C
P 900 8000
F 0 "R2" H 841 7850 70 0000 L BNN
F 1 "" H 890 7890 70 0001 L TNN
F 2 "RESISTOR_0204/7" H 890 7790 70 0001 L TNN
	1    900  8000
	0 -1 -1 0
$EndComp
$Comp
L RESISTOR_R-EU_0204/7 R3
U 1 1 5451817C
P 2100 8900
F 0 "R3" H 2041 8750 70 0000 L BNN
F 1 "" H 2090 8790 70 0001 L TNN
F 2 "RESISTOR_0204/7" H 2090 8690 70 0001 L TNN
	1    2100 8900
	0 -1 -1 0
$EndComp
$Comp
L RESISTOR_R-EU_0204/7 R4
U 1 1 5451817C
P 2700 8000
F 0 "R4" H 2641 7850 70 0000 L BNN
F 1 "" H 2690 7890 70 0001 L TNN
F 2 "RESISTOR_0204/7" H 2690 7790 70 0001 L TNN
	1    2700 8000
	0 -1 -1 0
$EndComp
$Comp
L RCL_R-TRIMM3339P R5
U 1 1 5451817C
P 3500 7500
F 0 "R5" V 3650 7265 70 0000 L BNN
F 1 "" H 3490 7390 70 0001 L TNN
F 2 "RCL_RTRIM3339P" H 3490 7290 70 0001 L TNN
	1    3500 7500
	0 -1 -1 0
$EndComp
$Comp
L RESISTOR_R-EU_0204/7 R6
U 1 1 5451817C
P 5100 9500
F 0 "R6" H 5041 9350 70 0000 L BNN
F 1 "" H 5090 9390 70 0001 L TNN
F 2 "RESISTOR_0204/7" H 5090 9290 70 0001 L TNN
	1    5100 9500
	0 -1 -1 0
$EndComp
$Comp
L RCL_R-TRIMM3339P R7
U 1 1 5451817C
P 6100 10000
F 0 "R7" V 6250 9765 70 0000 L BNN
F 1 "" H 6090 9890 70 0001 L TNN
F 2 "RCL_RTRIM3339P" H 6090 9790 70 0001 L TNN
	1    6100 10000
	0 -1 -1 0
$EndComp
$Comp
L RESISTOR_R-EU_0204/7 R8
U 1 1 5451817C
P 7100 9400
F 0 "R8" H 7250 9341 70 0000 L BNN
F 1 "" H 7090 9290 70 0001 L TNN
F 2 "RESISTOR_0204/7" H 7090 9190 70 0001 L TNN
	1    7100 9400
	-1 0 0 1
$EndComp
Wire Wire Line
	900 6800 900 6900
Wire Wire Line
	900 6900 900 7800
Wire Wire Line
	900 6900 1100 6900
Wire Wire Line
	1100 6900 1100 8400
Wire Wire Line
	1100 8400 1200 8400
Wire Wire Line
	1200 8500 1100 8500
Wire Wire Line
	1100 8500 1100 8400
Connection ~ 900 6900
Connection ~ 1100 8400
Wire Wire Line
	900 9000 900 8400
Wire Wire Line
	900 8400 900 8200
Wire Wire Line
	700 8800 700 8400
Wire Wire Line
	700 8400 900 8400
Connection ~ 900 8400
Wire Wire Line
	4500 9300 4000 9300
Wire Wire Line
	3800 9300 3900 9300
Wire Wire Line
	3900 9300 4000 9300
Wire Wire Line
	3900 9300 3900 8600
Wire Wire Line
	3900 8600 3700 8600
Wire Wire Line
	3900 8600 3900 8100
Wire Wire Line
	3900 8100 3600 8100
Wire Wire Line
	3900 8100 3900 7500
Wire Wire Line
	3900 7500 3300 7500
Wire Wire Line
	3500 7300 3900 7300
Wire Wire Line
	3900 7300 3900 7500
Connection ~ 3900 9300
Connection ~ 3900 8600
Connection ~ 3900 8100
Connection ~ 3900 7500
Wire Wire Line
	900 8600 900 9100
Wire Wire Line
	900 9100 2000 9100
Wire Wire Line
	2000 9100 2000 8500
Wire Wire Line
	2000 8500 2100 8500
Wire Wire Line
	2100 8500 2100 7900
Wire Wire Line
	2100 7900 2000 7900
Wire Wire Line
	900 9100 900 9300
Connection ~ 2000 8500
Connection ~ 900 9100
Wire Wire Line
	900 9600 1400 9600
Wire Wire Line
	1400 9600 1600 9600
Wire Wire Line
	1600 9600 1600 7700
Wire Wire Line
	1600 7700 1200 7700
Wire Wire Line
	1200 7700 1200 7900
Wire Wire Line
	1600 9600 2100 9600
Wire Wire Line
	2100 9600 2100 9500
Wire Wire Line
	2100 9600 2300 9600
Wire Wire Line
	2300 9600 2300 6800
Wire Wire Line
	2300 6800 1000 6800
Connection ~ 1400 9600
Connection ~ 1600 9600
Connection ~ 2100 9600
Wire Wire Line
	1400 9300 1000 9300
Wire Wire Line
	1000 9300 1000 8000
Wire Wire Line
	1000 8000 1200 8000
Wire Wire Line
	2100 9200 2100 9100
Wire Wire Line
	2100 8700 1200 8700
Wire Wire Line
	1200 8700 1200 8200
Wire Wire Line
	2700 8700 2700 8200
Wire Wire Line
	2700 7800 2700 6900
Wire Wire Line
	2700 6900 2700 6800
Wire Wire Line
	6000 9100 6000 6900
Wire Wire Line
	6000 6900 2700 6900
Connection ~ 2700 6900
Wire Wire Line
	3300 8600 3300 8100
Wire Wire Line
	3300 8100 3700 7500
Wire Wire Line
	2700 9100 3100 9100
Wire Wire Line
	3100 9100 3100 8600
Wire Wire Line
	3100 8600 3300 8600
Wire Wire Line
	3100 9100 3100 9400
Wire Wire Line
	3100 9400 3200 9400
Connection ~ 3300 8100
Connection ~ 3300 8600
Connection ~ 3100 9100
Wire Wire Line
	4200 9300 4700 9300
Wire Wire Line
	4700 9300 4700 9400
Wire Wire Line
	4700 9300 5100 9300
Wire Wire Line
	5100 9300 5700 9300
Wire Wire Line
	5700 9300 5700 9500
Wire Wire Line
	5700 9500 5800 9500
Connection ~ 4700 9300
Connection ~ 5100 9300
Wire Wire Line
	5900 10000 6300 9700
Wire Wire Line
	6300 9700 6000 9700
Wire Wire Line
	5900 10000 6600 10000
Wire Wire Line
	7800 9400 8000 9400
Wire Wire Line
	8000 9400 8000 9900
Wire Wire Line
	8000 9900 6600 9900
Wire Wire Line
	6600 9900 6600 10000
Connection ~ 5900 10000
Wire Wire Line
	6100 9800 5800 9800
Wire Wire Line
	5800 9800 5800 9300
Wire Wire Line
	6300 10000 5100 10000
Wire Wire Line
	5100 10000 5100 9700
Wire Wire Line
	5100 10000 4700 10000
Wire Wire Line
	4700 10000 4700 9700
Wire Wire Line
	4700 10000 2800 10000
Wire Wire Line
	2800 10000 2800 9200
Wire Wire Line
	2800 9200 2800 6800
Wire Wire Line
	3200 9200 2800 9200
Connection ~ 5100 10000
Connection ~ 4700 10000
Connection ~ 2800 9200
Wire Wire Line
	6400 9400 6900 9400
Wire Wire Line
	7300 9400 7500 9400
$EndSCHEMATC
