Netlist

Exported from untitled.sch at 28. 10. 2014 19:43:47

EAGLE Version 6.3.0 Copyright (c) 1988-2012 CadSoft

Net      Part     Pad      Pin        Sheet

+18V     IC2      1        VI         1
         JP1      1        1          1

GND      IC2      2        GND        1
         IC4      4        GND        * none *
         JP1      3        3          1
         JP1      7        7          1
         U$1      8        GND        1

N$1      JP1      2        2          1
         U$1      1        PC6(/RESET) 1

N$2      JP1      4        4          1
         U$1      2        PD0(RXD)   1

N$3      IC3      16       16         1
         JP1      6        6          1
         R1       2        2          1
         T2       C        C          1
         U$1      3        PD1(TXD)   1

N$4      IC3      1        1          1
         U$1      28       PC5(ADC5/SCL) 1

N$5      IC2      3        VO         1
         JP1      5        5          1

N$6      IC3      2        2          1
         U$1      27       PC4(ADC4/SDA) 1

N$7      IC3      3        3          1
         U$1      26       PC3(ADC3)  1

N$8      IC3      4        4          1
         U$1      25       PC2(ADC2)  1

N$9      IC3      5        5          1
         U$1      24       PC1(ADC1)  1

N$10     IC3      6        6          1
         U$1      23       PC0(ADC0)  1

N$11     IC3      7        7          1
         U$1      18       PB4(MISO)  1

N$12     T2       B        B          1
         U$1      4        PD2(INT0)  1

N$13     IC3      9        9          1
         U$1      17       PB3(MOSI/OC2) 1

N$14     IC3      10       10         1
         U$1      16       PB2(SS/OC1B) 1

N$15     IC3      11       11         1
         U$1      15       PB1(OC1A)  1

N$16     IC3      12       12         1
         U$1      14       PB0(ICP)   1

N$17     IC3      13       13         1
         U$1      13       PD7(AIN1)  1

N$18     IC3      14       14         1
         U$1      12       PD6(AIN0)  1

N$19     IC3      15       15         1
         U$1      11       PD5(T1)    1

N$20     IC3      8        8          1
         T1       C        C          1
         U$1      19       PB5(SCK)   1

N$21     R1       1        1          1
         T1       B        B          1

N$22     T1       E        E          1
         U$1      22       GND        1

VCC      IC4      12       VCC        * none *
         U$1      7        VCC        1

