EESchema Schematic File Version 1
LIBS:74ac-logic,ic-package,jumper,linear,moja2,rcl,supply1,transistor,transistor-neu-to92
EELAYER 23 0
EELAYER END
$Descr A4 11700 8267
Sheet 1 1
Title "untitled.sch"
Date "28 OCT 2014"
Rev ""
Comp ""
Comment1 ""
Comment2 ""
Comment3 ""
Comment4 ""
$EndDescr

$Comp
L DIL16 IC1
U 1 1 544ED526
P -9600 126600
F 0 "IC1" H -15200 -138600 2240 0000 L B
F 2 "DIL16" V -9600 -126600 70 0000 L T
	1    -9600 -126600
	1    0    0    -1  
$EndComp

$Comp
L 786TV IC2
U 1 1 544ED526
P -96000 17800
F 0 "IC2" H -105600 -25000 2240 0000 L B
F 1 "786TV" H -105600 -21800 2240 0000 L B
F 2 "GND" H -98560 -12360 1920 0000 L B
F 2 "TO220V" V -96000 -17800 70 0000 L T
	1    -96000 -17800
	1    0    0    -1  
$EndComp

$Comp
L DIL16 IC3
U 1 1 544ED526
P 51200 14600
F 0 "IC3" H 45600 -26600 2240 0000 L B
F 2 "DIL16" V 51200 -14600 70 0000 L T
	1    51200 -14600
	1    0    0    -1  
$EndComp

$Comp
L 74AC11238 IC4
U 1 1 544ED526
P -72000 126600
F 0 "IC4" H -84800 -140200 2240 0000 L B
F 1 "74AC11238" H -84800 -107400 2240 0000 L B
F 2 "DIL16" V -72000 -126600 70 0000 L T
	1    -72000 -126600
	1    0    0    -1  
$EndComp

$Comp
L JP4Q JP1
U 1 1 544ED526
P -51200 21000
F 0 "JP1" H -57600 -27400 2240 0000 L B
F 2 "JP4Q" V -51200 -21000 70 0000 L T
	1    -51200 -21000
	1    0    0    -1  
$EndComp

$Comp
L R-EU_0411_15 R1
U 1 1 544ED526
P 46400 30600
F 0 "R1" H 41600 -32488 2240 0000 L B
F 2 "0411/15" V 46400 -30600 70 0000 L T
	1    46400 -30600
	1    0    0    -1  
$EndComp

$Comp
L BC817-16-NPN-SOT23-BEC T1
U 1 1 544ED526
P 35200 -17400
F 0 "T1" H 22400 7800 2240 0000 L B
F 2 "SOT23-BEC" V 35200 17400 70 0000 L T
	1    35200 17400
	1    0    0    -1  
$EndComp

$Comp
L BC807-16-PNP-SOT23-BEC T2
U 1 1 544ED526
P 73600 41800
F 0 "T2" H 60800 -51400 2240 0000 L B
F 2 "SOT23-BEC" V 73600 -41800 70 0000 L T
	1    73600 -41800
	1    0    0    -1  
$EndComp

$Comp
L BC807-16-PNP-SOT23-BEC T3
U 1 1 544ED526
P 3200 163400
F 0 "T3" H -9600 -173000 2240 0000 L B
F 2 "SOT23-BEC" V 3200 -163400 70 0000 L T
	1    3200 -163400
	1    0    0    -1  
$EndComp

$Comp
L BC817-16-NPN-SOT23-BEC T4
U 1 1 544ED526
P -9600 163400
F 0 "T4" H -22400 -173000 2240 0000 L B
F 2 "SOT23-BEC" V -9600 -163400 70 0000 L T
	1    -9600 -163400
	1    0    0    -1  
$EndComp

$Comp
L MEGA8-ABS U$1
U 1 1 544ED526
P 0 -11000
F 0 "U$1" H -25600 55800 2240 0000 L B
F 1 "MEGA8-ABS" H -25600 -29000 2240 0000 L B
F 2 "DIL28-3" V 0 11000 70 0000 L T
	1    0    11000
	1    0    0    -1  
$EndComp

Wire Wire Line
-60800 -24200 -70400 -24200
Wire Wire Line
-70400 -24200 -70400 -30600
Wire Wire Line
-70400 -30600 -70400 -40200
Wire Wire Line
-108800 -17800 -112000 -17800
Wire Wire Line
-112000 -17800 -112000 -30600
Wire Wire Line
-112000 -30600 -70400 -30600
Connection ~ -70400 -30600
Wire Wire Line
-60800 -14600 -64000 -14600
Wire Wire Line
-64000 -14600 -64000 -11400
Wire Wire Line
-60800 -21000 -70400 -21000
Wire Wire Line
-70400 -21000 -70400 -14600
Wire Wire Line
-70400 -14600 -70400 -11400
Wire Wire Line
-96000 -8200 -96000 -1800
Wire Wire Line
-96000 -1800 -76800 -1800
Wire Wire Line
-76800 -1800 -76800 -14600
Wire Wire Line
-76800 -14600 -70400 -14600
Connection ~ -70400 -14600
Wire Wire Line
-41600 -24200 -32000 -24200
Wire Wire Line
-41600 -21000 -32000 -21000
Wire Wire Line
-32000 -21000 -32000 -17800
Wire Wire Line
-32000 -14600 -38400 -14600
Wire Wire Line
-38400 -14600 -38400 -17800
Wire Wire Line
-38400 -17800 -41600 -17800
Wire Wire Line
-38400 -14600 -38400 -11400
Wire Wire Line
-38400 -11400 -48000 -11400
Wire Wire Line
-48000 -11400 -48000 68600
Wire Wire Line
-48000 68600 86400 68600
Wire Wire Line
86400 68600 86400 -24200
Wire Wire Line
86400 -24200 76800 -24200
Wire Wire Line
76800 -24200 60800 -24200
Wire Wire Line
76800 -35400 76800 -30600
Wire Wire Line
76800 -30600 76800 -24200
Wire Wire Line
76800 -30600 52800 -30600
Connection ~ -38400 -14600
Connection ~ 76800 -24200
Connection ~ 76800 -30600
Wire Wire Line
28800 -24200 41600 -24200
Wire Wire Line
-83200 -17800 -60800 -17800
Wire Wire Line
41600 -21000 28800 -21000
Wire Wire Line
41600 -17800 28800 -17800
Wire Wire Line
41600 -14600 28800 -14600
Wire Wire Line
41600 -11400 28800 -11400
Wire Wire Line
41600 -8200 28800 -8200
Wire Wire Line
28800 36600 49600 36600
Wire Wire Line
49600 36600 49600 -6600
Wire Wire Line
41600 -5000 36800 -5000
Wire Wire Line
49600 -6600 36800 -6600
Wire Wire Line
36800 -6600 36800 -5000
Wire Wire Line
-32000 -11400 -35200 -11400
Wire Wire Line
-35200 -11400 -35200 -40200
Wire Wire Line
-35200 -40200 -33600 -41800
Wire Wire Line
-33600 -41800 70400 -41800
Wire Wire Line
28800 39800 64000 39800
Wire Wire Line
64000 39800 64000 -1800
Wire Wire Line
64000 -1800 60800 -1800
Wire Wire Line
28800 43000 67200 43000
Wire Wire Line
67200 43000 67200 -5000
Wire Wire Line
67200 -5000 60800 -5000
Wire Wire Line
28800 46200 70400 46200
Wire Wire Line
70400 46200 70400 -8200
Wire Wire Line
70400 -8200 60800 -8200
Wire Wire Line
-32000 27000 -35200 27000
Wire Wire Line
-35200 27000 -35200 55800
Wire Wire Line
-35200 55800 73600 55800
Wire Wire Line
73600 55800 73600 -11400
Wire Wire Line
73600 -11400 60800 -11400
Wire Wire Line
-32000 23800 -38400 23800
Wire Wire Line
-38400 23800 -38400 59000
Wire Wire Line
-38400 59000 76800 59000
Wire Wire Line
76800 59000 76800 -14600
Wire Wire Line
76800 -14600 60800 -14600
Wire Wire Line
-32000 20600 -41600 20600
Wire Wire Line
-41600 20600 -41600 62200
Wire Wire Line
-41600 62200 80000 62200
Wire Wire Line
80000 62200 80000 -17800
Wire Wire Line
80000 -17800 60800 -17800
Wire Wire Line
-32000 17400 -44800 17400
Wire Wire Line
-44800 17400 -44800 65400
Wire Wire Line
-44800 65400 83200 65400
Wire Wire Line
83200 65400 83200 -21000
Wire Wire Line
83200 -21000 60800 -21000
Wire Wire Line
28800 33400 41600 33400
Wire Wire Line
41600 33400 41600 6200
Wire Wire Line
41600 -1800 38400 -1800
Wire Wire Line
38400 11000 38400 6200
Wire Wire Line
38400 6200 38400 -1800
Wire Wire Line
41600 6200 38400 6200
Connection ~ 38400 6200
Wire Wire Line
40000 -30600 30400 -30600
Wire Wire Line
30400 -30600 30400 17400
Wire Wire Line
30400 17400 32000 17400
Wire Wire Line
38400 23800 28800 23800
Wire Wire Line
28800 23800 28800 11000
Wire Wire Line
28800 11000 32000 11000
Wire Wire Line
32000 11000 32000 1400
Wire Wire Line
32000 1400 28800 1400
$EndSCHEMATC
