<?xml version="1.0" encoding="utf-8"?>
<!DOCTYPE eagle SYSTEM "eagle.dtd">
<eagle version="7.4.0">
<drawing>
<settings>
<setting alwaysvectorfont="no"/>
<setting verticaltext="up"/>
</settings>
<grid distance="0.1" unitdist="inch" unit="inch" style="lines" multiple="1" display="no" altdistance="0.01" altunitdist="inch" altunit="inch"/>
<layers>
<layer number="1" name="Top" color="4" fill="1" visible="no" active="no"/>
<layer number="2" name="Route2" color="1" fill="3" visible="no" active="no"/>
<layer number="3" name="Route3" color="4" fill="3" visible="no" active="no"/>
<layer number="4" name="Route4" color="1" fill="4" visible="no" active="no"/>
<layer number="5" name="Route5" color="4" fill="4" visible="no" active="no"/>
<layer number="6" name="Route6" color="1" fill="8" visible="no" active="no"/>
<layer number="7" name="Route7" color="4" fill="8" visible="no" active="no"/>
<layer number="8" name="Route8" color="1" fill="2" visible="no" active="no"/>
<layer number="9" name="Route9" color="4" fill="2" visible="no" active="no"/>
<layer number="10" name="Route10" color="1" fill="7" visible="no" active="no"/>
<layer number="11" name="Route11" color="4" fill="7" visible="no" active="no"/>
<layer number="12" name="Route12" color="1" fill="5" visible="no" active="no"/>
<layer number="13" name="Route13" color="4" fill="5" visible="no" active="no"/>
<layer number="14" name="Route14" color="1" fill="6" visible="no" active="no"/>
<layer number="15" name="Route15" color="4" fill="6" visible="no" active="no"/>
<layer number="16" name="Bottom" color="1" fill="1" visible="no" active="no"/>
<layer number="17" name="Pads" color="2" fill="1" visible="no" active="no"/>
<layer number="18" name="Vias" color="2" fill="1" visible="no" active="no"/>
<layer number="19" name="Unrouted" color="6" fill="1" visible="no" active="no"/>
<layer number="20" name="Dimension" color="15" fill="1" visible="no" active="no"/>
<layer number="21" name="tPlace" color="7" fill="1" visible="no" active="no"/>
<layer number="22" name="bPlace" color="7" fill="1" visible="no" active="no"/>
<layer number="23" name="tOrigins" color="15" fill="1" visible="no" active="no"/>
<layer number="24" name="bOrigins" color="15" fill="1" visible="no" active="no"/>
<layer number="25" name="tNames" color="7" fill="1" visible="no" active="no"/>
<layer number="26" name="bNames" color="7" fill="1" visible="no" active="no"/>
<layer number="27" name="tValues" color="7" fill="1" visible="no" active="no"/>
<layer number="28" name="bValues" color="7" fill="1" visible="no" active="no"/>
<layer number="29" name="tStop" color="7" fill="3" visible="no" active="no"/>
<layer number="30" name="bStop" color="7" fill="6" visible="no" active="no"/>
<layer number="31" name="tCream" color="7" fill="4" visible="no" active="no"/>
<layer number="32" name="bCream" color="7" fill="5" visible="no" active="no"/>
<layer number="33" name="tFinish" color="6" fill="3" visible="no" active="no"/>
<layer number="34" name="bFinish" color="6" fill="6" visible="no" active="no"/>
<layer number="35" name="tGlue" color="7" fill="4" visible="no" active="no"/>
<layer number="36" name="bGlue" color="7" fill="5" visible="no" active="no"/>
<layer number="37" name="tTest" color="7" fill="1" visible="no" active="no"/>
<layer number="38" name="bTest" color="7" fill="1" visible="no" active="no"/>
<layer number="39" name="tKeepout" color="4" fill="11" visible="no" active="no"/>
<layer number="40" name="bKeepout" color="1" fill="11" visible="no" active="no"/>
<layer number="41" name="tRestrict" color="4" fill="10" visible="no" active="no"/>
<layer number="42" name="bRestrict" color="1" fill="10" visible="no" active="no"/>
<layer number="43" name="vRestrict" color="2" fill="10" visible="no" active="no"/>
<layer number="44" name="Drills" color="7" fill="1" visible="no" active="no"/>
<layer number="45" name="Holes" color="7" fill="1" visible="no" active="no"/>
<layer number="46" name="Milling" color="3" fill="1" visible="no" active="no"/>
<layer number="47" name="Measures" color="7" fill="1" visible="no" active="no"/>
<layer number="48" name="Document" color="7" fill="1" visible="no" active="no"/>
<layer number="49" name="Reference" color="7" fill="1" visible="no" active="no"/>
<layer number="50" name="dxf" color="7" fill="1" visible="no" active="no"/>
<layer number="51" name="tDocu" color="7" fill="1" visible="no" active="no"/>
<layer number="52" name="bDocu" color="7" fill="1" visible="no" active="no"/>
<layer number="53" name="tGND_GNDA" color="7" fill="9" visible="no" active="no"/>
<layer number="54" name="bGND_GNDA" color="1" fill="9" visible="no" active="no"/>
<layer number="56" name="wert" color="7" fill="1" visible="no" active="no"/>
<layer number="90" name="Modules" color="5" fill="1" visible="yes" active="yes"/>
<layer number="91" name="Nets" color="2" fill="1" visible="yes" active="yes"/>
<layer number="92" name="Busses" color="1" fill="1" visible="yes" active="yes"/>
<layer number="93" name="Pins" color="2" fill="1" visible="no" active="yes"/>
<layer number="94" name="Symbols" color="4" fill="1" visible="yes" active="yes"/>
<layer number="95" name="Names" color="7" fill="1" visible="yes" active="yes"/>
<layer number="96" name="Values" color="7" fill="1" visible="yes" active="yes"/>
<layer number="97" name="Info" color="7" fill="1" visible="yes" active="yes"/>
<layer number="98" name="Guide" color="6" fill="1" visible="yes" active="yes"/>
<layer number="100" name="NonViaHole" color="14" fill="1" visible="no" active="yes"/>
<layer number="101" name="PlacementGuide" color="7" fill="1" visible="no" active="yes"/>
<layer number="102" name="Vscore" color="7" fill="1" visible="no" active="yes"/>
<layer number="103" name="tMap" color="7" fill="1" visible="no" active="yes"/>
<layer number="104" name="Name" color="16" fill="1" visible="no" active="yes"/>
<layer number="105" name="tPlate" color="7" fill="1" visible="no" active="yes"/>
<layer number="106" name="bPlate" color="7" fill="1" visible="no" active="yes"/>
<layer number="107" name="Crop" color="7" fill="1" visible="no" active="yes"/>
<layer number="108" name="tplace-old" color="10" fill="1" visible="no" active="yes"/>
<layer number="109" name="ref-old" color="11" fill="1" visible="no" active="yes"/>
<layer number="116" name="Patch_BOT" color="9" fill="4" visible="no" active="yes"/>
<layer number="121" name="_tsilk" color="7" fill="1" visible="no" active="yes"/>
<layer number="122" name="_bsilk" color="7" fill="1" visible="no" active="yes"/>
<layer number="125" name="_tNames" color="7" fill="1" visible="no" active="yes"/>
<layer number="144" name="Drill_legend" color="7" fill="1" visible="no" active="yes"/>
<layer number="151" name="HeatSink" color="7" fill="1" visible="no" active="yes"/>
<layer number="199" name="Contour" color="7" fill="1" visible="no" active="yes"/>
<layer number="200" name="200bmp" color="1" fill="10" visible="no" active="yes"/>
<layer number="201" name="201bmp" color="2" fill="10" visible="no" active="yes"/>
<layer number="202" name="202bmp" color="3" fill="10" visible="no" active="yes"/>
<layer number="203" name="203bmp" color="4" fill="10" visible="no" active="yes"/>
<layer number="204" name="204bmp" color="5" fill="10" visible="no" active="yes"/>
<layer number="205" name="205bmp" color="6" fill="10" visible="no" active="yes"/>
<layer number="206" name="206bmp" color="7" fill="10" visible="no" active="yes"/>
<layer number="207" name="207bmp" color="8" fill="10" visible="no" active="yes"/>
<layer number="208" name="208bmp" color="9" fill="10" visible="no" active="yes"/>
<layer number="209" name="209bmp" color="7" fill="1" visible="no" active="yes"/>
<layer number="210" name="210bmp" color="7" fill="1" visible="no" active="yes"/>
<layer number="211" name="211bmp" color="7" fill="1" visible="no" active="yes"/>
<layer number="212" name="212bmp" color="7" fill="1" visible="no" active="yes"/>
<layer number="213" name="213bmp" color="7" fill="1" visible="no" active="yes"/>
<layer number="214" name="214bmp" color="7" fill="1" visible="no" active="yes"/>
<layer number="215" name="215bmp" color="7" fill="1" visible="no" active="yes"/>
<layer number="216" name="216bmp" color="7" fill="1" visible="no" active="yes"/>
<layer number="217" name="217bmp" color="18" fill="1" visible="no" active="no"/>
<layer number="218" name="218bmp" color="19" fill="1" visible="no" active="no"/>
<layer number="219" name="219bmp" color="20" fill="1" visible="no" active="no"/>
<layer number="220" name="220bmp" color="21" fill="1" visible="no" active="no"/>
<layer number="221" name="221bmp" color="22" fill="1" visible="no" active="no"/>
<layer number="222" name="222bmp" color="23" fill="1" visible="no" active="no"/>
<layer number="223" name="223bmp" color="24" fill="1" visible="no" active="no"/>
<layer number="224" name="224bmp" color="25" fill="1" visible="no" active="no"/>
<layer number="231" name="Eagle3D_PG1" color="7" fill="1" visible="no" active="yes"/>
<layer number="232" name="Eagle3D_PG2" color="7" fill="1" visible="no" active="yes"/>
<layer number="233" name="Eagle3D_PG3" color="7" fill="1" visible="no" active="yes"/>
<layer number="250" name="Descript" color="7" fill="1" visible="no" active="yes"/>
<layer number="251" name="SMDround" color="7" fill="1" visible="no" active="yes"/>
<layer number="254" name="OrgLBR" color="7" fill="1" visible="no" active="yes"/>
</layers>
<schematic xreflabel="%F%N/%S.%C%R" xrefpart="/%S.%C%R">
<libraries>
<library name="maxim">
<description>&lt;b&gt;Maxim Components&lt;/b&gt;&lt;p&gt;

&lt;author&gt;Created by librarian@cadsoft.de&lt;/author&gt;</description>
<packages>
<package name="SO08">
<description>&lt;b&gt;Small Outline Package&lt;/b&gt; SOIC 150 mil</description>
<wire x1="2.159" y1="1.9558" x2="-2.159" y2="1.9558" width="0.1524" layer="21"/>
<wire x1="2.159" y1="-1.9558" x2="2.54" y2="-1.5748" width="0.1524" layer="21" curve="90"/>
<wire x1="-2.54" y1="1.5748" x2="-2.159" y2="1.9558" width="0.1524" layer="21" curve="-90"/>
<wire x1="2.159" y1="1.9558" x2="2.54" y2="1.5748" width="0.1524" layer="21" curve="-90"/>
<wire x1="-2.54" y1="-1.5748" x2="-2.159" y2="-1.9558" width="0.1524" layer="21" curve="90"/>
<wire x1="-2.159" y1="-1.9558" x2="2.159" y2="-1.9558" width="0.1524" layer="21"/>
<wire x1="2.54" y1="-1.5748" x2="2.54" y2="1.5748" width="0.1524" layer="21"/>
<wire x1="-2.54" y1="1.5748" x2="-2.54" y2="0.508" width="0.1524" layer="21"/>
<wire x1="-2.54" y1="0.508" x2="-2.54" y2="-0.508" width="0.1524" layer="21"/>
<wire x1="-2.54" y1="-0.508" x2="-2.54" y2="-1.5748" width="0.1524" layer="21"/>
<wire x1="-2.54" y1="0.508" x2="-2.54" y2="-0.508" width="0.1524" layer="21" curve="-180"/>
<wire x1="-2.54" y1="-1.6002" x2="2.54" y2="-1.6002" width="0.0508" layer="21"/>
<smd name="1" x="-1.905" y="-3.0734" dx="0.6604" dy="2.032" layer="1"/>
<smd name="8" x="-1.905" y="3.0734" dx="0.6604" dy="2.032" layer="1"/>
<smd name="2" x="-0.635" y="-3.0734" dx="0.6604" dy="2.032" layer="1"/>
<smd name="3" x="0.635" y="-3.0734" dx="0.6604" dy="2.032" layer="1"/>
<smd name="7" x="-0.635" y="3.0734" dx="0.6604" dy="2.032" layer="1"/>
<smd name="6" x="0.635" y="3.0734" dx="0.6604" dy="2.032" layer="1"/>
<smd name="4" x="1.905" y="-3.0734" dx="0.6604" dy="2.032" layer="1"/>
<smd name="5" x="1.905" y="3.0734" dx="0.6604" dy="2.032" layer="1"/>
<text x="3.937" y="-2.032" size="1.27" layer="27" ratio="10" rot="R90">&gt;VALUE</text>
<text x="-2.921" y="-1.905" size="1.27" layer="25" ratio="10" rot="R90">&gt;NAME</text>
<rectangle x1="1.651" y1="1.9558" x2="2.159" y2="3.0988" layer="51"/>
<rectangle x1="-2.159" y1="-3.0988" x2="-1.651" y2="-1.9558" layer="51"/>
<rectangle x1="-0.889" y1="-3.0988" x2="-0.381" y2="-1.9558" layer="51"/>
<rectangle x1="0.381" y1="-3.0734" x2="0.889" y2="-1.9304" layer="51"/>
<rectangle x1="1.651" y1="-3.0988" x2="2.159" y2="-1.9558" layer="51"/>
<rectangle x1="0.381" y1="1.9558" x2="0.889" y2="3.0988" layer="51"/>
<rectangle x1="-0.889" y1="1.9558" x2="-0.381" y2="3.0988" layer="51"/>
<rectangle x1="-2.159" y1="1.9558" x2="-1.651" y2="3.0988" layer="51"/>
</package>
</packages>
<symbols>
<symbol name="MAX481">
<wire x1="-10.16" y1="12.7" x2="10.16" y2="12.7" width="0.254" layer="94"/>
<wire x1="10.16" y1="12.7" x2="10.16" y2="2.54" width="0.254" layer="94"/>
<wire x1="10.16" y1="2.54" x2="10.16" y2="-2.54" width="0.254" layer="94"/>
<wire x1="10.16" y1="-2.54" x2="10.16" y2="-12.7" width="0.254" layer="94"/>
<wire x1="10.16" y1="-12.7" x2="-10.16" y2="-12.7" width="0.254" layer="94"/>
<wire x1="-10.16" y1="-12.7" x2="-10.16" y2="-7.62" width="0.254" layer="94"/>
<wire x1="-10.16" y1="-7.62" x2="-10.16" y2="-2.54" width="0.254" layer="94"/>
<wire x1="-10.16" y1="-2.54" x2="-10.16" y2="2.54" width="0.254" layer="94"/>
<wire x1="-10.16" y1="2.54" x2="-10.16" y2="7.62" width="0.254" layer="94"/>
<wire x1="-10.16" y1="7.62" x2="-10.16" y2="12.7" width="0.254" layer="94"/>
<wire x1="1.27" y1="11.43" x2="1.27" y2="9.525" width="0.127" layer="94"/>
<wire x1="1.27" y1="9.525" x2="1.27" y2="3.81" width="0.127" layer="94"/>
<wire x1="1.27" y1="3.81" x2="-4.445" y2="7.62" width="0.127" layer="94"/>
<wire x1="-4.445" y1="7.62" x2="1.27" y2="11.43" width="0.127" layer="94"/>
<wire x1="-4.445" y1="-11.43" x2="-4.445" y2="-7.62" width="0.127" layer="94"/>
<wire x1="-4.445" y1="-7.62" x2="-4.445" y2="-3.81" width="0.127" layer="94"/>
<wire x1="-4.445" y1="-3.81" x2="2.54" y2="-7.62" width="0.127" layer="94"/>
<wire x1="2.54" y1="-7.62" x2="-4.445" y2="-11.43" width="0.127" layer="94"/>
<wire x1="-3.302" y1="2.54" x2="-1.27" y2="2.54" width="0.127" layer="94"/>
<wire x1="-1.27" y1="2.54" x2="-1.27" y2="4.064" width="0.127" layer="94"/>
<wire x1="-5.08" y1="-2.54" x2="-1.905" y2="-2.54" width="0.127" layer="94"/>
<wire x1="-1.905" y1="-2.54" x2="-1.905" y2="-5.207" width="0.127" layer="94"/>
<wire x1="2.54" y1="-7.62" x2="6.985" y2="-7.62" width="0.127" layer="94"/>
<wire x1="6.985" y1="-7.62" x2="6.985" y2="-2.54" width="0.127" layer="94"/>
<wire x1="6.985" y1="-2.54" x2="6.985" y2="9.525" width="0.127" layer="94"/>
<wire x1="1.27" y1="9.525" x2="6.985" y2="9.525" width="0.127" layer="94"/>
<wire x1="1.016" y1="-5.715" x2="3.81" y2="-5.715" width="0.127" layer="94"/>
<wire x1="3.81" y1="-5.715" x2="3.81" y2="2.54" width="0.127" layer="94"/>
<wire x1="3.81" y1="2.54" x2="3.81" y2="5.715" width="0.127" layer="94"/>
<wire x1="3.81" y1="5.715" x2="2.54" y2="5.715" width="0.127" layer="94"/>
<wire x1="10.16" y1="2.54" x2="3.81" y2="2.54" width="0.127" layer="94"/>
<wire x1="10.16" y1="-2.54" x2="6.985" y2="-2.54" width="0.127" layer="94"/>
<wire x1="-10.16" y1="7.62" x2="-8.382" y2="7.62" width="0.127" layer="94"/>
<wire x1="-4.953" y1="7.62" x2="-4.445" y2="7.62" width="0.127" layer="94"/>
<wire x1="-10.16" y1="2.54" x2="-8.382" y2="2.54" width="0.127" layer="94"/>
<wire x1="-10.16" y1="-7.62" x2="-8.509" y2="-7.62" width="0.127" layer="94"/>
<wire x1="-5.334" y1="-7.62" x2="-4.445" y2="-7.62" width="0.127" layer="94"/>
<wire x1="-10.16" y1="-2.54" x2="-8.509" y2="-2.54" width="0.127" layer="94"/>
<circle x="-1.27" y="4.699" radius="0.635" width="0.127" layer="94"/>
<circle x="1.905" y="5.715" radius="0.635" width="0.127" layer="94"/>
<circle x="0.381" y="-5.715" radius="0.635" width="0.127" layer="94"/>
<circle x="3.81" y="2.54" radius="0.254" width="0.4064" layer="94"/>
<circle x="6.985" y="-2.54" radius="0.254" width="0.4064" layer="94"/>
<text x="7.62" y="-5.08" size="1.778" layer="95">A</text>
<text x="7.62" y="3.81" size="1.778" layer="95">B</text>
<text x="-10.16" y="13.97" size="1.778" layer="95">&gt;NAME</text>
<text x="-10.16" y="-15.24" size="1.778" layer="96">&gt;VALUE</text>
<pin name="RO" x="-12.7" y="7.62" length="short" direction="out"/>
<pin name="RE/" x="-12.7" y="2.54" length="short" direction="in"/>
<pin name="DE" x="-12.7" y="-2.54" length="short" direction="in"/>
<pin name="DI" x="-12.7" y="-7.62" length="short" direction="in"/>
<pin name="A" x="12.7" y="-2.54" visible="pad" length="short" direction="pas" rot="R180"/>
<pin name="B" x="12.7" y="2.54" visible="pad" length="short" direction="pas" rot="R180"/>
</symbol>
<symbol name="VCC-GND">
<text x="1.524" y="-5.08" size="1.016" layer="95" rot="R90">GND</text>
<text x="1.524" y="2.54" size="1.016" layer="95" rot="R90">VCC</text>
<text x="-0.762" y="-0.762" size="1.778" layer="95">&gt;NAME</text>
<pin name="VCC" x="0" y="7.62" visible="pad" length="middle" direction="pwr" rot="R270"/>
<pin name="GND" x="0" y="-7.62" visible="pad" length="middle" direction="pwr" rot="R90"/>
</symbol>
</symbols>
<devicesets>
<deviceset name="MAX481CSA" prefix="IC">
<description>&lt;b&gt;RS485 TRANSEIVER&lt;/b&gt;</description>
<gates>
<gate name="G$1" symbol="MAX481" x="0" y="0"/>
<gate name="P" symbol="VCC-GND" x="20.32" y="0" addlevel="request"/>
</gates>
<devices>
<device name="" package="SO08">
<connects>
<connect gate="G$1" pin="A" pad="6"/>
<connect gate="G$1" pin="B" pad="7"/>
<connect gate="G$1" pin="DE" pad="3"/>
<connect gate="G$1" pin="DI" pad="4"/>
<connect gate="G$1" pin="RE/" pad="2"/>
<connect gate="G$1" pin="RO" pad="1"/>
<connect gate="P" pin="GND" pad="5"/>
<connect gate="P" pin="VCC" pad="8"/>
</connects>
<technologies>
<technology name="">
<attribute name="MF" value="MAXIM" constant="no"/>
<attribute name="MPN" value="MAX481CSA" constant="no"/>
<attribute name="OC_FARNELL" value="unknown" constant="no"/>
<attribute name="OC_NEWARK" value="90C3817" constant="no"/>
</technology>
</technologies>
</device>
</devices>
</deviceset>
</devicesets>
</library>
<library name="pinhead">
<description>&lt;b&gt;Pin Header Connectors&lt;/b&gt;&lt;p&gt;
&lt;author&gt;Created by librarian@cadsoft.de&lt;/author&gt;</description>
<packages>
<package name="1X03">
<description>&lt;b&gt;PIN HEADER&lt;/b&gt;</description>
<wire x1="-3.175" y1="1.27" x2="-1.905" y2="1.27" width="0.1524" layer="21"/>
<wire x1="-1.905" y1="1.27" x2="-1.27" y2="0.635" width="0.1524" layer="21"/>
<wire x1="-1.27" y1="0.635" x2="-1.27" y2="-0.635" width="0.1524" layer="21"/>
<wire x1="-1.27" y1="-0.635" x2="-1.905" y2="-1.27" width="0.1524" layer="21"/>
<wire x1="-1.27" y1="0.635" x2="-0.635" y2="1.27" width="0.1524" layer="21"/>
<wire x1="-0.635" y1="1.27" x2="0.635" y2="1.27" width="0.1524" layer="21"/>
<wire x1="0.635" y1="1.27" x2="1.27" y2="0.635" width="0.1524" layer="21"/>
<wire x1="1.27" y1="0.635" x2="1.27" y2="-0.635" width="0.1524" layer="21"/>
<wire x1="1.27" y1="-0.635" x2="0.635" y2="-1.27" width="0.1524" layer="21"/>
<wire x1="0.635" y1="-1.27" x2="-0.635" y2="-1.27" width="0.1524" layer="21"/>
<wire x1="-0.635" y1="-1.27" x2="-1.27" y2="-0.635" width="0.1524" layer="21"/>
<wire x1="-3.81" y1="0.635" x2="-3.81" y2="-0.635" width="0.1524" layer="21"/>
<wire x1="-3.175" y1="1.27" x2="-3.81" y2="0.635" width="0.1524" layer="21"/>
<wire x1="-3.81" y1="-0.635" x2="-3.175" y2="-1.27" width="0.1524" layer="21"/>
<wire x1="-1.905" y1="-1.27" x2="-3.175" y2="-1.27" width="0.1524" layer="21"/>
<wire x1="1.27" y1="0.635" x2="1.905" y2="1.27" width="0.1524" layer="21"/>
<wire x1="1.905" y1="1.27" x2="3.175" y2="1.27" width="0.1524" layer="21"/>
<wire x1="3.175" y1="1.27" x2="3.81" y2="0.635" width="0.1524" layer="21"/>
<wire x1="3.81" y1="0.635" x2="3.81" y2="-0.635" width="0.1524" layer="21"/>
<wire x1="3.81" y1="-0.635" x2="3.175" y2="-1.27" width="0.1524" layer="21"/>
<wire x1="3.175" y1="-1.27" x2="1.905" y2="-1.27" width="0.1524" layer="21"/>
<wire x1="1.905" y1="-1.27" x2="1.27" y2="-0.635" width="0.1524" layer="21"/>
<pad name="1" x="-2.54" y="0" drill="1.016" shape="long" rot="R90"/>
<pad name="2" x="0" y="0" drill="1.016" shape="long" rot="R90"/>
<pad name="3" x="2.54" y="0" drill="1.016" shape="long" rot="R90"/>
<text x="-3.8862" y="1.8288" size="1.27" layer="25" ratio="10">&gt;NAME</text>
<text x="-3.81" y="-3.175" size="1.27" layer="27">&gt;VALUE</text>
<rectangle x1="-0.254" y1="-0.254" x2="0.254" y2="0.254" layer="51"/>
<rectangle x1="-2.794" y1="-0.254" x2="-2.286" y2="0.254" layer="51"/>
<rectangle x1="2.286" y1="-0.254" x2="2.794" y2="0.254" layer="51"/>
</package>
<package name="1X03/90">
<description>&lt;b&gt;PIN HEADER&lt;/b&gt;</description>
<wire x1="-3.81" y1="-1.905" x2="-1.27" y2="-1.905" width="0.1524" layer="21"/>
<wire x1="-1.27" y1="-1.905" x2="-1.27" y2="0.635" width="0.1524" layer="21"/>
<wire x1="-1.27" y1="0.635" x2="-3.81" y2="0.635" width="0.1524" layer="21"/>
<wire x1="-3.81" y1="0.635" x2="-3.81" y2="-1.905" width="0.1524" layer="21"/>
<wire x1="-2.54" y1="6.985" x2="-2.54" y2="1.27" width="0.762" layer="21"/>
<wire x1="-1.27" y1="-1.905" x2="1.27" y2="-1.905" width="0.1524" layer="21"/>
<wire x1="1.27" y1="-1.905" x2="1.27" y2="0.635" width="0.1524" layer="21"/>
<wire x1="1.27" y1="0.635" x2="-1.27" y2="0.635" width="0.1524" layer="21"/>
<wire x1="0" y1="6.985" x2="0" y2="1.27" width="0.762" layer="21"/>
<wire x1="1.27" y1="-1.905" x2="3.81" y2="-1.905" width="0.1524" layer="21"/>
<wire x1="3.81" y1="-1.905" x2="3.81" y2="0.635" width="0.1524" layer="21"/>
<wire x1="3.81" y1="0.635" x2="1.27" y2="0.635" width="0.1524" layer="21"/>
<wire x1="2.54" y1="6.985" x2="2.54" y2="1.27" width="0.762" layer="21"/>
<pad name="1" x="-2.54" y="-3.81" drill="1.016" shape="long" rot="R90"/>
<pad name="2" x="0" y="-3.81" drill="1.016" shape="long" rot="R90"/>
<pad name="3" x="2.54" y="-3.81" drill="1.016" shape="long" rot="R90"/>
<text x="-4.445" y="-3.81" size="1.27" layer="25" ratio="10" rot="R90">&gt;NAME</text>
<text x="5.715" y="-3.81" size="1.27" layer="27" rot="R90">&gt;VALUE</text>
<rectangle x1="-2.921" y1="0.635" x2="-2.159" y2="1.143" layer="21"/>
<rectangle x1="-0.381" y1="0.635" x2="0.381" y2="1.143" layer="21"/>
<rectangle x1="2.159" y1="0.635" x2="2.921" y2="1.143" layer="21"/>
<rectangle x1="-2.921" y1="-2.921" x2="-2.159" y2="-1.905" layer="21"/>
<rectangle x1="-0.381" y1="-2.921" x2="0.381" y2="-1.905" layer="21"/>
<rectangle x1="2.159" y1="-2.921" x2="2.921" y2="-1.905" layer="21"/>
</package>
<package name="1X02">
<description>&lt;b&gt;PIN HEADER&lt;/b&gt;</description>
<wire x1="-1.905" y1="1.27" x2="-0.635" y2="1.27" width="0.1524" layer="21"/>
<wire x1="-0.635" y1="1.27" x2="0" y2="0.635" width="0.1524" layer="21"/>
<wire x1="0" y1="0.635" x2="0" y2="-0.635" width="0.1524" layer="21"/>
<wire x1="0" y1="-0.635" x2="-0.635" y2="-1.27" width="0.1524" layer="21"/>
<wire x1="-2.54" y1="0.635" x2="-2.54" y2="-0.635" width="0.1524" layer="21"/>
<wire x1="-1.905" y1="1.27" x2="-2.54" y2="0.635" width="0.1524" layer="21"/>
<wire x1="-2.54" y1="-0.635" x2="-1.905" y2="-1.27" width="0.1524" layer="21"/>
<wire x1="-0.635" y1="-1.27" x2="-1.905" y2="-1.27" width="0.1524" layer="21"/>
<wire x1="0" y1="0.635" x2="0.635" y2="1.27" width="0.1524" layer="21"/>
<wire x1="0.635" y1="1.27" x2="1.905" y2="1.27" width="0.1524" layer="21"/>
<wire x1="1.905" y1="1.27" x2="2.54" y2="0.635" width="0.1524" layer="21"/>
<wire x1="2.54" y1="0.635" x2="2.54" y2="-0.635" width="0.1524" layer="21"/>
<wire x1="2.54" y1="-0.635" x2="1.905" y2="-1.27" width="0.1524" layer="21"/>
<wire x1="1.905" y1="-1.27" x2="0.635" y2="-1.27" width="0.1524" layer="21"/>
<wire x1="0.635" y1="-1.27" x2="0" y2="-0.635" width="0.1524" layer="21"/>
<pad name="1" x="-1.27" y="0" drill="1.016" shape="long" rot="R90"/>
<pad name="2" x="1.27" y="0" drill="1.016" shape="long" rot="R90"/>
<text x="-2.6162" y="1.8288" size="1.27" layer="25" ratio="10">&gt;NAME</text>
<text x="-2.54" y="-3.175" size="1.27" layer="27">&gt;VALUE</text>
<rectangle x1="-1.524" y1="-0.254" x2="-1.016" y2="0.254" layer="51"/>
<rectangle x1="1.016" y1="-0.254" x2="1.524" y2="0.254" layer="51"/>
</package>
<package name="1X02/90">
<description>&lt;b&gt;PIN HEADER&lt;/b&gt;</description>
<wire x1="-2.54" y1="-1.905" x2="0" y2="-1.905" width="0.1524" layer="21"/>
<wire x1="0" y1="-1.905" x2="0" y2="0.635" width="0.1524" layer="21"/>
<wire x1="0" y1="0.635" x2="-2.54" y2="0.635" width="0.1524" layer="21"/>
<wire x1="-2.54" y1="0.635" x2="-2.54" y2="-1.905" width="0.1524" layer="21"/>
<wire x1="-1.27" y1="6.985" x2="-1.27" y2="1.27" width="0.762" layer="21"/>
<wire x1="0" y1="-1.905" x2="2.54" y2="-1.905" width="0.1524" layer="21"/>
<wire x1="2.54" y1="-1.905" x2="2.54" y2="0.635" width="0.1524" layer="21"/>
<wire x1="2.54" y1="0.635" x2="0" y2="0.635" width="0.1524" layer="21"/>
<wire x1="1.27" y1="6.985" x2="1.27" y2="1.27" width="0.762" layer="21"/>
<pad name="1" x="-1.27" y="-3.81" drill="1.016" shape="long" rot="R90"/>
<pad name="2" x="1.27" y="-3.81" drill="1.016" shape="long" rot="R90"/>
<text x="-3.175" y="-3.81" size="1.27" layer="25" ratio="10" rot="R90">&gt;NAME</text>
<text x="4.445" y="-3.81" size="1.27" layer="27" rot="R90">&gt;VALUE</text>
<rectangle x1="-1.651" y1="0.635" x2="-0.889" y2="1.143" layer="21"/>
<rectangle x1="0.889" y1="0.635" x2="1.651" y2="1.143" layer="21"/>
<rectangle x1="-1.651" y1="-2.921" x2="-0.889" y2="-1.905" layer="21"/>
<rectangle x1="0.889" y1="-2.921" x2="1.651" y2="-1.905" layer="21"/>
</package>
</packages>
<symbols>
<symbol name="PINHD3">
<wire x1="-6.35" y1="-5.08" x2="1.27" y2="-5.08" width="0.4064" layer="94"/>
<wire x1="1.27" y1="-5.08" x2="1.27" y2="5.08" width="0.4064" layer="94"/>
<wire x1="1.27" y1="5.08" x2="-6.35" y2="5.08" width="0.4064" layer="94"/>
<wire x1="-6.35" y1="5.08" x2="-6.35" y2="-5.08" width="0.4064" layer="94"/>
<text x="-6.35" y="5.715" size="1.778" layer="95">&gt;NAME</text>
<text x="-6.35" y="-7.62" size="1.778" layer="96">&gt;VALUE</text>
<pin name="1" x="-2.54" y="2.54" visible="pad" length="short" direction="pas" function="dot"/>
<pin name="2" x="-2.54" y="0" visible="pad" length="short" direction="pas" function="dot"/>
<pin name="3" x="-2.54" y="-2.54" visible="pad" length="short" direction="pas" function="dot"/>
</symbol>
<symbol name="PINHD2">
<wire x1="-6.35" y1="-2.54" x2="1.27" y2="-2.54" width="0.4064" layer="94"/>
<wire x1="1.27" y1="-2.54" x2="1.27" y2="5.08" width="0.4064" layer="94"/>
<wire x1="1.27" y1="5.08" x2="-6.35" y2="5.08" width="0.4064" layer="94"/>
<wire x1="-6.35" y1="5.08" x2="-6.35" y2="-2.54" width="0.4064" layer="94"/>
<text x="-6.35" y="5.715" size="1.778" layer="95">&gt;NAME</text>
<text x="-6.35" y="-5.08" size="1.778" layer="96">&gt;VALUE</text>
<pin name="1" x="-2.54" y="2.54" visible="pad" length="short" direction="pas" function="dot"/>
<pin name="2" x="-2.54" y="0" visible="pad" length="short" direction="pas" function="dot"/>
</symbol>
</symbols>
<devicesets>
<deviceset name="PINHD-1X3" prefix="JP" uservalue="yes">
<description>&lt;b&gt;PIN HEADER&lt;/b&gt;</description>
<gates>
<gate name="A" symbol="PINHD3" x="0" y="0"/>
</gates>
<devices>
<device name="" package="1X03">
<connects>
<connect gate="A" pin="1" pad="1"/>
<connect gate="A" pin="2" pad="2"/>
<connect gate="A" pin="3" pad="3"/>
</connects>
<technologies>
<technology name=""/>
</technologies>
</device>
<device name="/90" package="1X03/90">
<connects>
<connect gate="A" pin="1" pad="1"/>
<connect gate="A" pin="2" pad="2"/>
<connect gate="A" pin="3" pad="3"/>
</connects>
<technologies>
<technology name=""/>
</technologies>
</device>
</devices>
</deviceset>
<deviceset name="PINHD-1X2" prefix="JP" uservalue="yes">
<description>&lt;b&gt;PIN HEADER&lt;/b&gt;</description>
<gates>
<gate name="G$1" symbol="PINHD2" x="0" y="0"/>
</gates>
<devices>
<device name="" package="1X02">
<connects>
<connect gate="G$1" pin="1" pad="1"/>
<connect gate="G$1" pin="2" pad="2"/>
</connects>
<technologies>
<technology name=""/>
</technologies>
</device>
<device name="/90" package="1X02/90">
<connects>
<connect gate="G$1" pin="1" pad="1"/>
<connect gate="G$1" pin="2" pad="2"/>
</connects>
<technologies>
<technology name=""/>
</technologies>
</device>
</devices>
</deviceset>
</devicesets>
</library>
<library name="supply1">
<description>&lt;b&gt;Supply Symbols&lt;/b&gt;&lt;p&gt;
 GND, VCC, 0V, +5V, -5V, etc.&lt;p&gt;
 Please keep in mind, that these devices are necessary for the
 automatic wiring of the supply signals.&lt;p&gt;
 The pin name defined in the symbol is identical to the net which is to be wired automatically.&lt;p&gt;
 In this library the device names are the same as the pin names of the symbols, therefore the correct signal names appear next to the supply symbols in the schematic.&lt;p&gt;
 &lt;author&gt;Created by librarian@cadsoft.de&lt;/author&gt;</description>
<packages>
</packages>
<symbols>
<symbol name="GND">
<wire x1="-1.905" y1="0" x2="1.905" y2="0" width="0.254" layer="94"/>
<text x="-2.54" y="-2.54" size="1.778" layer="96">&gt;VALUE</text>
<pin name="GND" x="0" y="2.54" visible="off" length="short" direction="sup" rot="R270"/>
</symbol>
<symbol name="+3V3">
<wire x1="1.27" y1="-1.905" x2="0" y2="0" width="0.254" layer="94"/>
<wire x1="0" y1="0" x2="-1.27" y2="-1.905" width="0.254" layer="94"/>
<text x="-2.54" y="-5.08" size="1.778" layer="96" rot="R90">&gt;VALUE</text>
<pin name="+3V3" x="0" y="-2.54" visible="off" length="short" direction="sup" rot="R90"/>
</symbol>
</symbols>
<devicesets>
<deviceset name="GND" prefix="GND">
<description>&lt;b&gt;SUPPLY SYMBOL&lt;/b&gt;</description>
<gates>
<gate name="1" symbol="GND" x="0" y="0"/>
</gates>
<devices>
<device name="">
<technologies>
<technology name=""/>
</technologies>
</device>
</devices>
</deviceset>
<deviceset name="+3V3" prefix="+3V3">
<description>&lt;b&gt;SUPPLY SYMBOL&lt;/b&gt;</description>
<gates>
<gate name="G$1" symbol="+3V3" x="0" y="0"/>
</gates>
<devices>
<device name="">
<technologies>
<technology name=""/>
</technologies>
</device>
</devices>
</deviceset>
</devicesets>
</library>
<library name="bt_regulator">
<description>&lt;b&gt;Common Voltage Regulators&lt;/b&gt;
&lt;p&gt;Created by Michael Shimniok &lt;a href="http://www.bot-thoughts.com/"&gt;www.bot-thoughts.com&lt;/a&gt;&lt;/b&gt;</description>
<packages>
<package name="SOT-223-3">
<wire x1="3.2766" y1="1.651" x2="3.2766" y2="-1.651" width="0.2032" layer="21"/>
<wire x1="3.2766" y1="-1.651" x2="-3.2766" y2="-1.651" width="0.2032" layer="21"/>
<wire x1="-3.2766" y1="-1.651" x2="-3.2766" y2="1.651" width="0.2032" layer="21"/>
<wire x1="-3.2766" y1="1.651" x2="3.2766" y2="1.651" width="0.2032" layer="21"/>
<smd name="1" x="-2.3114" y="-3.0988" dx="1.2192" dy="2.2352" layer="1"/>
<smd name="2" x="0" y="-3.0988" dx="1.2192" dy="2.2352" layer="1"/>
<smd name="3" x="2.3114" y="-3.0988" dx="1.2192" dy="2.2352" layer="1"/>
<smd name="4" x="0" y="3.099" dx="3.6" dy="2.2" layer="1"/>
<text x="-2.7305" y="0.1905" size="1.016" layer="25">&gt;NAME</text>
<text x="-2.7305" y="-1.2065" size="1.016" layer="27">&gt;VALUE</text>
<rectangle x1="-1.6002" y1="1.8034" x2="1.6002" y2="3.6576" layer="51"/>
<rectangle x1="-0.4318" y1="-3.6576" x2="0.4318" y2="-1.8034" layer="51"/>
<rectangle x1="-2.7432" y1="-3.6576" x2="-1.8796" y2="-1.8034" layer="51"/>
<rectangle x1="1.8796" y1="-3.6576" x2="2.7432" y2="-1.8034" layer="51"/>
<rectangle x1="-1.6002" y1="1.8034" x2="1.6002" y2="3.6576" layer="51"/>
<rectangle x1="-0.4318" y1="-3.6576" x2="0.4318" y2="-1.8034" layer="51"/>
<rectangle x1="-2.7432" y1="-3.6576" x2="-1.8796" y2="-1.8034" layer="51"/>
<rectangle x1="1.8796" y1="-3.6576" x2="2.7432" y2="-1.8034" layer="51"/>
</package>
<package name="TO220L1">
<description>&lt;b&gt;VOLTAGE REGULATOR&lt;/b&gt;</description>
<wire x1="-5.207" y1="-1.27" x2="5.207" y2="-1.27" width="0.1524" layer="21"/>
<wire x1="5.207" y1="14.605" x2="-5.207" y2="14.605" width="0.1524" layer="21"/>
<wire x1="5.207" y1="-1.27" x2="5.207" y2="11.176" width="0.1524" layer="21"/>
<wire x1="5.207" y1="11.176" x2="4.318" y2="11.176" width="0.1524" layer="21"/>
<wire x1="4.318" y1="11.176" x2="4.318" y2="12.7" width="0.1524" layer="21"/>
<wire x1="4.318" y1="12.7" x2="5.207" y2="12.7" width="0.1524" layer="21"/>
<wire x1="5.207" y1="12.7" x2="5.207" y2="14.605" width="0.1524" layer="21"/>
<wire x1="-5.207" y1="-1.27" x2="-5.207" y2="11.176" width="0.1524" layer="21"/>
<wire x1="-5.207" y1="11.176" x2="-4.318" y2="11.176" width="0.1524" layer="21"/>
<wire x1="-4.318" y1="11.176" x2="-4.318" y2="12.7" width="0.1524" layer="21"/>
<wire x1="-4.318" y1="12.7" x2="-5.207" y2="12.7" width="0.1524" layer="21"/>
<wire x1="-5.207" y1="12.7" x2="-5.207" y2="14.605" width="0.1524" layer="21"/>
<wire x1="-4.572" y1="-0.635" x2="4.572" y2="-0.635" width="0.0508" layer="21"/>
<wire x1="4.572" y1="7.62" x2="4.572" y2="-0.635" width="0.0508" layer="21"/>
<wire x1="4.572" y1="7.62" x2="-4.572" y2="7.62" width="0.0508" layer="21"/>
<wire x1="-4.572" y1="-0.635" x2="-4.572" y2="7.62" width="0.0508" layer="21"/>
<circle x="0" y="11.176" radius="1.8034" width="0.1524" layer="21"/>
<circle x="0" y="11.176" radius="4.191" width="0" layer="42"/>
<circle x="0" y="11.176" radius="4.191" width="0" layer="43"/>
<pad name="1" x="-2.54" y="-3.81" drill="1.016" shape="long" rot="R90"/>
<pad name="2" x="0" y="-3.81" drill="1.016" shape="long" rot="R90"/>
<pad name="3" x="2.54" y="-3.81" drill="1.016" shape="long" rot="R90"/>
<text x="-3.81" y="5.08" size="1.778" layer="25" ratio="10">&gt;NAME</text>
<text x="-3.937" y="2.54" size="1.778" layer="27" ratio="10">&gt;VALUE</text>
<text x="-4.445" y="7.874" size="0.9906" layer="21" ratio="10">A15,2mm</text>
<text x="-3.048" y="0" size="1.27" layer="51" ratio="10">1</text>
<text x="-0.508" y="0" size="1.27" layer="51" ratio="10">2</text>
<text x="2.032" y="0" size="1.27" layer="51" ratio="10">3</text>
<rectangle x1="1.905" y1="-2.159" x2="3.175" y2="-1.27" layer="21"/>
<rectangle x1="1.905" y1="-3.81" x2="3.175" y2="-2.159" layer="51"/>
<rectangle x1="-0.635" y1="-2.159" x2="0.635" y2="-1.27" layer="21"/>
<rectangle x1="-3.175" y1="-2.159" x2="-1.905" y2="-1.27" layer="21"/>
<rectangle x1="-0.635" y1="-3.81" x2="0.635" y2="-2.159" layer="51"/>
<rectangle x1="-3.175" y1="-3.81" x2="-1.905" y2="-2.159" layer="51"/>
<hole x="0" y="11.176" drill="3.302"/>
<pad name="4" x="0" y="11.176" drill="3.2"/>
</package>
</packages>
<symbols>
<symbol name="V-REG-3-FIX-HS">
<pin name="VIN" x="-7.62" y="2.54" visible="off" length="short"/>
<pin name="VOUT" x="7.62" y="2.54" visible="off" length="short" rot="R180"/>
<pin name="GND" x="0" y="-5.08" visible="off" length="short" rot="R90"/>
<wire x1="-5.08" y1="-2.54" x2="5.08" y2="-2.54" width="0.4064" layer="94"/>
<wire x1="5.08" y1="-2.54" x2="5.08" y2="5.08" width="0.4064" layer="94"/>
<wire x1="5.08" y1="5.08" x2="-5.08" y2="5.08" width="0.4064" layer="94"/>
<wire x1="-5.08" y1="5.08" x2="-5.08" y2="-2.54" width="0.4064" layer="94"/>
<text x="2.54" y="-5.08" size="1.778" layer="95">&gt;NAME</text>
<text x="2.54" y="-7.62" size="1.778" layer="96">&gt;VALUE</text>
<text x="-2.032" y="-1.778" size="1.524" layer="95">GND</text>
<text x="-4.445" y="1.905" size="1.524" layer="95">IN</text>
<text x="0.635" y="1.905" size="1.524" layer="95">OUT</text>
<pin name="HEATSINK" x="7.62" y="0" visible="off" length="short" rot="R180"/>
</symbol>
</symbols>
<devicesets>
<deviceset name="LM1117" prefix="IC">
<description>&lt;b&gt;LDO Voltage Regulator&lt;/b&gt;

&lt;p&gt;NCP1117 series are low dropout positive voltage regulators that are capable of providing an output current that is in excess of 1.0 A with a maximum dropout voltage of 1.2 V at 800 mA over
temperature. This series contains nine fixed output voltages of 1.5 V, 1.8 V, 1.9 V, 2.0 V, 2.5 V, 2.85 V, 3.3 V, 5.0 V, and 12 V that have no minimum load requirement to maintain regulation. Also included is an adjustable output version that can be programmed from 1.25 V to 18.8 V with two external resistors. &lt;a href="http://www.onsemi.com/pub_link/Collateral/NCP1117-D.PDF"&gt;datasheet.pdf&lt;/a&gt;

&lt;p&gt;LM1117-N is a series of low dropout voltage regulators of 1.2V at 800mA of load current. It has the same pin-out as Texas Instruments' industry standard LM317. The LM1117-N is available in an adjustable version, available in five fixed voltages, 1.8V, 2.5V, 2.85V, 3.3V, and 5V. The LM1117-N offers current limiting and thermal shutdown. Its circuit includes a zener trimmed to within ±1%.
&lt;a href="http://www.ti.com/lit/ds/symlink/lm1117-n.pdf"&gt;datasheet.pdf&lt;/a&gt;</description>
<gates>
<gate name="G$1" symbol="V-REG-3-FIX-HS" x="0" y="0"/>
</gates>
<devices>
<device name="-SOT223" package="SOT-223-3">
<connects>
<connect gate="G$1" pin="GND" pad="1"/>
<connect gate="G$1" pin="HEATSINK" pad="4"/>
<connect gate="G$1" pin="VIN" pad="3"/>
<connect gate="G$1" pin="VOUT" pad="2"/>
</connects>
<technologies>
<technology name=""/>
</technologies>
</device>
<device name="-TO22OH" package="TO220L1">
<connects>
<connect gate="G$1" pin="GND" pad="1"/>
<connect gate="G$1" pin="HEATSINK" pad="4"/>
<connect gate="G$1" pin="VIN" pad="3"/>
<connect gate="G$1" pin="VOUT" pad="2"/>
</connects>
<technologies>
<technology name=""/>
</technologies>
</device>
</devices>
</deviceset>
</devicesets>
</library>
</libraries>
<attributes>
</attributes>
<variantdefs>
</variantdefs>
<classes>
<class number="0" name="default" width="0" drill="0">
</class>
</classes>
<parts>
<part name="IC1" library="maxim" deviceset="MAX481CSA" device=""/>
<part name="IC2" library="maxim" deviceset="MAX481CSA" device=""/>
<part name="JP1" library="pinhead" deviceset="PINHD-1X3" device=""/>
<part name="JP2" library="pinhead" deviceset="PINHD-1X3" device=""/>
<part name="IC3" library="maxim" deviceset="MAX481CSA" device=""/>
<part name="JP3" library="pinhead" deviceset="PINHD-1X3" device=""/>
<part name="GND1" library="supply1" deviceset="GND" device=""/>
<part name="GND2" library="supply1" deviceset="GND" device=""/>
<part name="GND3" library="supply1" deviceset="GND" device=""/>
<part name="GND4" library="supply1" deviceset="GND" device=""/>
<part name="+3V1" library="supply1" deviceset="+3V3" device=""/>
<part name="+3V2" library="supply1" deviceset="+3V3" device=""/>
<part name="GND5" library="supply1" deviceset="GND" device=""/>
<part name="IC4" library="bt_regulator" deviceset="LM1117" device="-SOT223"/>
<part name="JP4" library="pinhead" deviceset="PINHD-1X2" device=""/>
<part name="GND6" library="supply1" deviceset="GND" device=""/>
<part name="+3V3" library="supply1" deviceset="+3V3" device=""/>
<part name="+3V4" library="supply1" deviceset="+3V3" device=""/>
<part name="+3V5" library="supply1" deviceset="+3V3" device=""/>
<part name="GND7" library="supply1" deviceset="GND" device=""/>
<part name="GND8" library="supply1" deviceset="GND" device=""/>
</parts>
<sheets>
<sheet>
<plain>
</plain>
<instances>
<instance part="IC1" gate="G$1" x="-30.48" y="0" rot="MR0"/>
<instance part="IC2" gate="G$1" x="22.86" y="0"/>
<instance part="JP1" gate="A" x="-68.58" y="0" rot="R180"/>
<instance part="JP2" gate="A" x="55.88" y="0"/>
<instance part="IC3" gate="G$1" x="22.86" y="-33.02"/>
<instance part="JP3" gate="A" x="55.88" y="-33.02"/>
<instance part="GND1" gate="1" x="48.26" y="-12.7"/>
<instance part="GND2" gate="1" x="48.26" y="-43.18"/>
<instance part="GND3" gate="1" x="-60.96" y="-10.16"/>
<instance part="GND4" gate="1" x="-12.7" y="-20.32"/>
<instance part="+3V1" gate="G$1" x="5.08" y="10.16"/>
<instance part="IC1" gate="P" x="-30.48" y="20.32" rot="R90"/>
<instance part="IC2" gate="P" x="22.86" y="22.86" rot="R90"/>
<instance part="IC3" gate="P" x="20.32" y="-60.96" rot="R90"/>
<instance part="+3V2" gate="G$1" x="12.7" y="-53.34"/>
<instance part="GND5" gate="1" x="30.48" y="-68.58"/>
<instance part="IC4" gate="G$1" x="-63.5" y="-25.4"/>
<instance part="JP4" gate="G$1" x="-81.28" y="-22.86" rot="R180"/>
<instance part="GND6" gate="1" x="-63.5" y="-43.18"/>
<instance part="+3V3" gate="G$1" x="-50.8" y="-12.7"/>
<instance part="+3V4" gate="G$1" x="-45.72" y="27.94"/>
<instance part="+3V5" gate="G$1" x="12.7" y="30.48"/>
<instance part="GND7" gate="1" x="35.56" y="17.78"/>
<instance part="GND8" gate="1" x="-17.78" y="15.24"/>
</instances>
<busses>
</busses>
<nets>
<net name="N$1" class="0">
<segment>
<pinref part="JP1" gate="A" pin="3"/>
<pinref part="IC1" gate="G$1" pin="B"/>
<wire x1="-66.04" y1="2.54" x2="-43.18" y2="2.54" width="0.1524" layer="91"/>
</segment>
</net>
<net name="N$3" class="0">
<segment>
<pinref part="JP1" gate="A" pin="2"/>
<wire x1="-66.04" y1="0" x2="-48.26" y2="0" width="0.1524" layer="91"/>
<wire x1="-48.26" y1="0" x2="-48.26" y2="-2.54" width="0.1524" layer="91"/>
<pinref part="IC1" gate="G$1" pin="A"/>
<wire x1="-48.26" y1="-2.54" x2="-43.18" y2="-2.54" width="0.1524" layer="91"/>
</segment>
</net>
<net name="N$4" class="0">
<segment>
<pinref part="IC2" gate="G$1" pin="B"/>
<pinref part="JP2" gate="A" pin="1"/>
<wire x1="35.56" y1="2.54" x2="53.34" y2="2.54" width="0.1524" layer="91"/>
</segment>
</net>
<net name="N$5" class="0">
<segment>
<pinref part="JP2" gate="A" pin="2"/>
<wire x1="53.34" y1="0" x2="40.64" y2="0" width="0.1524" layer="91"/>
<wire x1="40.64" y1="0" x2="40.64" y2="-2.54" width="0.1524" layer="91"/>
<pinref part="IC2" gate="G$1" pin="A"/>
<wire x1="40.64" y1="-2.54" x2="35.56" y2="-2.54" width="0.1524" layer="91"/>
</segment>
</net>
<net name="N$6" class="0">
<segment>
<pinref part="IC3" gate="G$1" pin="B"/>
<pinref part="JP3" gate="A" pin="1"/>
<wire x1="35.56" y1="-30.48" x2="53.34" y2="-30.48" width="0.1524" layer="91"/>
</segment>
</net>
<net name="N$7" class="0">
<segment>
<pinref part="JP3" gate="A" pin="2"/>
<wire x1="53.34" y1="-33.02" x2="40.64" y2="-33.02" width="0.1524" layer="91"/>
<wire x1="40.64" y1="-33.02" x2="40.64" y2="-35.56" width="0.1524" layer="91"/>
<pinref part="IC3" gate="G$1" pin="A"/>
<wire x1="40.64" y1="-35.56" x2="35.56" y2="-35.56" width="0.1524" layer="91"/>
</segment>
</net>
<net name="GND" class="0">
<segment>
<pinref part="JP1" gate="A" pin="1"/>
<pinref part="GND3" gate="1" pin="GND"/>
<wire x1="-66.04" y1="-2.54" x2="-60.96" y2="-2.54" width="0.1524" layer="91"/>
<wire x1="-60.96" y1="-2.54" x2="-60.96" y2="-7.62" width="0.1524" layer="91"/>
</segment>
<segment>
<pinref part="JP2" gate="A" pin="3"/>
<pinref part="GND1" gate="1" pin="GND"/>
<wire x1="53.34" y1="-2.54" x2="48.26" y2="-2.54" width="0.1524" layer="91"/>
<wire x1="48.26" y1="-2.54" x2="48.26" y2="-10.16" width="0.1524" layer="91"/>
</segment>
<segment>
<pinref part="JP3" gate="A" pin="3"/>
<pinref part="GND2" gate="1" pin="GND"/>
<wire x1="53.34" y1="-35.56" x2="48.26" y2="-35.56" width="0.1524" layer="91"/>
<wire x1="48.26" y1="-35.56" x2="48.26" y2="-40.64" width="0.1524" layer="91"/>
</segment>
<segment>
<pinref part="IC1" gate="G$1" pin="RE/"/>
<wire x1="-17.78" y1="2.54" x2="-12.7" y2="2.54" width="0.1524" layer="91"/>
<wire x1="-12.7" y1="2.54" x2="-12.7" y2="-2.54" width="0.1524" layer="91"/>
<pinref part="IC1" gate="G$1" pin="DE"/>
<wire x1="-12.7" y1="-2.54" x2="-17.78" y2="-2.54" width="0.1524" layer="91"/>
<pinref part="GND4" gate="1" pin="GND"/>
<wire x1="-12.7" y1="-17.78" x2="-12.7" y2="-2.54" width="0.1524" layer="91"/>
<junction x="-12.7" y="-2.54"/>
</segment>
<segment>
<pinref part="GND5" gate="1" pin="GND"/>
<pinref part="IC3" gate="P" pin="GND"/>
<wire x1="30.48" y1="-66.04" x2="30.48" y2="-60.96" width="0.1524" layer="91"/>
<wire x1="30.48" y1="-60.96" x2="27.94" y2="-60.96" width="0.1524" layer="91"/>
</segment>
<segment>
<pinref part="JP4" gate="G$1" pin="1"/>
<wire x1="-78.74" y1="-25.4" x2="-73.66" y2="-25.4" width="0.1524" layer="91"/>
<wire x1="-73.66" y1="-25.4" x2="-73.66" y2="-35.56" width="0.1524" layer="91"/>
<wire x1="-73.66" y1="-35.56" x2="-63.5" y2="-35.56" width="0.1524" layer="91"/>
<pinref part="IC4" gate="G$1" pin="GND"/>
<wire x1="-63.5" y1="-35.56" x2="-63.5" y2="-30.48" width="0.1524" layer="91"/>
<pinref part="GND6" gate="1" pin="GND"/>
<wire x1="-63.5" y1="-40.64" x2="-63.5" y2="-35.56" width="0.1524" layer="91"/>
<junction x="-63.5" y="-35.56"/>
</segment>
<segment>
<pinref part="IC1" gate="P" pin="GND"/>
<pinref part="GND8" gate="1" pin="GND"/>
<wire x1="-22.86" y1="20.32" x2="-17.78" y2="20.32" width="0.1524" layer="91"/>
<wire x1="-17.78" y1="20.32" x2="-17.78" y2="17.78" width="0.1524" layer="91"/>
</segment>
<segment>
<pinref part="IC2" gate="P" pin="GND"/>
<pinref part="GND7" gate="1" pin="GND"/>
<wire x1="30.48" y1="22.86" x2="35.56" y2="22.86" width="0.1524" layer="91"/>
<wire x1="35.56" y1="22.86" x2="35.56" y2="20.32" width="0.1524" layer="91"/>
</segment>
</net>
<net name="N$8" class="0">
<segment>
<pinref part="IC1" gate="G$1" pin="RO"/>
<wire x1="-17.78" y1="7.62" x2="-10.16" y2="7.62" width="0.1524" layer="91"/>
<wire x1="-10.16" y1="-40.64" x2="-10.16" y2="-7.62" width="0.1524" layer="91"/>
<pinref part="IC3" gate="G$1" pin="DI"/>
<wire x1="-10.16" y1="-7.62" x2="-10.16" y2="7.62" width="0.1524" layer="91"/>
<wire x1="-10.16" y1="-40.64" x2="10.16" y2="-40.64" width="0.1524" layer="91"/>
<pinref part="IC2" gate="G$1" pin="DI"/>
<wire x1="10.16" y1="-7.62" x2="-10.16" y2="-7.62" width="0.1524" layer="91"/>
<junction x="-10.16" y="-7.62"/>
</segment>
</net>
<net name="+3V3" class="0">
<segment>
<pinref part="IC2" gate="G$1" pin="DE"/>
<wire x1="10.16" y1="-2.54" x2="5.08" y2="-2.54" width="0.1524" layer="91"/>
<wire x1="5.08" y1="-2.54" x2="5.08" y2="2.54" width="0.1524" layer="91"/>
<pinref part="IC2" gate="G$1" pin="RE/"/>
<wire x1="5.08" y1="2.54" x2="10.16" y2="2.54" width="0.1524" layer="91"/>
<pinref part="IC3" gate="G$1" pin="DE"/>
<wire x1="10.16" y1="-35.56" x2="5.08" y2="-35.56" width="0.1524" layer="91"/>
<wire x1="5.08" y1="-35.56" x2="5.08" y2="-30.48" width="0.1524" layer="91"/>
<pinref part="IC3" gate="G$1" pin="RE/"/>
<wire x1="5.08" y1="-30.48" x2="10.16" y2="-30.48" width="0.1524" layer="91"/>
<wire x1="5.08" y1="-2.54" x2="5.08" y2="-30.48" width="0.1524" layer="91"/>
<junction x="5.08" y="-2.54"/>
<junction x="5.08" y="-30.48"/>
<pinref part="+3V1" gate="G$1" pin="+3V3"/>
<wire x1="5.08" y1="2.54" x2="5.08" y2="7.62" width="0.1524" layer="91"/>
<junction x="5.08" y="2.54"/>
</segment>
<segment>
<pinref part="IC3" gate="P" pin="VCC"/>
<pinref part="+3V2" gate="G$1" pin="+3V3"/>
<wire x1="12.7" y1="-60.96" x2="12.7" y2="-55.88" width="0.1524" layer="91"/>
</segment>
<segment>
<pinref part="+3V3" gate="G$1" pin="+3V3"/>
<pinref part="IC4" gate="G$1" pin="VOUT"/>
<wire x1="-50.8" y1="-15.24" x2="-50.8" y2="-22.86" width="0.1524" layer="91"/>
<wire x1="-50.8" y1="-22.86" x2="-55.88" y2="-22.86" width="0.1524" layer="91"/>
<pinref part="IC4" gate="G$1" pin="HEATSINK"/>
<wire x1="-55.88" y1="-25.4" x2="-50.8" y2="-25.4" width="0.1524" layer="91"/>
<wire x1="-50.8" y1="-25.4" x2="-50.8" y2="-22.86" width="0.1524" layer="91"/>
<junction x="-50.8" y="-22.86"/>
</segment>
<segment>
<pinref part="+3V4" gate="G$1" pin="+3V3"/>
<pinref part="IC1" gate="P" pin="VCC"/>
<wire x1="-45.72" y1="25.4" x2="-45.72" y2="20.32" width="0.1524" layer="91"/>
<wire x1="-45.72" y1="20.32" x2="-38.1" y2="20.32" width="0.1524" layer="91"/>
</segment>
<segment>
<pinref part="+3V5" gate="G$1" pin="+3V3"/>
<pinref part="IC2" gate="P" pin="VCC"/>
<wire x1="12.7" y1="27.94" x2="12.7" y2="22.86" width="0.1524" layer="91"/>
<wire x1="12.7" y1="22.86" x2="15.24" y2="22.86" width="0.1524" layer="91"/>
</segment>
</net>
<net name="N$2" class="0">
<segment>
<pinref part="JP4" gate="G$1" pin="2"/>
<pinref part="IC4" gate="G$1" pin="VIN"/>
<wire x1="-78.74" y1="-22.86" x2="-71.12" y2="-22.86" width="0.1524" layer="91"/>
</segment>
</net>
</nets>
</sheet>
</sheets>
</schematic>
</drawing>
</eagle>
